{
    "admin_closed_comment": false,
    "annotation_action": [],
    "author": {
        "avatar_url": "https://pic3.zhimg.com/4ad478c148b4e9ccbe312cfa53402b0f_l.jpg",
        "avatar_url_template": "https://pic3.zhimg.com/4ad478c148b4e9ccbe312cfa53402b0f_{size}.jpg",
        "badge": [],
        "description": "一万本大学生 | Programmer at large | 特别擅长玩坏 BGP | 个人网站 https://swineson.me | 有事请发邮件至 zhihu@public.swineson.me，知乎现在不怎么上，其他联系方式也可能疏于关照 | 本人已委托维权骑士（http://rightknights.com）为我的文章进行维权行动",
        "gender": 1,
        "headline": "已而！已而！",
        "id": "72036ce918812daac46c75d7cac1e7d2",
        "is_advertiser": false,
        "is_followed": false,
        "is_following": false,
        "is_org": false,
        "name": "James Swineson",
        "type": "people",
        "uid": "27898769571840",
        "url": "/people/72036ce918812daac46c75d7cac1e7d2",
        "url_token": "james-swineson",
        "user_type": "people"
    },
    "can_comment": {
        "reason": "",
        "status": true
    },
    "can_tip": true,
    "column": {
        "accept_submission": true,
        "articles_count": 48,
        "author": {
            "avatar_url": "https://pic3.zhimg.com/4ad478c148b4e9ccbe312cfa53402b0f_l.jpg",
            "avatar_url_template": "https://pic3.zhimg.com/4ad478c148b4e9ccbe312cfa53402b0f_{size}.jpg",
            "description": "一万本大学生 | Programmer at large | 特别擅长玩坏 BGP | 个人网站 https://swineson.me | 有事请发邮件至 zhihu@public.swineson.me，知乎现在不怎么上，其他联系方式也可能疏于关照 | 本人已委托维权骑士（http://rightknights.com）为我的文章进行维权行动",
            "gender": 1,
            "headline": "已而！已而！",
            "id": "72036ce918812daac46c75d7cac1e7d2",
            "is_advertiser": false,
            "is_followed": false,
            "is_following": false,
            "is_org": false,
            "name": "James Swineson",
            "type": "people",
            "uid": "27898769571840",
            "url": "/people/72036ce918812daac46c75d7cac1e7d2",
            "url_token": "james-swineson",
            "user_type": "people"
        },
        "can_manage": false,
        "comment_permission": "all",
        "created": 1376392789,
        "description": "Vaporware 的沉积之处。一个缺乏行动力的人的自白。程序猿锻炼能力做项目的选材宝地。创业者寻找想法的好地方。\n\n新来的同学请先看这篇说明：http://zhuanlan.zhihu.com/ideas/19566363\n\n欢迎访问我的博客：https://blog.swineson.me\n\nLicensed under CC by-nc-sa 4.0 International.",
        "followers": 2000,
        "id": "ideas",
        "image_url": "https://pic4.zhimg.com/cda86ea4b_b.jpg",
        "intro": "Vaporware 的沉积之处。一个缺乏行动力的…",
        "is_following": false,
        "title": "各种想法",
        "type": "column",
        "updated": 1454819429,
        "url": "https://zhuanlan.zhihu.com/ideas",
        "url_token": "ideas"
    },
    "comment_count": 7,
    "comment_permission": "all",
    "commercial_info": {
        "is_commercial": false,
        "plugin": {}
    },
    "content": "<h2>概念</h2>一个构建于暗网之上的分布式评论系统。任何东西都可以加以评论；区分这些东西的只是一个 domain 加一个 hash 形成的评论路径。<p>例如这篇文章的评论路径就可以是 </p><div class=\"highlight\"><pre><code class=\"language-text\"><span></span>web:zhuanlan.zhihu.com|22743561\n</code></pre></div><p>而《深入理解计算机系统》一书的评论路径可以是</p><div class=\"highlight\"><pre><code class=\"language-text\"><span></span>book|ISBN:9787111321330\n</code></pre></div><p>评论可以以浏览器插件或者任何其它形式显示在相应内容旁边。比如你打开亚马逊或者豆瓣某本书的页面，浏览器插件就会自动加载对应书的评论区。网页也是如此。<br></p><h2>设计</h2><p>我希望这个服务可以有一个好友系统——我加你为好友，代表我愿意和你交换我们知道的评论。每个你发出的评论都有一个 TTL 值，它通过你的好友关系网络传播到 TTL=0 时便终结。</p><p>每个节点可以有不同的角色和倾向性。比如一个针对特定网站的评论中心节点会只存储和转送域为该网站的评论并将其 TTL 设为 1，那么加这个节点为好友的人就能收到所有其他人对这个网站上页面的评论。</p>",
    "contributions": [
        {
            "column": {
                "accept_submission": true,
                "articles_count": 48,
                "author": {
                    "avatar_url": "https://pic3.zhimg.com/4ad478c148b4e9ccbe312cfa53402b0f_l.jpg",
                    "avatar_url_template": "https://pic3.zhimg.com/4ad478c148b4e9ccbe312cfa53402b0f_{size}.jpg",
                    "description": "一万本大学生 | Programmer at large | 特别擅长玩坏 BGP | 个人网站 https://swineson.me | 有事请发邮件至 zhihu@public.swineson.me，知乎现在不怎么上，其他联系方式也可能疏于关照 | 本人已委托维权骑士（http://rightknights.com）为我的文章进行维权行动",
                    "gender": 1,
                    "headline": "已而！已而！",
                    "id": "72036ce918812daac46c75d7cac1e7d2",
                    "is_advertiser": false,
                    "is_followed": false,
                    "is_following": false,
                    "is_org": false,
                    "name": "James Swineson",
                    "type": "people",
                    "uid": "27898769571840",
                    "url": "/people/72036ce918812daac46c75d7cac1e7d2",
                    "url_token": "james-swineson",
                    "user_type": "people"
                },
                "can_manage": false,
                "comment_permission": "all",
                "created": 1376392789,
                "description": "Vaporware 的沉积之处。一个缺乏行动力的人的自白。程序猿锻炼能力做项目的选材宝地。创业者寻找想法的好地方。\n\n新来的同学请先看这篇说明：http://zhuanlan.zhihu.com/ideas/19566363\n\n欢迎访问我的博客：https://blog.swineson.me\n\nLicensed under CC by-nc-sa 4.0 International.",
                "followers": 2000,
                "id": "ideas",
                "image_url": "https://pic4.zhimg.com/cda86ea4b_b.jpg",
                "intro": "Vaporware 的沉积之处。一个缺乏行动力的…",
                "is_following": false,
                "title": "各种想法",
                "type": "column",
                "updated": 1454819429,
                "url": "https://zhuanlan.zhihu.com/ideas",
                "url_token": "ideas"
            },
            "id": 442748,
            "state": "accepted",
            "type": "first_publish"
        }
    ],
    "created": 1475461156,
    "excerpt": "概念一个构建于暗网之上的分布式评论系统。任何东西都可以加以评论；区分这些东西的只是一个 domain 加一个 hash 形成的评论路径。例如这篇文章的评论路径就可以是 web:zhuanlan.zhihu.com|22743561而《深入理解计算机系统》一书的评论路径可以是book|ISBN:…",
    "excerpt_title": "",
    "has_publishing_draft": false,
    "id": 22743561,
    "image_height": 0,
    "image_url": "",
    "image_width": 0,
    "is_favorited": false,
    "is_labeled": false,
    "is_normal": true,
    "is_title_image_full_screen": false,
    "reason": "",
    "share_text": "[Service] Open Comment System 开放评论系统 - 来自知乎专栏「各种想法」，作者: James Swineson https://zhuanlan.zhihu.com/p/22743561 （想看更多？下载 @知乎 App：http://weibo.com/p/100404711598 ）",
    "state": "published",
    "status": 0,
    "suggest_edit": {
        "reason": "",
        "status": false,
        "tip": "",
        "title": "",
        "url": ""
    },
    "tipjarors_count": 0,
    "title": "[Service] Open Comment System 开放评论系统",
    "title_image": "",
    "topics": [
        {
            "id": "19968746",
            "name": "Dark Network",
            "type": "topic",
            "url": "https://www.zhihu.com/api/v4/topics/19968746"
        },
        {
            "id": "19552309",
            "name": "去中心化",
            "type": "topic",
            "url": "https://www.zhihu.com/api/v4/topics/19552309"
        },
        {
            "id": "19567344",
            "name": "评论",
            "type": "topic",
            "url": "https://www.zhihu.com/api/v4/topics/19567344"
        }
    ],
    "type": "article",
    "updated": 1475461347,
    "upvoted_followees": [],
    "url": "https://zhuanlan.zhihu.com/p/22743561",
    "voteup_count": 27,
    "voting": 0
}