{
    "admin_closed_comment": false,
    "author": {
        "avatar_url": "https://pic3.zhimg.com/4ad478c148b4e9ccbe312cfa53402b0f_l.jpg",
        "avatar_url_template": "https://pic3.zhimg.com/4ad478c148b4e9ccbe312cfa53402b0f_{size}.jpg",
        "badge": [],
        "description": "一万本大学生 | Programmer at large | 特别擅长玩坏 BGP | 个人网站 https://swineson.me | 有事请发邮件至 zhihu@public.swineson.me，知乎现在不怎么上，其他联系方式也可能疏于关照 | 本人已委托维权骑士（http://rightknights.com）为我的文章进行维权行动",
        "gender": 1,
        "headline": "已而！已而！",
        "id": "72036ce918812daac46c75d7cac1e7d2",
        "is_advertiser": false,
        "is_followed": false,
        "is_following": false,
        "is_org": false,
        "name": "James Swineson",
        "type": "people",
        "uid": "27898769571840",
        "url": "/people/72036ce918812daac46c75d7cac1e7d2",
        "url_token": "james-swineson",
        "user_type": "people"
    },
    "can_comment": {
        "reason": "",
        "status": true
    },
    "comment_count": 8,
    "comment_permission": "all",
    "created": 1411483071,
    "excerpt": "<img data-rawheight=\"190\" data-rawwidth=\"639\" src=\"https://pic4.zhimg.com/7d93f2433655a2eae9d81f5566018a57_200x112.jpg\" class=\"origin_image inline-img zh-lightbox-thumb\" data-original=\"https://pic4.zhimg.com/7d93f2433655a2eae9d81f5566018a57_r.jpg\">",
    "excerpt_title": "",
    "id": 19855254,
    "image_url": "",
    "is_labeled": false,
    "state": "published",
    "title": "这是一封根据你的兴趣定制的精华合集",
    "title_image": "",
    "type": "article",
    "updated": 1411483071,
    "url": "https://zhuanlan.zhihu.com/p/19855254",
    "voteup_count": 20,
    "voting": 0
}