{
    "admin_closed_comment": false,
    "annotation_action": [],
    "author": {
        "avatar_url": "https://pic3.zhimg.com/4ad478c148b4e9ccbe312cfa53402b0f_l.jpg",
        "avatar_url_template": "https://pic3.zhimg.com/4ad478c148b4e9ccbe312cfa53402b0f_{size}.jpg",
        "badge": [],
        "description": "一万本大学生 | Programmer at large | 特别擅长玩坏 BGP | 个人网站 https://swineson.me | 有事请发邮件至 zhihu@public.swineson.me，知乎现在不怎么上，其他联系方式也可能疏于关照 | 本人已委托维权骑士（http://rightknights.com）为我的文章进行维权行动",
        "gender": 1,
        "headline": "已而！已而！",
        "id": "72036ce918812daac46c75d7cac1e7d2",
        "is_advertiser": false,
        "is_followed": false,
        "is_following": false,
        "is_org": false,
        "name": "James Swineson",
        "type": "people",
        "uid": "27898769571840",
        "url": "/people/72036ce918812daac46c75d7cac1e7d2",
        "url_token": "james-swineson",
        "user_type": "people"
    },
    "can_comment": {
        "reason": "",
        "status": true
    },
    "can_tip": false,
    "column": {
        "accept_submission": true,
        "articles_count": 47,
        "author": {
            "avatar_url": "https://pic3.zhimg.com/4ad478c148b4e9ccbe312cfa53402b0f_l.jpg",
            "avatar_url_template": "https://pic3.zhimg.com/4ad478c148b4e9ccbe312cfa53402b0f_{size}.jpg",
            "description": "一万本大学生 | Programmer at large | 特别擅长玩坏 BGP | 个人网站 https://swineson.me | 有事请发邮件至 zhihu@public.swineson.me，知乎现在不怎么上，其他联系方式也可能疏于关照 | 本人已委托维权骑士（http://rightknights.com）为我的文章进行维权行动",
            "gender": 1,
            "headline": "已而！已而！",
            "id": "72036ce918812daac46c75d7cac1e7d2",
            "is_advertiser": false,
            "is_followed": false,
            "is_following": false,
            "is_org": false,
            "name": "James Swineson",
            "type": "people",
            "uid": "27898769571840",
            "url": "/people/72036ce918812daac46c75d7cac1e7d2",
            "url_token": "james-swineson",
            "user_type": "people"
        },
        "can_manage": false,
        "comment_permission": "all",
        "created": 1391767170,
        "description": "请不要相信我在这里说的任何一句话。包括这句话和上面一句。\n\n有任何问题请发邮件到：jamesswineson+from-mynonsense@gmail.com",
        "followers": 1351,
        "id": "MyNonsense",
        "image_url": "https://pic1.zhimg.com/31aa55d6f_b.jpg",
        "intro": "请不要相信我在这里说的任何一句话。包括这句话和上…",
        "is_following": false,
        "title": "胡说八道",
        "type": "column",
        "updated": 1492411829,
        "url": "https://zhuanlan.zhihu.com/MyNonsense",
        "url_token": "MyNonsense"
    },
    "comment_count": 8,
    "comment_permission": "all",
    "commercial_info": {
        "is_commercial": false,
        "plugin": {}
    },
    "content": "<blockquote>“一个群体的入会仪式越严格，人们对它的忠诚度就会越高。”</blockquote>——《路西法效应》<br><figure><noscript><img src=\"https://pic2.zhimg.com/27345945a04dd1c35f45648b830f2d85_b.jpg\" data-rawwidth=\"1138\" data-rawheight=\"1086\" class=\"origin_image zh-lightbox-thumb\" width=\"1138\" data-original=\"https://pic2.zhimg.com/27345945a04dd1c35f45648b830f2d85_r.jpg\"></noscript><img src=\"data:image/svg+xml;utf8,&lt;svg%20xmlns='http://www.w3.org/2000/svg'%20width='1138'%20height='1086'&gt;&lt;/svg&gt;\" data-rawwidth=\"1138\" data-rawheight=\"1086\" class=\"origin_image zh-lightbox-thumb lazy\" width=\"1138\" data-original=\"https://pic2.zhimg.com/27345945a04dd1c35f45648b830f2d85_r.jpg\" data-actualsrc=\"https://pic2.zhimg.com/27345945a04dd1c35f45648b830f2d85_b.jpg\"></figure><p>——李敖在北大的演讲（via <a href=\"http://link.zhihu.com/?target=http%3A//www.caogen.com/blog/infor_detail/2632.html\" class=\" wrap external\" target=\"_blank\" rel=\"nofollow noreferrer\">李敖北京大学演讲(未删版)</a>）</p><blockquote><b>Freedom of speech</b> is the political right to communicate one's opinions and ideas using one's body and property to anyone who is willing to receive them. </blockquote>——Wikipedia（<a href=\"http://link.zhihu.com/?target=http%3A//en.wikipedia.org/wiki/Freedom_of_speech\" class=\" wrap external\" target=\"_blank\" rel=\"nofollow noreferrer\">Freedom of speech</a>）<p><figure><noscript><img src=\"https://pic4.zhimg.com/6effe40de36f0f142913f85e3638d867_b.jpg\" data-rawwidth=\"566\" data-rawheight=\"577\" class=\"origin_image zh-lightbox-thumb\" width=\"566\" data-original=\"https://pic4.zhimg.com/6effe40de36f0f142913f85e3638d867_r.jpg\"></noscript><img src=\"data:image/svg+xml;utf8,&lt;svg%20xmlns='http://www.w3.org/2000/svg'%20width='566'%20height='577'&gt;&lt;/svg&gt;\" data-rawwidth=\"566\" data-rawheight=\"577\" class=\"origin_image zh-lightbox-thumb lazy\" width=\"566\" data-original=\"https://pic4.zhimg.com/6effe40de36f0f142913f85e3638d867_r.jpg\" data-actualsrc=\"https://pic4.zhimg.com/6effe40de36f0f142913f85e3638d867_b.jpg\"></figure>——xkcd（<a href=\"http://link.zhihu.com/?target=http%3A//www.xkcd.com/1357/\" class=\" external\" target=\"_blank\" rel=\"nofollow noreferrer\"><span class=\"invisible\">http://www.</span><span class=\"visible\">xkcd.com/1357/</span><span class=\"invisible\"></span></a>）</p><blockquote>The \"responsible-disclosure\" debate is about \"free-speech\", where some try to use the hammer of \"ethical behavior\" to control speech. Last night I tweeted a line of code from the OpenSSL source code that demonstrates a hilariously funny bug. I was attacked for my speech from OpenSSL defenders who want me to quietly submit bug patches rather than making OpenSSL look bad on Twitter.<br><br>That's why so many of us oppose the idea of \"responsible-disclosure\" -- the principle of \"free-speech\" means \"free-disclosure\". If you've found a vulnerability, keep it secret, sell it, notify the vendor, notify the press, do whatever the heck you want to do with it. Only \"free-disclosure\" advances security -- \"responsible\" disclosure that tries to control the process holds back security. </blockquote>——<a href=\"http://link.zhihu.com/?target=http%3A//blog.erratasec.com/2014/04/xkcd-is-wrong-about-free-speech.html%23.U1JjiOaSwsU\" class=\" wrap external\" target=\"_blank\" rel=\"nofollow noreferrer\">Errata Security: xkcd is wrong about \"free speech\"</a><br><br><blockquote>当然了，我的衣装确实改变了我的性格。</blockquote>——莎士比亚《冬天的故事》<br><blockquote>去个人化过程会将理性节制的人变成放浪形骸……实现这个转化过程的一般性策略有二：（1）降低行动的社会辨识度（没人知道我是谁，或者没人在乎我的身份）；（2）降低行动者对自我评价的在意程度。</blockquote>——《路西法效应》<br><blockquote>群体的道德水平十分低劣……这不过是因为我们从原始时代继承了野蛮和破坏性的本能，它蛰伏在我们每个人的身上。孤立的个人在生活中满足这种本能是很危险的，但是当他加入一个不负责任的群体时，因为很清楚不会受到惩罚，他便会彻底放纵这种本能。</blockquote>——《乌合之众》<br><blockquote>匿名类应用让每个人释放心底的恶念，盒子打开，魔鬼出来。他人即地狱，每个人也是自己的地狱。如同身陷黑暗森林：你置身于一座黑暗森林，每个用户都是匿名的猎人，你必须小心，因为这里到处都有与他一样潜行的猎人。千万不要暴露，如果他们发现值得注意的目标，不管是不是所谓的朋友，他们毫不犹豫的开枪：抹黑，攻击，嘲讽，谩骂…</blockquote>——Fenng（via <a href=\"http://link.zhihu.com/?target=http%3A//mp.weixin.qq.com/s%3F__biz%3DMjM5ODIyMTE0MA%3D%3D%26mid%3D200191424%26idx%3D1%26sn%3Da1d095b98691476efe497989bced5457\" class=\" wrap external\" target=\"_blank\" rel=\"nofollow noreferrer\">匿名应用即地狱</a>）<br><br><blockquote>必须认识到，被动接受不公正的体制也就是和这个体制合作，并因而成为它的恶行参与者。</blockquote>——马丁·路德·金<br><blockquote>综观人类历史，有能力行动者却袖手旁观；知情者却无动于衷；正义之声在最迫切需要时保持沉默；于是邪恶方能伺机横行。</blockquote>——海尔·塞拉西<br><br><figure><noscript><img src=\"https://pic1.zhimg.com/ba37289e8f515bb66f70a4c5b28723fc_b.jpg\" data-rawwidth=\"997\" data-rawheight=\"525\" class=\"origin_image zh-lightbox-thumb\" width=\"997\" data-original=\"https://pic1.zhimg.com/ba37289e8f515bb66f70a4c5b28723fc_r.jpg\"></noscript><img src=\"data:image/svg+xml;utf8,&lt;svg%20xmlns='http://www.w3.org/2000/svg'%20width='997'%20height='525'&gt;&lt;/svg&gt;\" data-rawwidth=\"997\" data-rawheight=\"525\" class=\"origin_image zh-lightbox-thumb lazy\" width=\"997\" data-original=\"https://pic1.zhimg.com/ba37289e8f515bb66f70a4c5b28723fc_r.jpg\" data-actualsrc=\"https://pic1.zhimg.com/ba37289e8f515bb66f70a4c5b28723fc_b.jpg\"></figure>——Github（<a href=\"http://link.zhihu.com/?target=https%3A//github.com/\" class=\" wrap external\" target=\"_blank\" rel=\"nofollow noreferrer\">GitHub 路 Build software better, together.</a>）<br><blockquote>Only offenders can stop re-offending. </blockquote><p>——<a href=\"http://link.zhihu.com/?target=http%3A//www.uservoice.org/\" class=\" wrap external\" target=\"_blank\" rel=\"nofollow noreferrer\">User Voice | Only Offenders Can Stop Re-Offending</a></p><br><br><blockquote>单纯为了增加用户之间互动和联系的 SNS 化会毁掉任何一个严肃的互联网服务。</blockquote><p>——朱焕杰</p>",
    "contributions": [
        {
            "column": {
                "accept_submission": true,
                "articles_count": 47,
                "author": {
                    "avatar_url": "https://pic3.zhimg.com/4ad478c148b4e9ccbe312cfa53402b0f_l.jpg",
                    "avatar_url_template": "https://pic3.zhimg.com/4ad478c148b4e9ccbe312cfa53402b0f_{size}.jpg",
                    "description": "一万本大学生 | Programmer at large | 特别擅长玩坏 BGP | 个人网站 https://swineson.me | 有事请发邮件至 zhihu@public.swineson.me，知乎现在不怎么上，其他联系方式也可能疏于关照 | 本人已委托维权骑士（http://rightknights.com）为我的文章进行维权行动",
                    "gender": 1,
                    "headline": "已而！已而！",
                    "id": "72036ce918812daac46c75d7cac1e7d2",
                    "is_advertiser": false,
                    "is_followed": false,
                    "is_following": false,
                    "is_org": false,
                    "name": "James Swineson",
                    "type": "people",
                    "uid": "27898769571840",
                    "url": "/people/72036ce918812daac46c75d7cac1e7d2",
                    "url_token": "james-swineson",
                    "user_type": "people"
                },
                "can_manage": false,
                "comment_permission": "all",
                "created": 1391767170,
                "description": "请不要相信我在这里说的任何一句话。包括这句话和上面一句。\n\n有任何问题请发邮件到：jamesswineson+from-mynonsense@gmail.com",
                "followers": 1351,
                "id": "MyNonsense",
                "image_url": "https://pic1.zhimg.com/31aa55d6f_b.jpg",
                "intro": "请不要相信我在这里说的任何一句话。包括这句话和上…",
                "is_following": false,
                "title": "胡说八道",
                "type": "column",
                "updated": 1492411829,
                "url": "https://zhuanlan.zhihu.com/MyNonsense",
                "url_token": "MyNonsense"
            },
            "id": 242767,
            "state": "accepted",
            "type": "first_publish"
        }
    ],
    "created": 1397910647,
    "excerpt": "<img src=\"https://pic2.zhimg.com/27345945a04dd1c35f45648b830f2d85_200x112.jpg\" data-rawwidth=\"1138\" data-rawheight=\"1086\" class=\"origin_image inline-img zh-lightbox-thumb\" data-original=\"https://pic2.zhimg.com/27345945a04dd1c35f45648b830f2d85_r.jpg\">“一个群体的入会仪式越严格，人们对它的忠诚度就会越高。”——《路西法效应》 ——李敖在北大的演讲（via <a href=\"http://www.caogen.com/blog/infor_detail/2632.html\" class=\"\" data-editable=\"true\" data-title=\"李敖北京大学演讲(未删版)\">李敖北京大学演讲(未删版)</a>）<b>Freedom of speech</b> is the political right to communicate one's opinions and ideas using one's body and property …",
    "excerpt_title": "",
    "has_publishing_draft": false,
    "id": 19731872,
    "image_height": 0,
    "image_url": "",
    "image_width": 0,
    "is_favorited": false,
    "is_labeled": false,
    "is_normal": true,
    "is_title_image_full_screen": false,
    "reason": "",
    "share_text": "Citations：关于知乎的现状 - 来自知乎专栏「胡说八道」，作者: James Swineson https://zhuanlan.zhihu.com/p/19731872 （想看更多？下载 @知乎 App：http://weibo.com/p/100404711598 ）",
    "state": "published",
    "status": 0,
    "suggest_edit": {
        "reason": "",
        "status": false,
        "tip": "",
        "title": "",
        "url": ""
    },
    "tipjarors_count": 0,
    "title": "Citations：关于知乎的现状",
    "title_image": "",
    "topics": [
        {
            "id": "19550228",
            "name": "知乎",
            "type": "topic",
            "url": "https://www.zhihu.com/api/v4/topics/19550228"
        }
    ],
    "type": "article",
    "updated": 1397914665,
    "upvoted_followees": [],
    "url": "https://zhuanlan.zhihu.com/p/19731872",
    "voteup_count": 31,
    "voting": 0
}