{
    "admin_closed_comment": false,
    "annotation_action": [],
    "author": {
        "avatar_url": "https://pic3.zhimg.com/4ad478c148b4e9ccbe312cfa53402b0f_l.jpg",
        "avatar_url_template": "https://pic3.zhimg.com/4ad478c148b4e9ccbe312cfa53402b0f_{size}.jpg",
        "badge": [],
        "description": "一万本大学生 | Programmer at large | 特别擅长玩坏 BGP | 个人网站 https://swineson.me | 有事请发邮件至 zhihu@public.swineson.me，知乎现在不怎么上，其他联系方式也可能疏于关照 | 本人已委托维权骑士（http://rightknights.com）为我的文章进行维权行动",
        "gender": 1,
        "headline": "已而！已而！",
        "id": "72036ce918812daac46c75d7cac1e7d2",
        "is_advertiser": false,
        "is_followed": false,
        "is_following": false,
        "is_org": false,
        "name": "James Swineson",
        "type": "people",
        "uid": "27898769571840",
        "url": "/people/72036ce918812daac46c75d7cac1e7d2",
        "url_token": "james-swineson",
        "user_type": "people"
    },
    "can_comment": {
        "reason": "",
        "status": true
    },
    "can_tip": false,
    "column": {
        "accept_submission": true,
        "articles_count": 47,
        "author": {
            "avatar_url": "https://pic3.zhimg.com/4ad478c148b4e9ccbe312cfa53402b0f_l.jpg",
            "avatar_url_template": "https://pic3.zhimg.com/4ad478c148b4e9ccbe312cfa53402b0f_{size}.jpg",
            "description": "一万本大学生 | Programmer at large | 特别擅长玩坏 BGP | 个人网站 https://swineson.me | 有事请发邮件至 zhihu@public.swineson.me，知乎现在不怎么上，其他联系方式也可能疏于关照 | 本人已委托维权骑士（http://rightknights.com）为我的文章进行维权行动",
            "gender": 1,
            "headline": "已而！已而！",
            "id": "72036ce918812daac46c75d7cac1e7d2",
            "is_advertiser": false,
            "is_followed": false,
            "is_following": false,
            "is_org": false,
            "name": "James Swineson",
            "type": "people",
            "uid": "27898769571840",
            "url": "/people/72036ce918812daac46c75d7cac1e7d2",
            "url_token": "james-swineson",
            "user_type": "people"
        },
        "can_manage": false,
        "comment_permission": "all",
        "created": 1391767170,
        "description": "请不要相信我在这里说的任何一句话。包括这句话和上面一句。\n\n有任何问题请发邮件到：jamesswineson+from-mynonsense@gmail.com",
        "followers": 1351,
        "id": "MyNonsense",
        "image_url": "https://pic1.zhimg.com/31aa55d6f_b.jpg",
        "intro": "请不要相信我在这里说的任何一句话。包括这句话和上…",
        "is_following": false,
        "title": "胡说八道",
        "type": "column",
        "updated": 1492411829,
        "url": "https://zhuanlan.zhihu.com/MyNonsense",
        "url_token": "MyNonsense"
    },
    "comment_count": 14,
    "comment_permission": "all",
    "commercial_info": {
        "is_commercial": false,
        "plugin": {}
    },
    "content": "有些人的做事方式是不断制造问题。<p>比如说曾经有一次我从学校放假回家，因为东西有点多，家里的车停在隔壁寝室楼门前的空地上。一个寝室大妈探头出来，喊：“这里不准停车！”然后我没理大妈，脑子里满是厌恶情绪。这四周就这一片空地，我总不能堵别的楼门口或者堵刚好一车宽的路上吧？</p><p>后来我仔细想了想我为什么那么反感这样的说话方式。这句话没有给我带来任何有用的信息，反而制造了更多的问题。如果那个大妈当时说，这里不能停车，你可以停到前面左转那个地方去，我相信效果远比那一句好得多。</p><p>我的目的是要找个地方停车，如果你不让我停这儿，那你不妨帮我找个能停车的地方，这样大家都开心。这叫满足用户需求，解决问题。</p><p>如果你只负责制造问题，而不解决问题，别怪别人不听你的。</p>",
    "contributions": [
        {
            "column": {
                "accept_submission": true,
                "articles_count": 47,
                "author": {
                    "avatar_url": "https://pic3.zhimg.com/4ad478c148b4e9ccbe312cfa53402b0f_l.jpg",
                    "avatar_url_template": "https://pic3.zhimg.com/4ad478c148b4e9ccbe312cfa53402b0f_{size}.jpg",
                    "description": "一万本大学生 | Programmer at large | 特别擅长玩坏 BGP | 个人网站 https://swineson.me | 有事请发邮件至 zhihu@public.swineson.me，知乎现在不怎么上，其他联系方式也可能疏于关照 | 本人已委托维权骑士（http://rightknights.com）为我的文章进行维权行动",
                    "gender": 1,
                    "headline": "已而！已而！",
                    "id": "72036ce918812daac46c75d7cac1e7d2",
                    "is_advertiser": false,
                    "is_followed": false,
                    "is_following": false,
                    "is_org": false,
                    "name": "James Swineson",
                    "type": "people",
                    "uid": "27898769571840",
                    "url": "/people/72036ce918812daac46c75d7cac1e7d2",
                    "url_token": "james-swineson",
                    "user_type": "people"
                },
                "can_manage": false,
                "comment_permission": "all",
                "created": 1391767170,
                "description": "请不要相信我在这里说的任何一句话。包括这句话和上面一句。\n\n有任何问题请发邮件到：jamesswineson+from-mynonsense@gmail.com",
                "followers": 1351,
                "id": "MyNonsense",
                "image_url": "https://pic1.zhimg.com/31aa55d6f_b.jpg",
                "intro": "请不要相信我在这里说的任何一句话。包括这句话和上…",
                "is_following": false,
                "title": "胡说八道",
                "type": "column",
                "updated": 1492411829,
                "url": "https://zhuanlan.zhihu.com/MyNonsense",
                "url_token": "MyNonsense"
            },
            "id": 385173,
            "state": "accepted",
            "type": "first_publish"
        }
    ],
    "created": 1466954626,
    "excerpt": "有些人的做事方式是不断制造问题。比如说曾经有一次我从学校放假回家，因为东西有点多，家里的车停在隔壁寝室楼门前的空地上。一个寝室大妈探头出来，喊：“这里不准停车！”然后我没理大妈，脑子里满是厌恶情绪。这四周就这一片空地，我总不能堵别的楼门口…",
    "excerpt_title": "",
    "has_publishing_draft": false,
    "id": 21428554,
    "image_height": 0,
    "image_url": "",
    "image_width": 0,
    "is_favorited": false,
    "is_labeled": false,
    "is_normal": true,
    "is_title_image_full_screen": false,
    "reason": "",
    "share_text": "请解决问题，而不是制造问题 - 来自知乎专栏「胡说八道」，作者: James Swineson https://zhuanlan.zhihu.com/p/21428554 （想看更多？下载 @知乎 App：http://weibo.com/p/100404711598 ）",
    "state": "published",
    "status": 0,
    "suggest_edit": {
        "reason": "",
        "status": false,
        "tip": "",
        "title": "",
        "url": ""
    },
    "tipjarors_count": 0,
    "title": "请解决问题，而不是制造问题",
    "title_image": "",
    "topics": [
        {
            "id": "19780105",
            "name": "应用心理学",
            "type": "topic",
            "url": "https://www.zhihu.com/api/v4/topics/19780105"
        }
    ],
    "type": "article",
    "updated": 1466954626,
    "upvoted_followees": [],
    "url": "https://zhuanlan.zhihu.com/p/21428554",
    "voteup_count": 53,
    "voting": 0
}