{
    "admin_closed_comment": false,
    "annotation_action": [],
    "author": {
        "avatar_url": "https://pic3.zhimg.com/4ad478c148b4e9ccbe312cfa53402b0f_l.jpg",
        "avatar_url_template": "https://pic3.zhimg.com/4ad478c148b4e9ccbe312cfa53402b0f_{size}.jpg",
        "badge": [],
        "description": "一万本大学生 | Programmer at large | 特别擅长玩坏 BGP | 个人网站 https://swineson.me | 有事请发邮件至 zhihu@public.swineson.me，知乎现在不怎么上，其他联系方式也可能疏于关照 | 本人已委托维权骑士（http://rightknights.com）为我的文章进行维权行动",
        "gender": 1,
        "headline": "已而！已而！",
        "id": "72036ce918812daac46c75d7cac1e7d2",
        "is_advertiser": false,
        "is_followed": false,
        "is_following": false,
        "is_org": false,
        "name": "James Swineson",
        "type": "people",
        "uid": "27898769571840",
        "url": "/people/72036ce918812daac46c75d7cac1e7d2",
        "url_token": "james-swineson",
        "user_type": "people"
    },
    "can_comment": {
        "reason": "",
        "status": true
    },
    "can_tip": false,
    "column": {
        "accept_submission": true,
        "articles_count": 47,
        "author": {
            "avatar_url": "https://pic3.zhimg.com/4ad478c148b4e9ccbe312cfa53402b0f_l.jpg",
            "avatar_url_template": "https://pic3.zhimg.com/4ad478c148b4e9ccbe312cfa53402b0f_{size}.jpg",
            "description": "一万本大学生 | Programmer at large | 特别擅长玩坏 BGP | 个人网站 https://swineson.me | 有事请发邮件至 zhihu@public.swineson.me，知乎现在不怎么上，其他联系方式也可能疏于关照 | 本人已委托维权骑士（http://rightknights.com）为我的文章进行维权行动",
            "gender": 1,
            "headline": "已而！已而！",
            "id": "72036ce918812daac46c75d7cac1e7d2",
            "is_advertiser": false,
            "is_followed": false,
            "is_following": false,
            "is_org": false,
            "name": "James Swineson",
            "type": "people",
            "uid": "27898769571840",
            "url": "/people/72036ce918812daac46c75d7cac1e7d2",
            "url_token": "james-swineson",
            "user_type": "people"
        },
        "can_manage": false,
        "comment_permission": "all",
        "created": 1391767170,
        "description": "请不要相信我在这里说的任何一句话。包括这句话和上面一句。\n\n有任何问题请发邮件到：jamesswineson+from-mynonsense@gmail.com",
        "followers": 1351,
        "id": "MyNonsense",
        "image_url": "https://pic1.zhimg.com/31aa55d6f_b.jpg",
        "intro": "请不要相信我在这里说的任何一句话。包括这句话和上…",
        "is_following": false,
        "title": "胡说八道",
        "type": "column",
        "updated": 1492411829,
        "url": "https://zhuanlan.zhihu.com/MyNonsense",
        "url_token": "MyNonsense"
    },
    "comment_count": 137,
    "comment_permission": "all",
    "commercial_info": {
        "is_commercial": false,
        "plugin": {}
    },
    "content": "<blockquote><figure><noscript><img src=\"https://pic4.zhimg.com/c42fb5894a147caa792bd871bb70fbf3_b.jpg\" data-rawwidth=\"689\" data-rawheight=\"386\" class=\"origin_image zh-lightbox-thumb\" width=\"689\" data-original=\"https://pic4.zhimg.com/c42fb5894a147caa792bd871bb70fbf3_r.jpg\"></noscript><img src=\"data:image/svg+xml;utf8,&lt;svg%20xmlns='http://www.w3.org/2000/svg'%20width='689'%20height='386'&gt;&lt;/svg&gt;\" data-rawwidth=\"689\" data-rawheight=\"386\" class=\"origin_image zh-lightbox-thumb lazy\" width=\"689\" data-original=\"https://pic4.zhimg.com/c42fb5894a147caa792bd871bb70fbf3_r.jpg\" data-actualsrc=\"https://pic4.zhimg.com/c42fb5894a147caa792bd871bb70fbf3_b.jpg\"></figure>——《<a href=\"http://link.zhihu.com/?target=https%3A//mp.weixin.qq.com/s%3F__biz%3DMzA3OTg2Mjc3OA%3D%3D%26mid%3D400135825%26idx%3D1%26sn%3D672518806bb3fa43cd4bfdb91a35aefd%26scene%3D2%26srcid%3D1027BtSbcobI5Gpo8FkFIYVy%26from%3Dtimeline%26isappinstalled%3D0%23rd\" class=\" wrap external\" target=\"_blank\" rel=\"nofollow noreferrer\">大学教师课堂怒摔两部iphone6s背后的良苦用心</a>》</blockquote>我自知才学有限，但从来不敢懈怠法律，始终视之为最神圣的所在。<br><blockquote>第二百七十五条 故意毁坏公私财物，数额较大或者有其他严重情节的，处三年以下有期徒刑、拘役或者罚金；数额巨大或者有其他特别严重情节的，处三年以上七年以下有期徒刑。——《中华人民共和国刑法》<br><br>故意毁坏公私财物，涉嫌下列情形之一的，应予立案追诉：<br>        (一)造成公私财物损失五千元以上的；<br>        (二)毁坏公私财物三次以上的；<br>        (三)纠集三人以上公然毁坏公私财物的；<br>        (四)其他情节严重的情形。<br>——《最高人民检察院公安部关于公安机关管辖的刑事案件立案追诉标准的规定（一）》</blockquote><p>我不知道现场情形如何；倘若摔手机之时，竟没有人当场报警，这是比上课玩手机更大的不幸。</p><p>==========</p><p>注：</p><ol><li>我不是法律专业人士，如有错误敬请指出。<br></li><li>本文欢迎分享到朋友圈，虽然分享一次您死不了全家，害不了爸妈，收不了红包，拿不了绿卡。<br></li></ol><br><p>==========</p><p>Reference: </p><ul><li><a href=\"http://link.zhihu.com/?target=http%3A//www.npc.gov.cn/wxzl/wxzl/2000-12/17/content_4680.htm\" class=\" wrap external\" target=\"_blank\" rel=\"nofollow noreferrer\">中华人民共和国刑法（修订）</a><br></li><li><a href=\"http://link.zhihu.com/?target=http%3A//baike.baidu.com/view/6113.htm\" class=\" wrap external\" target=\"_blank\" rel=\"nofollow noreferrer\">故意毁坏财物罪</a><br></li><li><a href=\"http://link.zhihu.com/?target=http%3A//hnzz3721.lofter.com/post/1d16a1bc_699120d\" class=\" wrap external\" target=\"_blank\" rel=\"nofollow noreferrer\">郑州市公安局大河路分局韩新峰、黄立功徇私枉法罪的构成情况-hnzz3721</a><br></li><li><a href=\"http://link.zhihu.com/?target=http%3A//www.gdweilun.com/index.php%3Fac%3Darticle%26at%3Dread%26did%3D447\" class=\" wrap external\" target=\"_blank\" rel=\"nofollow noreferrer\">故意毁坏财物罪案的成功无罪辩护</a></li></ul>",
    "contributions": [
        {
            "column": {
                "accept_submission": true,
                "articles_count": 47,
                "author": {
                    "avatar_url": "https://pic3.zhimg.com/4ad478c148b4e9ccbe312cfa53402b0f_l.jpg",
                    "avatar_url_template": "https://pic3.zhimg.com/4ad478c148b4e9ccbe312cfa53402b0f_{size}.jpg",
                    "description": "一万本大学生 | Programmer at large | 特别擅长玩坏 BGP | 个人网站 https://swineson.me | 有事请发邮件至 zhihu@public.swineson.me，知乎现在不怎么上，其他联系方式也可能疏于关照 | 本人已委托维权骑士（http://rightknights.com）为我的文章进行维权行动",
                    "gender": 1,
                    "headline": "已而！已而！",
                    "id": "72036ce918812daac46c75d7cac1e7d2",
                    "is_advertiser": false,
                    "is_followed": false,
                    "is_following": false,
                    "is_org": false,
                    "name": "James Swineson",
                    "type": "people",
                    "uid": "27898769571840",
                    "url": "/people/72036ce918812daac46c75d7cac1e7d2",
                    "url_token": "james-swineson",
                    "user_type": "people"
                },
                "can_manage": false,
                "comment_permission": "all",
                "created": 1391767170,
                "description": "请不要相信我在这里说的任何一句话。包括这句话和上面一句。\n\n有任何问题请发邮件到：jamesswineson+from-mynonsense@gmail.com",
                "followers": 1351,
                "id": "MyNonsense",
                "image_url": "https://pic1.zhimg.com/31aa55d6f_b.jpg",
                "intro": "请不要相信我在这里说的任何一句话。包括这句话和上…",
                "is_following": false,
                "title": "胡说八道",
                "type": "column",
                "updated": 1492411829,
                "url": "https://zhuanlan.zhihu.com/MyNonsense",
                "url_token": "MyNonsense"
            },
            "id": 297568,
            "state": "accepted",
            "type": "first_publish"
        }
    ],
    "created": 1446129029,
    "excerpt": "——《<a href=\"https://mp.weixin.qq.com/s?__biz=MzA3OTg2Mjc3OA==&amp;mid=400135825&amp;idx=1&amp;sn=672518806bb3fa43cd4bfdb91a35aefd&amp;scene=2&amp;srcid=1027BtSbcobI5Gpo8FkFIYVy&amp;from=timeline&amp;isappinstalled=0#rd\" data-editable=\"true\" data-title=\"大学教师课堂怒摔两部iphone6s背后的良苦用心\" class=\"\">大学教师课堂怒摔两部iphone6s背后的良苦用心</a>》我自知才学有限，但从来不敢懈怠法律，始终视之为最神圣的所在。 第二百七十五条 故意毁坏公私财物，数额较大或者有其他严重情节的，处三年以下有期徒刑、拘役或者罚金；数额巨大或者有其他特别严重情节…",
    "excerpt_title": "",
    "has_publishing_draft": false,
    "id": 20304996,
    "image_height": 0,
    "image_url": "",
    "image_width": 0,
    "is_favorited": false,
    "is_labeled": false,
    "is_normal": true,
    "is_title_image_full_screen": false,
    "reason": "",
    "share_text": "你们还真 TM 有脸把违法的事当正面教材 - 来自知乎专栏「胡说八道」，作者: James Swineson https://zhuanlan.zhihu.com/p/20304996 （想看更多？下载 @知乎 App：http://weibo.com/p/100404711598 ）",
    "state": "published",
    "status": 0,
    "suggest_edit": {
        "reason": "",
        "status": false,
        "tip": "",
        "title": "",
        "url": ""
    },
    "tipjarors_count": 0,
    "title": "你们还真 TM 有脸把违法的事当正面教材",
    "title_image": "",
    "topics": [],
    "type": "article",
    "updated": 1446130853,
    "upvoted_followees": [],
    "url": "https://zhuanlan.zhihu.com/p/20304996",
    "voteup_count": 390,
    "voting": 0
}