{
    "admin_closed_comment": false,
    "author": {
        "avatar_url": "https://pic3.zhimg.com/4ad478c148b4e9ccbe312cfa53402b0f_l.jpg",
        "avatar_url_template": "https://pic3.zhimg.com/4ad478c148b4e9ccbe312cfa53402b0f_{size}.jpg",
        "badge": [],
        "description": "一万本大学生 | Programmer at large | 特别擅长玩坏 BGP | 个人网站 https://swineson.me | 有事请发邮件至 zhihu@public.swineson.me，知乎现在不怎么上，其他联系方式也可能疏于关照 | 本人已委托维权骑士（http://rightknights.com）为我的文章进行维权行动",
        "gender": 1,
        "headline": "已而！已而！",
        "id": "72036ce918812daac46c75d7cac1e7d2",
        "is_advertiser": false,
        "is_followed": false,
        "is_following": false,
        "is_org": false,
        "name": "James Swineson",
        "type": "people",
        "uid": "27898769571840",
        "url": "/people/72036ce918812daac46c75d7cac1e7d2",
        "url_token": "james-swineson",
        "user_type": "people"
    },
    "can_comment": {
        "reason": "",
        "status": true
    },
    "comment_count": 12,
    "comment_permission": "all",
    "created": 1445417875,
    "excerpt": "<img src=\"https://pic3.zhimg.com/7deef91be8f732f55eff74fe6852d8d6_200x112.jpg\" data-rawwidth=\"829\" data-rawheight=\"421\" class=\"origin_image inline-img zh-lightbox-thumb\" data-original=\"https://pic3.zhimg.com/7deef91be8f732f55eff74fe6852d8d6_r.jpg\">我这么写哪儿错了你非得让我按着你的意思写？",
    "excerpt_title": "",
    "id": 20286604,
    "image_url": "",
    "is_labeled": false,
    "state": "published",
    "title": "吐槽一下计蒜客",
    "title_image": "",
    "type": "article",
    "updated": 1445417875,
    "url": "https://zhuanlan.zhihu.com/p/20286604",
    "voteup_count": 5,
    "voting": 0
}