{
    "admin_closed_comment": false,
    "author": {
        "avatar_url": "https://pic3.zhimg.com/4ad478c148b4e9ccbe312cfa53402b0f_l.jpg",
        "avatar_url_template": "https://pic3.zhimg.com/4ad478c148b4e9ccbe312cfa53402b0f_{size}.jpg",
        "badge": [],
        "description": "一万本大学生 | Programmer at large | 特别擅长玩坏 BGP | 个人网站 https://swineson.me | 有事请发邮件至 zhihu@public.swineson.me，知乎现在不怎么上，其他联系方式也可能疏于关照 | 本人已委托维权骑士（http://rightknights.com）为我的文章进行维权行动",
        "gender": 1,
        "headline": "已而！已而！",
        "id": "72036ce918812daac46c75d7cac1e7d2",
        "is_advertiser": false,
        "is_followed": false,
        "is_following": false,
        "is_org": false,
        "name": "James Swineson",
        "type": "people",
        "uid": "27898769571840",
        "url": "/people/72036ce918812daac46c75d7cac1e7d2",
        "url_token": "james-swineson",
        "user_type": "people"
    },
    "can_comment": {
        "reason": "",
        "status": true
    },
    "comment_count": 118,
    "comment_permission": "all",
    "created": 1494636566,
    "excerpt": "学校和宽带运营商不让你用路由器，是在害你这次病毒使用直接攻击 SMBv1 端口的方式进行传播，因此，如果跟你在同一层网络的电脑中了病毒，你很可能也无法幸免。而如果每个人都在路由器的 NAT 保护之下，隔了一层内网，中招的可能性就会大大降低[1]。所以中…",
    "excerpt_title": "",
    "id": 26879097,
    "image_url": "",
    "is_labeled": false,
    "state": "published",
    "title": "关于 2017-05-12 勒索病毒爆发的几点马后炮",
    "title_image": "",
    "type": "article",
    "updated": 1494849345,
    "url": "https://zhuanlan.zhihu.com/p/26879097",
    "voteup_count": 728,
    "voting": 0
}