{
    "admin_closed_comment": false,
    "author": {
        "avatar_url": "https://pic3.zhimg.com/4ad478c148b4e9ccbe312cfa53402b0f_l.jpg",
        "avatar_url_template": "https://pic3.zhimg.com/4ad478c148b4e9ccbe312cfa53402b0f_{size}.jpg",
        "badge": [],
        "description": "一万本大学生 | Programmer at large | 特别擅长玩坏 BGP | 个人网站 https://swineson.me | 有事请发邮件至 zhihu@public.swineson.me，知乎现在不怎么上，其他联系方式也可能疏于关照 | 本人已委托维权骑士（http://rightknights.com）为我的文章进行维权行动",
        "gender": 1,
        "headline": "已而！已而！",
        "id": "72036ce918812daac46c75d7cac1e7d2",
        "is_advertiser": false,
        "is_followed": false,
        "is_following": false,
        "is_org": false,
        "name": "James Swineson",
        "type": "people",
        "uid": "27898769571840",
        "url": "/people/72036ce918812daac46c75d7cac1e7d2",
        "url_token": "james-swineson",
        "user_type": "people"
    },
    "can_comment": {
        "reason": "",
        "status": true
    },
    "comment_count": 6,
    "comment_permission": "all",
    "created": 1475463954,
    "excerpt": "前段时间写了《<a href=\"https://zhuanlan.zhihu.com/p/22482600\" data-editable=\"true\" data-title=\"网络社会下不一样的规则和道德选择\" class=\"\">网络社会下不一样的规则和道德选择</a>》一文来骂阿里月饼事件里面的某些观点，但是并没有几个人看懂，也不指望几个人看懂。所以说还是要说几句大白话来骂骂某些答主。关于法治人治好还是法治好？想来应该是法治好。我觉得大部分受过高等教育的人…",
    "excerpt_title": "",
    "id": 22743760,
    "image_url": "",
    "is_labeled": false,
    "state": "published",
    "title": "针对阿里月饼事件的，人话版本的评论",
    "title_image": "",
    "type": "article",
    "updated": 1475464088,
    "url": "https://zhuanlan.zhihu.com/p/22743760",
    "voteup_count": 11,
    "voting": 0
}