{
    "admin_closed_comment": false,
    "author": {
        "avatar_url": "https://pic3.zhimg.com/4ad478c148b4e9ccbe312cfa53402b0f_l.jpg",
        "avatar_url_template": "https://pic3.zhimg.com/4ad478c148b4e9ccbe312cfa53402b0f_{size}.jpg",
        "badge": [],
        "description": "一万本大学生 | Programmer at large | 特别擅长玩坏 BGP | 个人网站 https://swineson.me | 有事请发邮件至 zhihu@public.swineson.me，知乎现在不怎么上，其他联系方式也可能疏于关照 | 本人已委托维权骑士（http://rightknights.com）为我的文章进行维权行动",
        "gender": 1,
        "headline": "已而！已而！",
        "id": "72036ce918812daac46c75d7cac1e7d2",
        "is_advertiser": false,
        "is_followed": false,
        "is_following": false,
        "is_org": false,
        "name": "James Swineson",
        "type": "people",
        "uid": "27898769571840",
        "url": "/people/72036ce918812daac46c75d7cac1e7d2",
        "url_token": "james-swineson",
        "user_type": "people"
    },
    "can_comment": {
        "reason": "",
        "status": true
    },
    "comment_count": 19,
    "comment_permission": "all",
    "created": 1457965937,
    "excerpt": "<img src=\"https://pic1.zhimg.com/101fa628e4ffd5b8b9a2684d27fac0a4_200x112.jpg\" data-rawwidth=\"1280\" data-rawheight=\"960\" class=\"origin_image inline-img zh-lightbox-thumb\" data-original=\"https://pic1.zhimg.com/101fa628e4ffd5b8b9a2684d27fac0a4_r.jpg\">听说妹子们的寝室有危险？（划掉） 听说妹子们忧心忡忡？听说妹子们智慧无穷？然而这一切方法都弱爆了。来，让程序员教你如何用十块钱成本，三分钟制作一个高科技智能电子报警器吧！从此晚上安心睡觉！第一步：准备材料（如果某些材料没有的话请自行淘宝，…",
    "excerpt_title": "",
    "id": 20645503,
    "image_url": "",
    "is_labeled": false,
    "state": "published",
    "title": "十块钱三分钟自制防盗报警器",
    "title_image": "",
    "type": "article",
    "updated": 1457966934,
    "url": "https://zhuanlan.zhihu.com/p/20645503",
    "voteup_count": 108,
    "voting": 0
}