{
    "admin_closed_comment": false,
    "author": {
        "avatar_url": "https://pic3.zhimg.com/4ad478c148b4e9ccbe312cfa53402b0f_l.jpg",
        "avatar_url_template": "https://pic3.zhimg.com/4ad478c148b4e9ccbe312cfa53402b0f_{size}.jpg",
        "badge": [],
        "description": "一万本大学生 | Programmer at large | 特别擅长玩坏 BGP | 个人网站 https://swineson.me | 有事请发邮件至 zhihu@public.swineson.me，知乎现在不怎么上，其他联系方式也可能疏于关照 | 本人已委托维权骑士（http://rightknights.com）为我的文章进行维权行动",
        "gender": 1,
        "headline": "已而！已而！",
        "id": "72036ce918812daac46c75d7cac1e7d2",
        "is_advertiser": false,
        "is_followed": false,
        "is_following": false,
        "is_org": false,
        "name": "James Swineson",
        "type": "people",
        "uid": "27898769571840",
        "url": "/people/72036ce918812daac46c75d7cac1e7d2",
        "url_token": "james-swineson",
        "user_type": "people"
    },
    "can_comment": {
        "reason": "",
        "status": true
    },
    "comment_count": 15,
    "comment_permission": "all",
    "created": 1467387120,
    "excerpt": "<img src=\"https://pic3.zhimg.com/d7594121af72d0c7d7736cb81cd233ee_200x112.png\" data-rawwidth=\"895\" data-rawheight=\"438\" class=\"origin_image inline-img zh-lightbox-thumb\" data-original=\"https://pic3.zhimg.com/d7594121af72d0c7d7736cb81cd233ee_r.png\">今天听说有一帮学生和助教在吵架，助教说你们交作业邮件不写正文很不尊重人诶，学生说本来交个作业就好的事情何必再假惺惺写个正文问声好，助教说你这样子搞得我们收作业很像机械操作诶……等等！通过电子邮件收作业本来就是个机械操作吧？我说助教们诶你们…",
    "excerpt_title": "",
    "id": 21471464,
    "image_url": "",
    "is_labeled": false,
    "state": "published",
    "title": "半小时自制自动邮件收作业系统",
    "title_image": "",
    "type": "article",
    "updated": 1467419011,
    "url": "https://zhuanlan.zhihu.com/p/21471464",
    "voteup_count": 177,
    "voting": 0
}