{
    "admin_closed_comment": false,
    "annotation_action": [],
    "author": {
        "avatar_url": "https://pic3.zhimg.com/4ad478c148b4e9ccbe312cfa53402b0f_l.jpg",
        "avatar_url_template": "https://pic3.zhimg.com/4ad478c148b4e9ccbe312cfa53402b0f_{size}.jpg",
        "badge": [],
        "description": "一万本大学生 | Programmer at large | 特别擅长玩坏 BGP | 个人网站 https://swineson.me | 有事请发邮件至 zhihu@public.swineson.me，知乎现在不怎么上，其他联系方式也可能疏于关照 | 本人已委托维权骑士（http://rightknights.com）为我的文章进行维权行动",
        "gender": 1,
        "headline": "已而！已而！",
        "id": "72036ce918812daac46c75d7cac1e7d2",
        "is_advertiser": false,
        "is_followed": false,
        "is_following": false,
        "is_org": false,
        "name": "James Swineson",
        "type": "people",
        "uid": "27898769571840",
        "url": "/people/72036ce918812daac46c75d7cac1e7d2",
        "url_token": "james-swineson",
        "user_type": "people"
    },
    "can_comment": {
        "reason": "",
        "status": true
    },
    "can_tip": false,
    "column": {
        "accept_submission": true,
        "articles_count": 65,
        "author": {
            "avatar_url": "https://pic3.zhimg.com/4ad478c148b4e9ccbe312cfa53402b0f_l.jpg",
            "avatar_url_template": "https://pic3.zhimg.com/4ad478c148b4e9ccbe312cfa53402b0f_{size}.jpg",
            "description": "一万本大学生 | Programmer at large | 特别擅长玩坏 BGP | 个人网站 https://swineson.me | 有事请发邮件至 zhihu@public.swineson.me，知乎现在不怎么上，其他联系方式也可能疏于关照 | 本人已委托维权骑士（http://rightknights.com）为我的文章进行维权行动",
            "gender": 1,
            "headline": "已而！已而！",
            "id": "72036ce918812daac46c75d7cac1e7d2",
            "is_advertiser": false,
            "is_followed": false,
            "is_following": false,
            "is_org": false,
            "name": "James Swineson",
            "type": "people",
            "uid": "27898769571840",
            "url": "/people/72036ce918812daac46c75d7cac1e7d2",
            "url_token": "james-swineson",
            "user_type": "people"
        },
        "can_manage": false,
        "comment_permission": "all",
        "created": 1394632777,
        "description": "",
        "followers": 2135,
        "id": "computers",
        "image_url": "https://pic2.zhimg.com/008a19032e74677b9dcc1946e520b63f_b.jpg",
        "intro": "",
        "is_following": false,
        "title": "About Computers",
        "type": "column",
        "updated": 1438759721,
        "url": "https://zhuanlan.zhihu.com/computers",
        "url_token": "computers"
    },
    "comment_count": 15,
    "comment_permission": "all",
    "commercial_info": {
        "is_commercial": false,
        "plugin": {}
    },
    "content": "今天听说有一帮学生和助教在吵架，助教说你们交作业邮件不写正文很不尊重人诶，学生说本来交个作业就好的事情何必再假惺惺写个正文问声好，助教说你这样子搞得我们收作业很像机械操作诶……<p>等等！通过电子邮件收作业本来就是个机械操作吧？我说助教们诶你们又何必通过这样的方式来刷一点可怜的存在感呢？今天我来告诉你们怎么半小时自己写出一个完全自动化的邮件收作业系统吧。</p><h2>技能点需求</h2><ul><li>Python 3</li><li>SQLite 3</li><li>POP3 协议基础</li><li>DNS 配置基础</li><li>会使用电子邮件</li></ul><br><h2>系统架构</h2><ul><li>一台邮件转发服务器把所有发送到特定域的电子邮件（比如 homework_label_N@homework.example.com）都转发到某个邮箱；<br></li><li>我们的程序从该邮箱拉取邮件列表，然后通过接收地址来区分这是哪一堂课的作业；<br></li><li>自动下载附件到同一个文件夹。<br></li></ul><h2>搭建邮件转发服务器</h2><p>这里我们用 @<a href=\"http://link.zhihu.com/?target=http%3A//experimental.swineson.me\" class=\" external\" target=\"_blank\" rel=\"nofollow noreferrer\"><span class=\"invisible\">http://</span><span class=\"visible\">experimental.swineson.me</span><span class=\"invisible\"></span></a> 域作为演示用的收作业邮箱域，转发服务器利用免费的 <a href=\"http://link.zhihu.com/?target=http%3A//improvmx.com/\" class=\" external\" target=\"_blank\" rel=\"nofollow noreferrer\"><span class=\"invisible\">http://</span><span class=\"visible\">improvmx.com/</span><span class=\"invisible\"></span></a>，邮件转发到 emaildispatcher@swineson.me 。</p><p>首先花一分钟注册 emaildispatcher@swineson.me 这个邮箱，打开 POP3 功能；（为了方便我用了自己域名下的邮件服务，如果用公用服务的话强烈不推荐 163 系邮箱，因为 163 系邮箱开 POP3 功能强制要求绑定手机号，很不方便；QQ 什么的就挺好嘛。另外能关掉垃圾邮件过滤功能的话尽量关掉，因为只有附件的邮件很容易被当成垃圾邮件，不要问我怎么知道的。）</p><figure><noscript><img src=\"https://pic3.zhimg.com/d7594121af72d0c7d7736cb81cd233ee_b.png\" data-rawwidth=\"895\" data-rawheight=\"438\" class=\"origin_image zh-lightbox-thumb\" width=\"895\" data-original=\"https://pic3.zhimg.com/d7594121af72d0c7d7736cb81cd233ee_r.jpg\"></noscript><img src=\"data:image/svg+xml;utf8,&lt;svg%20xmlns='http://www.w3.org/2000/svg'%20width='895'%20height='438'&gt;&lt;/svg&gt;\" data-rawwidth=\"895\" data-rawheight=\"438\" class=\"origin_image zh-lightbox-thumb lazy\" width=\"895\" data-original=\"https://pic3.zhimg.com/d7594121af72d0c7d7736cb81cd233ee_r.jpg\" data-actualsrc=\"https://pic3.zhimg.com/d7594121af72d0c7d7736cb81cd233ee_b.png\"></figure><p>然后花一分钟在 <a href=\"http://link.zhihu.com/?target=http%3A//experimental.swineson.me\" class=\" external\" target=\"_blank\" rel=\"nofollow noreferrer\"><span class=\"invisible\">http://</span><span class=\"visible\">experimental.swineson.me</span><span class=\"invisible\"></span></a> 域下面设置好 MX 记录；</p><p><figure><noscript><img src=\"https://pic4.zhimg.com/c70f6f6274ee92db98f5fd4a733ba623_b.png\" data-rawwidth=\"1076\" data-rawheight=\"245\" class=\"origin_image zh-lightbox-thumb\" width=\"1076\" data-original=\"https://pic4.zhimg.com/c70f6f6274ee92db98f5fd4a733ba623_r.jpg\"></noscript><img src=\"data:image/svg+xml;utf8,&lt;svg%20xmlns='http://www.w3.org/2000/svg'%20width='1076'%20height='245'&gt;&lt;/svg&gt;\" data-rawwidth=\"1076\" data-rawheight=\"245\" class=\"origin_image zh-lightbox-thumb lazy\" width=\"1076\" data-original=\"https://pic4.zhimg.com/c70f6f6274ee92db98f5fd4a733ba623_r.jpg\" data-actualsrc=\"https://pic4.zhimg.com/c70f6f6274ee92db98f5fd4a733ba623_b.png\"></figure>最后花一分钟前往 <a href=\"http://link.zhihu.com/?target=http%3A//improvmx.com/\" class=\" external\" target=\"_blank\" rel=\"nofollow noreferrer\"><span class=\"invisible\">http://</span><span class=\"visible\">improvmx.com/</span><span class=\"invisible\"></span></a> 完成转发设置；</p><p><figure><noscript><img src=\"https://pic4.zhimg.com/6f5cab47f531e9d6f1b1456cea1629fb_b.png\" data-rawwidth=\"995\" data-rawheight=\"548\" class=\"origin_image zh-lightbox-thumb\" width=\"995\" data-original=\"https://pic4.zhimg.com/6f5cab47f531e9d6f1b1456cea1629fb_r.jpg\"></noscript><img src=\"data:image/svg+xml;utf8,&lt;svg%20xmlns='http://www.w3.org/2000/svg'%20width='995'%20height='548'&gt;&lt;/svg&gt;\" data-rawwidth=\"995\" data-rawheight=\"548\" class=\"origin_image zh-lightbox-thumb lazy\" width=\"995\" data-original=\"https://pic4.zhimg.com/6f5cab47f531e9d6f1b1456cea1629fb_r.jpg\" data-actualsrc=\"https://pic4.zhimg.com/6f5cab47f531e9d6f1b1456cea1629fb_b.png\"></figure>这一部分就完成了。<figure><noscript><img src=\"https://pic4.zhimg.com/9b1dc00386cac3384d90d7db3e05ac8f_b.png\" data-rawwidth=\"993\" data-rawheight=\"300\" class=\"origin_image zh-lightbox-thumb\" width=\"993\" data-original=\"https://pic4.zhimg.com/9b1dc00386cac3384d90d7db3e05ac8f_r.jpg\"></noscript><img src=\"data:image/svg+xml;utf8,&lt;svg%20xmlns='http://www.w3.org/2000/svg'%20width='993'%20height='300'&gt;&lt;/svg&gt;\" data-rawwidth=\"993\" data-rawheight=\"300\" class=\"origin_image zh-lightbox-thumb lazy\" width=\"993\" data-original=\"https://pic4.zhimg.com/9b1dc00386cac3384d90d7db3e05ac8f_r.jpg\" data-actualsrc=\"https://pic4.zhimg.com/9b1dc00386cac3384d90d7db3e05ac8f_b.png\"></figure></p><h2>自动收取邮件和下载附件</h2><p>还剩 27 分钟来写程序，我一点都不慌。这个本地程序需要做这么一些事情：</p><ul><li>隔一段时间轮询新邮件</li><li>如果新邮件的收件人符合预先定义的 homework_tag@experimental.swineson.me 格式，那么下载该邮件的附件，保存到预设的文件夹中，否则无视之</li><li>维护一个已下载邮件数据库，因为 POP3 是个“离线工作的协议”，不能和服务器传递已读状态</li></ul><p>这一部分我们用 Python 3 来完成，因为写起来方便嘛。代码见 <a href=\"http://link.zhihu.com/?target=https%3A//github.com/Jamesits/auto-email-homework-fetcher/blob/master/fetch.py\" class=\" wrap external\" target=\"_blank\" rel=\"nofollow noreferrer\">Jamesits/auto-email-homework-fetcher/blob/master/fetch.py</a>，总共不到九十行。</p><p>要直接使用的话，</p><div class=\"highlight\"><pre><code class=\"language-bash\"><span></span>git clone https://github.com/Jamesits/auto-email-homework-fetcher.git\n<span class=\"nb\">cd</span> auto-email-homework-fetcher\ncp config-example.ini config.ini\n</code></pre></div><p>修改 config.ini，在 mailbox section 填写 emaildispatcher@swineson.me 对应的登录信息，参考最下面的两个 section 增加一个新的 section，再在 config/tasks 里面填入该 section 的名字，最后我们会得到这样一个配置文件：</p><div class=\"highlight\"><pre><code class=\"language-ini\"><span></span><span class=\"k\">[mailbox]</span>\n<span class=\"na\">server</span> <span class=\"o\">=</span> <span class=\"s\">pop.exmail.qq.com</span>\n<span class=\"na\">port</span> <span class=\"o\">=</span> <span class=\"s\">995</span>\n<span class=\"na\">username</span> <span class=\"o\">=</span> <span class=\"s\">emaildispatcher@swineson.me</span>\n<span class=\"na\">password</span> <span class=\"o\">=</span> <span class=\"s\">不告诉你</span>\n\n<span class=\"k\">[config]</span>\n<span class=\"c1\">;; interval in seconds. set to 0 to disable.</span>\n<span class=\"na\">check_interval</span> <span class=\"o\">=</span> <span class=\"s\">60</span>\n<span class=\"na\">db_path</span> <span class=\"o\">=</span> <span class=\"s\">data.db</span>\n<span class=\"na\">base_folder</span> <span class=\"o\">=</span> <span class=\"s\">homeworks</span>\n<span class=\"na\">tasks</span> <span class=\"o\">=</span> <span class=\"s\">english_homework_20160701</span>\n\n<span class=\"k\">[english_homework_20160701]</span>\n<span class=\"na\">receiver</span> <span class=\"o\">=</span> <span class=\"s\">20160701@experimental.swineson.me</span>\n<span class=\"na\">folder</span> <span class=\"o\">=</span> <span class=\"s\">english_20160701</span>\n</code></pre></div><p>运行 fetcher.py，所有发送到 20160701@experimental.swineson.me 这个地址的邮件附件就会被下载到 homeworks/english_20160701 目录了。是不是超级方便呢？</p><p>以下是我测试期间的程序运行截图。</p><figure><noscript><img src=\"https://pic3.zhimg.com/73f6cb28fcc2249b8937002a9b93e842_b.png\" data-rawwidth=\"681\" data-rawheight=\"291\" class=\"origin_image zh-lightbox-thumb\" width=\"681\" data-original=\"https://pic3.zhimg.com/73f6cb28fcc2249b8937002a9b93e842_r.jpg\"></noscript><img src=\"data:image/svg+xml;utf8,&lt;svg%20xmlns='http://www.w3.org/2000/svg'%20width='681'%20height='291'&gt;&lt;/svg&gt;\" data-rawwidth=\"681\" data-rawheight=\"291\" class=\"origin_image zh-lightbox-thumb lazy\" width=\"681\" data-original=\"https://pic3.zhimg.com/73f6cb28fcc2249b8937002a9b93e842_r.jpg\" data-actualsrc=\"https://pic3.zhimg.com/73f6cb28fcc2249b8937002a9b93e842_b.png\"></figure><p>完整代码参见：<a href=\"http://link.zhihu.com/?target=https%3A//github.com/Jamesits/auto-email-homework-fetcher\" class=\" wrap external\" target=\"_blank\" rel=\"nofollow noreferrer\">Jamesits/auto-email-homework-fetcher</a><br></p><h2>结语</h2><p>我觉得吧，这种真・机械化操作，人还是别出来刷存在感了，交给程序来做，你也轻松，其他人也轻松。就像 <a href=\"http://link.zhihu.com/?target=https%3A//www.reddit.com/r/cscareerquestions/comments/4km3yc/finally_fired_after_6_years/\" class=\" wrap external\" target=\"_blank\" rel=\"nofollow noreferrer\">Reddit 上那个自称入职以后花了 50 小时自动化了所有工作，然后接下来六年什么都没干，六年之后终于被老板发现开除的哥们儿的伟大事迹</a>一样，虽然最后证明整件事情是他在吹牛逼，但这才是我们应该不懈追求的方向嘛！</p>",
    "contributions": [
        {
            "column": {
                "accept_submission": true,
                "articles_count": 65,
                "author": {
                    "avatar_url": "https://pic3.zhimg.com/4ad478c148b4e9ccbe312cfa53402b0f_l.jpg",
                    "avatar_url_template": "https://pic3.zhimg.com/4ad478c148b4e9ccbe312cfa53402b0f_{size}.jpg",
                    "description": "一万本大学生 | Programmer at large | 特别擅长玩坏 BGP | 个人网站 https://swineson.me | 有事请发邮件至 zhihu@public.swineson.me，知乎现在不怎么上，其他联系方式也可能疏于关照 | 本人已委托维权骑士（http://rightknights.com）为我的文章进行维权行动",
                    "gender": 1,
                    "headline": "已而！已而！",
                    "id": "72036ce918812daac46c75d7cac1e7d2",
                    "is_advertiser": false,
                    "is_followed": false,
                    "is_following": false,
                    "is_org": false,
                    "name": "James Swineson",
                    "type": "people",
                    "uid": "27898769571840",
                    "url": "/people/72036ce918812daac46c75d7cac1e7d2",
                    "url_token": "james-swineson",
                    "user_type": "people"
                },
                "can_manage": false,
                "comment_permission": "all",
                "created": 1394632777,
                "description": "",
                "followers": 2135,
                "id": "computers",
                "image_url": "https://pic2.zhimg.com/008a19032e74677b9dcc1946e520b63f_b.jpg",
                "intro": "",
                "is_following": false,
                "title": "About Computers",
                "type": "column",
                "updated": 1438759721,
                "url": "https://zhuanlan.zhihu.com/computers",
                "url_token": "computers"
            },
            "id": 388190,
            "state": "accepted",
            "type": "first_publish"
        }
    ],
    "created": 1467387120,
    "excerpt": "<img src=\"https://pic3.zhimg.com/d7594121af72d0c7d7736cb81cd233ee_200x112.png\" data-rawwidth=\"895\" data-rawheight=\"438\" class=\"origin_image inline-img zh-lightbox-thumb\" data-original=\"https://pic3.zhimg.com/d7594121af72d0c7d7736cb81cd233ee_r.png\">今天听说有一帮学生和助教在吵架，助教说你们交作业邮件不写正文很不尊重人诶，学生说本来交个作业就好的事情何必再假惺惺写个正文问声好，助教说你这样子搞得我们收作业很像机械操作诶……等等！通过电子邮件收作业本来就是个机械操作吧？我说助教们诶你们…",
    "excerpt_title": "",
    "has_publishing_draft": false,
    "id": 21471464,
    "image_height": 0,
    "image_url": "",
    "image_width": 0,
    "is_favorited": false,
    "is_labeled": false,
    "is_normal": true,
    "is_title_image_full_screen": false,
    "reason": "",
    "share_text": "半小时自制自动邮件收作业系统 - 来自知乎专栏「About Computers」，作者: James Swineson https://zhuanlan.zhihu.com/p/21471464 （想看更多？下载 @知乎 App：http://weibo.com/p/100404711598 ）",
    "state": "published",
    "status": 0,
    "suggest_edit": {
        "reason": "",
        "status": false,
        "tip": "",
        "title": "",
        "url": ""
    },
    "tipjarors_count": 0,
    "title": "半小时自制自动邮件收作业系统",
    "title_image": "",
    "topics": [
        {
            "id": "19679410",
            "name": "POP3",
            "type": "topic",
            "url": "https://www.zhihu.com/api/v4/topics/19679410"
        },
        {
            "id": "19552832",
            "name": "Python",
            "type": "topic",
            "url": "https://www.zhihu.com/api/v4/topics/19552832"
        }
    ],
    "type": "article",
    "updated": 1467419011,
    "upvoted_followees": [],
    "url": "https://zhuanlan.zhihu.com/p/21471464",
    "voteup_count": 177,
    "voting": 0
}