{
    "admin_closed_comment": false,
    "author": {
        "avatar_url": "https://pic3.zhimg.com/4ad478c148b4e9ccbe312cfa53402b0f_l.jpg",
        "avatar_url_template": "https://pic3.zhimg.com/4ad478c148b4e9ccbe312cfa53402b0f_{size}.jpg",
        "badge": [],
        "description": "一万本大学生 | Programmer at large | 特别擅长玩坏 BGP | 个人网站 https://swineson.me | 有事请发邮件至 zhihu@public.swineson.me，知乎现在不怎么上，其他联系方式也可能疏于关照 | 本人已委托维权骑士（http://rightknights.com）为我的文章进行维权行动",
        "gender": 1,
        "headline": "已而！已而！",
        "id": "72036ce918812daac46c75d7cac1e7d2",
        "is_advertiser": false,
        "is_followed": false,
        "is_following": false,
        "is_org": false,
        "name": "James Swineson",
        "type": "people",
        "uid": "27898769571840",
        "url": "/people/72036ce918812daac46c75d7cac1e7d2",
        "url_token": "james-swineson",
        "user_type": "people"
    },
    "can_comment": {
        "reason": "",
        "status": true
    },
    "comment_count": 0,
    "comment_permission": "all",
    "created": 1434683866,
    "excerpt": "今天看到 V2EX 上提到<a href=\"https://www.v2ex.com/t/199737#reply12\" class=\"\" data-editable=\"true\" data-title=\"v2ex.com 的页面\">无栈工程师</a>的概念。我认为呢，这个趋势是好的。必将有越来越多的人成为所谓无栈程序员。早年的计算机得用打孔纸带操作，或者<a href=\"http://www.zhihu.com/question/29047376\" class=\"\" data-editable=\"true\" data-title=\"手拨十三条\">手拨十三条</a>之类的复杂指令。现在的计算机，即使没有图形界面，我们要写程序的时候，编译器总是有的，libc 总…",
    "excerpt_title": "",
    "id": 20078625,
    "image_url": "",
    "is_labeled": false,
    "state": "published",
    "title": "整个网络就是一台计算机",
    "title_image": "",
    "type": "article",
    "updated": 1434693693,
    "url": "https://zhuanlan.zhihu.com/p/20078625",
    "voteup_count": 9,
    "voting": 0
}