{
    "admin_closed_comment": false,
    "author": {
        "avatar_url": "https://pic3.zhimg.com/4ad478c148b4e9ccbe312cfa53402b0f_l.jpg",
        "avatar_url_template": "https://pic3.zhimg.com/4ad478c148b4e9ccbe312cfa53402b0f_{size}.jpg",
        "badge": [],
        "description": "一万本大学生 | Programmer at large | 特别擅长玩坏 BGP | 个人网站 https://swineson.me | 有事请发邮件至 zhihu@public.swineson.me，知乎现在不怎么上，其他联系方式也可能疏于关照 | 本人已委托维权骑士（http://rightknights.com）为我的文章进行维权行动",
        "gender": 1,
        "headline": "已而！已而！",
        "id": "72036ce918812daac46c75d7cac1e7d2",
        "is_advertiser": false,
        "is_followed": false,
        "is_following": false,
        "is_org": false,
        "name": "James Swineson",
        "type": "people",
        "uid": "27898769571840",
        "url": "/people/72036ce918812daac46c75d7cac1e7d2",
        "url_token": "james-swineson",
        "user_type": "people"
    },
    "can_comment": {
        "reason": "",
        "status": true
    },
    "comment_count": 14,
    "comment_permission": "all",
    "created": 1376560707,
    "excerpt": "今天看到了这么个问题：<a href=\"http://zhi.hu/FUT3\" data-editable=\"true\" data-title=\"怎么看待网络上把多个句号连用当省略号这一行为？\">怎么看待网络上把多个句号连用当省略号这一行为？</a>正好，我是一个非常喜欢用省略号的人，我还有一定程度上的完美主义，忍受不了诸如＂。。。＂、＂。。。。＂、＂。。。。。＂、＂。。。。。。＂这些东西。但是日常生活中，即使我不遗…",
    "excerpt_title": "",
    "id": 19568362,
    "image_url": "",
    "is_labeled": false,
    "state": "published",
    "title": "[硬件][行为艺术]做一个省略号键",
    "title_image": "",
    "type": "article",
    "updated": 1376567348,
    "url": "https://zhuanlan.zhihu.com/p/19568362",
    "voteup_count": 4,
    "voting": 0
}