{
    "admin_closed_comment": false,
    "author": {
        "avatar_url": "https://pic1.zhimg.com/v2-77acb5043344a66c89735d8fc03bcd66_l.jpg",
        "avatar_url_template": "https://pic1.zhimg.com/v2-77acb5043344a66c89735d8fc03bcd66_{size}.jpg",
        "badge": [],
        "description": "SWE &amp; SRE | AS43126 Ops",
        "gender": 1,
        "headline": "Please mind the gap",
        "id": "8e4d0fedc48068f5fb69da994751d27a",
        "is_advertiser": false,
        "is_followed": false,
        "is_following": false,
        "is_org": false,
        "name": "imbushuo",
        "type": "people",
        "uid": "31857294966784",
        "url": "/people/8e4d0fedc48068f5fb69da994751d27a",
        "url_token": "imbushuo",
        "user_type": "people"
    },
    "can_comment": {
        "reason": "",
        "status": true
    },
    "comment_count": 3,
    "comment_permission": "all",
    "created": 1500118542,
    "excerpt": "<img src=\"https://pic1.zhimg.com/v2-610b30da020d3f235969880d0c109e8c_200x112.png\" data-rawwidth=\"1325\" data-rawheight=\"783\" class=\"origin_image inline-img zh-lightbox-thumb\" data-original=\"https://pic1.zhimg.com/v2-610b30da020d3f235969880d0c109e8c_r.png\">在国外或者一些国内高校读书的同学应该对 eduroam (<a href=\"https://www.eduroam.org/\">World Wide Education Roaming for Research &amp;amp; Education</a>) 很熟悉。对于不熟悉这个东西的读者，我们就简单介绍一下：这个服务可以让你在 A 学术机构里使用 B 学术机构的网络凭据来访问网络。比如你是 …",
    "excerpt_title": "",
    "id": 27906721,
    "image_url": "https://pic3.zhimg.com/v2-cfa313cd81e22e1c5c9b11036ae389db_b.jpg",
    "is_labeled": false,
    "state": "published",
    "title": "LAWRENCERoam: 个人组织间的 Wi-Fi 凭据共享 (1)",
    "title_image": "https://pic3.zhimg.com/v2-cfa313cd81e22e1c5c9b11036ae389db_b.jpg",
    "type": "article",
    "updated": 1500175042,
    "url": "https://zhuanlan.zhihu.com/p/27906721",
    "voteup_count": 16,
    "voting": 0
}