{
    "admin_closed_comment": false,
    "author": {
        "avatar_url": "https://pic3.zhimg.com/4ad478c148b4e9ccbe312cfa53402b0f_l.jpg",
        "avatar_url_template": "https://pic3.zhimg.com/4ad478c148b4e9ccbe312cfa53402b0f_{size}.jpg",
        "badge": [],
        "description": "一万本大学生 | Programmer at large | 特别擅长玩坏 BGP | 个人网站 https://swineson.me | 有事请发邮件至 zhihu@public.swineson.me，知乎现在不怎么上，其他联系方式也可能疏于关照 | 本人已委托维权骑士（http://rightknights.com）为我的文章进行维权行动",
        "gender": 1,
        "headline": "已而！已而！",
        "id": "72036ce918812daac46c75d7cac1e7d2",
        "is_advertiser": false,
        "is_followed": false,
        "is_following": false,
        "is_org": false,
        "name": "James Swineson",
        "type": "people",
        "uid": "27898769571840",
        "url": "/people/72036ce918812daac46c75d7cac1e7d2",
        "url_token": "james-swineson",
        "user_type": "people"
    },
    "can_comment": {
        "reason": "",
        "status": true
    },
    "comment_count": 3,
    "comment_permission": "all",
    "created": 1437103647,
    "excerpt": "一. 看整部电影的过程中，我的脑子里反复回荡着一句话：“诶这妖精能拓扑变换诶好厉害！”（图文无关）二. 人是不会死的，不管是从五六米被扔下来，还是通过正面碰撞测试，还是脊柱碎大桌，反正这么一套下来还能拍拍屁股接着打。真要死了也没事，好心的妖会…",
    "excerpt_title": "",
    "id": 20116220,
    "image_url": "",
    "is_labeled": false,
    "state": "published",
    "title": "评《捉妖记》",
    "title_image": "",
    "type": "article",
    "updated": 1437113249,
    "url": "https://zhuanlan.zhihu.com/p/20116220",
    "voteup_count": 7,
    "voting": 0
}