{
    "admin_closed_comment": false,
    "annotation_action": [],
    "author": {
        "avatar_url": "https://pic3.zhimg.com/4ad478c148b4e9ccbe312cfa53402b0f_l.jpg",
        "avatar_url_template": "https://pic3.zhimg.com/4ad478c148b4e9ccbe312cfa53402b0f_{size}.jpg",
        "badge": [],
        "description": "一万本大学生 | Programmer at large | 特别擅长玩坏 BGP | 个人网站 https://swineson.me | 有事请发邮件至 zhihu@public.swineson.me，知乎现在不怎么上，其他联系方式也可能疏于关照 | 本人已委托维权骑士（http://rightknights.com）为我的文章进行维权行动",
        "gender": 1,
        "headline": "已而！已而！",
        "id": "72036ce918812daac46c75d7cac1e7d2",
        "is_advertiser": false,
        "is_followed": false,
        "is_following": false,
        "is_org": false,
        "name": "James Swineson",
        "type": "people",
        "uid": "27898769571840",
        "url": "/people/72036ce918812daac46c75d7cac1e7d2",
        "url_token": "james-swineson",
        "user_type": "people"
    },
    "can_comment": {
        "reason": "",
        "status": true
    },
    "can_tip": false,
    "column": {
        "accept_submission": true,
        "articles_count": 47,
        "author": {
            "avatar_url": "https://pic3.zhimg.com/4ad478c148b4e9ccbe312cfa53402b0f_l.jpg",
            "avatar_url_template": "https://pic3.zhimg.com/4ad478c148b4e9ccbe312cfa53402b0f_{size}.jpg",
            "description": "一万本大学生 | Programmer at large | 特别擅长玩坏 BGP | 个人网站 https://swineson.me | 有事请发邮件至 zhihu@public.swineson.me，知乎现在不怎么上，其他联系方式也可能疏于关照 | 本人已委托维权骑士（http://rightknights.com）为我的文章进行维权行动",
            "gender": 1,
            "headline": "已而！已而！",
            "id": "72036ce918812daac46c75d7cac1e7d2",
            "is_advertiser": false,
            "is_followed": false,
            "is_following": false,
            "is_org": false,
            "name": "James Swineson",
            "type": "people",
            "uid": "27898769571840",
            "url": "/people/72036ce918812daac46c75d7cac1e7d2",
            "url_token": "james-swineson",
            "user_type": "people"
        },
        "can_manage": false,
        "comment_permission": "all",
        "created": 1391767170,
        "description": "请不要相信我在这里说的任何一句话。包括这句话和上面一句。\n\n有任何问题请发邮件到：jamesswineson+from-mynonsense@gmail.com",
        "followers": 1351,
        "id": "MyNonsense",
        "image_url": "https://pic1.zhimg.com/31aa55d6f_b.jpg",
        "intro": "请不要相信我在这里说的任何一句话。包括这句话和上…",
        "is_following": false,
        "title": "胡说八道",
        "type": "column",
        "updated": 1492411829,
        "url": "https://zhuanlan.zhihu.com/MyNonsense",
        "url_token": "MyNonsense"
    },
    "comment_count": 3,
    "comment_permission": "all",
    "commercial_info": {
        "is_commercial": false,
        "plugin": {}
    },
    "content": "一. 看整部电影的过程中，我的脑子里反复回荡着一句话：“诶这妖精能拓扑变换诶好厉害！”<p><figure><noscript><img src=\"https://pic4.zhimg.com/a7ae5e22ad273fd565babe469c6909db_b.jpg\" data-rawwidth=\"560\" data-rawheight=\"738\" class=\"origin_image zh-lightbox-thumb\" width=\"560\" data-original=\"https://pic4.zhimg.com/a7ae5e22ad273fd565babe469c6909db_r.jpg\"></noscript><img src=\"data:image/svg+xml;utf8,&lt;svg%20xmlns='http://www.w3.org/2000/svg'%20width='560'%20height='738'&gt;&lt;/svg&gt;\" data-rawwidth=\"560\" data-rawheight=\"738\" class=\"origin_image zh-lightbox-thumb lazy\" width=\"560\" data-original=\"https://pic4.zhimg.com/a7ae5e22ad273fd565babe469c6909db_r.jpg\" data-actualsrc=\"https://pic4.zhimg.com/a7ae5e22ad273fd565babe469c6909db_b.jpg\"></figure>（图文无关）</p><p>二. 人是不会死的，不管是从五六米被扔下来，还是通过正面碰撞测试，还是脊柱碎大桌，反正这么一套下来还能拍拍屁股接着打。真要死了也没事，好心的妖会来救你的。</p><p>相比之下，树和木材都是渣渣。大概是白蚁的防治工作没做好吧。</p><p>三. 杀人或者杀妖之前犯罪嫌疑人一定要等两秒/说几句废话/做几个没啥用的动作，等别人来干掉自己。别问为什么。</p><p>什么，你说那时候管不了那么多？放心，物理定律在那之前都是失效的，在最后几秒会突然生效。</p><p>四. 这电影应该反过来看。人是妖，妖是人。</p><p>五. 电影院巨幕厅就不能让前几排的座位椅背往后放一点么……我平视只能看到字幕啊！</p>",
    "contributions": [
        {
            "column": {
                "accept_submission": true,
                "articles_count": 47,
                "author": {
                    "avatar_url": "https://pic3.zhimg.com/4ad478c148b4e9ccbe312cfa53402b0f_l.jpg",
                    "avatar_url_template": "https://pic3.zhimg.com/4ad478c148b4e9ccbe312cfa53402b0f_{size}.jpg",
                    "description": "一万本大学生 | Programmer at large | 特别擅长玩坏 BGP | 个人网站 https://swineson.me | 有事请发邮件至 zhihu@public.swineson.me，知乎现在不怎么上，其他联系方式也可能疏于关照 | 本人已委托维权骑士（http://rightknights.com）为我的文章进行维权行动",
                    "gender": 1,
                    "headline": "已而！已而！",
                    "id": "72036ce918812daac46c75d7cac1e7d2",
                    "is_advertiser": false,
                    "is_followed": false,
                    "is_following": false,
                    "is_org": false,
                    "name": "James Swineson",
                    "type": "people",
                    "uid": "27898769571840",
                    "url": "/people/72036ce918812daac46c75d7cac1e7d2",
                    "url_token": "james-swineson",
                    "user_type": "people"
                },
                "can_manage": false,
                "comment_permission": "all",
                "created": 1391767170,
                "description": "请不要相信我在这里说的任何一句话。包括这句话和上面一句。\n\n有任何问题请发邮件到：jamesswineson+from-mynonsense@gmail.com",
                "followers": 1351,
                "id": "MyNonsense",
                "image_url": "https://pic1.zhimg.com/31aa55d6f_b.jpg",
                "intro": "请不要相信我在这里说的任何一句话。包括这句话和上…",
                "is_following": false,
                "title": "胡说八道",
                "type": "column",
                "updated": 1492411829,
                "url": "https://zhuanlan.zhihu.com/MyNonsense",
                "url_token": "MyNonsense"
            },
            "id": 278036,
            "state": "accepted",
            "type": "first_publish"
        }
    ],
    "created": 1437103647,
    "excerpt": "一. 看整部电影的过程中，我的脑子里反复回荡着一句话：“诶这妖精能拓扑变换诶好厉害！”（图文无关）二. 人是不会死的，不管是从五六米被扔下来，还是通过正面碰撞测试，还是脊柱碎大桌，反正这么一套下来还能拍拍屁股接着打。真要死了也没事，好心的妖会…",
    "excerpt_title": "",
    "has_publishing_draft": false,
    "id": 20116220,
    "image_height": 0,
    "image_url": "",
    "image_width": 0,
    "is_favorited": false,
    "is_labeled": false,
    "is_normal": true,
    "is_title_image_full_screen": false,
    "reason": "",
    "share_text": "评《捉妖记》 - 来自知乎专栏「胡说八道」，作者: James Swineson https://zhuanlan.zhihu.com/p/20116220 （想看更多？下载 @知乎 App：http://weibo.com/p/100404711598 ）",
    "state": "published",
    "status": 0,
    "suggest_edit": {
        "reason": "",
        "status": false,
        "tip": "",
        "title": "",
        "url": ""
    },
    "tipjarors_count": 0,
    "title": "评《捉妖记》",
    "title_image": "",
    "topics": [],
    "type": "article",
    "updated": 1437113249,
    "upvoted_followees": [],
    "url": "https://zhuanlan.zhihu.com/p/20116220",
    "voteup_count": 7,
    "voting": 0
}