{
    "admin_closed_comment": false,
    "annotation_action": [],
    "author": {
        "avatar_url": "https://pic3.zhimg.com/4ad478c148b4e9ccbe312cfa53402b0f_l.jpg",
        "avatar_url_template": "https://pic3.zhimg.com/4ad478c148b4e9ccbe312cfa53402b0f_{size}.jpg",
        "badge": [],
        "description": "一万本大学生 | Programmer at large | 特别擅长玩坏 BGP | 个人网站 https://swineson.me | 有事请发邮件至 zhihu@public.swineson.me，知乎现在不怎么上，其他联系方式也可能疏于关照 | 本人已委托维权骑士（http://rightknights.com）为我的文章进行维权行动",
        "gender": 1,
        "headline": "已而！已而！",
        "id": "72036ce918812daac46c75d7cac1e7d2",
        "is_advertiser": false,
        "is_followed": false,
        "is_following": false,
        "is_org": false,
        "name": "James Swineson",
        "type": "people",
        "uid": "27898769571840",
        "url": "/people/72036ce918812daac46c75d7cac1e7d2",
        "url_token": "james-swineson",
        "user_type": "people"
    },
    "can_comment": {
        "reason": "",
        "status": true
    },
    "can_tip": true,
    "column": {
        "accept_submission": true,
        "articles_count": 48,
        "author": {
            "avatar_url": "https://pic3.zhimg.com/4ad478c148b4e9ccbe312cfa53402b0f_l.jpg",
            "avatar_url_template": "https://pic3.zhimg.com/4ad478c148b4e9ccbe312cfa53402b0f_{size}.jpg",
            "description": "一万本大学生 | Programmer at large | 特别擅长玩坏 BGP | 个人网站 https://swineson.me | 有事请发邮件至 zhihu@public.swineson.me，知乎现在不怎么上，其他联系方式也可能疏于关照 | 本人已委托维权骑士（http://rightknights.com）为我的文章进行维权行动",
            "gender": 1,
            "headline": "已而！已而！",
            "id": "72036ce918812daac46c75d7cac1e7d2",
            "is_advertiser": false,
            "is_followed": false,
            "is_following": false,
            "is_org": false,
            "name": "James Swineson",
            "type": "people",
            "uid": "27898769571840",
            "url": "/people/72036ce918812daac46c75d7cac1e7d2",
            "url_token": "james-swineson",
            "user_type": "people"
        },
        "can_manage": false,
        "comment_permission": "all",
        "created": 1376392789,
        "description": "Vaporware 的沉积之处。一个缺乏行动力的人的自白。程序猿锻炼能力做项目的选材宝地。创业者寻找想法的好地方。\n\n新来的同学请先看这篇说明：http://zhuanlan.zhihu.com/ideas/19566363\n\n欢迎访问我的博客：https://blog.swineson.me\n\nLicensed under CC by-nc-sa 4.0 International.",
        "followers": 2000,
        "id": "ideas",
        "image_url": "https://pic4.zhimg.com/cda86ea4b_b.jpg",
        "intro": "Vaporware 的沉积之处。一个缺乏行动力的…",
        "is_following": false,
        "title": "各种想法",
        "type": "column",
        "updated": 1454819429,
        "url": "https://zhuanlan.zhihu.com/ideas",
        "url_token": "ideas"
    },
    "comment_count": 2,
    "comment_permission": "all",
    "commercial_info": {
        "is_commercial": false,
        "plugin": {}
    },
    "content": "等 Apple 发布 Magic Keyboard with Touch Bar。<p>把 Touch Bar 上的 watchOS 越狱。</p><p>往上面移植一个 Rime 输入法。</p><p>一键切换不同的操作系统，自动选用相应的 Unicode 输入法直接输入字符。</p><p>計画通り。</p><p>============</p><p>James Swineson<br>2016-11-6</p><p>题图来自：<a href=\"http://link.zhihu.com/?target=http%3A//appleinsider.com/articles/16/11/03/concept-imagines-oled-touch-bar-on-apples-wireless-magic-keyboard\" class=\" wrap external\" target=\"_blank\" rel=\"nofollow noreferrer\">Concept imagines OLED Touch Bar on Apple's wireless Magic Keyboard</a></p>",
    "contributions": [
        {
            "column": {
                "accept_submission": true,
                "articles_count": 48,
                "author": {
                    "avatar_url": "https://pic3.zhimg.com/4ad478c148b4e9ccbe312cfa53402b0f_l.jpg",
                    "avatar_url_template": "https://pic3.zhimg.com/4ad478c148b4e9ccbe312cfa53402b0f_{size}.jpg",
                    "description": "一万本大学生 | Programmer at large | 特别擅长玩坏 BGP | 个人网站 https://swineson.me | 有事请发邮件至 zhihu@public.swineson.me，知乎现在不怎么上，其他联系方式也可能疏于关照 | 本人已委托维权骑士（http://rightknights.com）为我的文章进行维权行动",
                    "gender": 1,
                    "headline": "已而！已而！",
                    "id": "72036ce918812daac46c75d7cac1e7d2",
                    "is_advertiser": false,
                    "is_followed": false,
                    "is_following": false,
                    "is_org": false,
                    "name": "James Swineson",
                    "type": "people",
                    "uid": "27898769571840",
                    "url": "/people/72036ce918812daac46c75d7cac1e7d2",
                    "url_token": "james-swineson",
                    "user_type": "people"
                },
                "can_manage": false,
                "comment_permission": "all",
                "created": 1376392789,
                "description": "Vaporware 的沉积之处。一个缺乏行动力的人的自白。程序猿锻炼能力做项目的选材宝地。创业者寻找想法的好地方。\n\n新来的同学请先看这篇说明：http://zhuanlan.zhihu.com/ideas/19566363\n\n欢迎访问我的博客：https://blog.swineson.me\n\nLicensed under CC by-nc-sa 4.0 International.",
                "followers": 2000,
                "id": "ideas",
                "image_url": "https://pic4.zhimg.com/cda86ea4b_b.jpg",
                "intro": "Vaporware 的沉积之处。一个缺乏行动力的…",
                "is_following": false,
                "title": "各种想法",
                "type": "column",
                "updated": 1454819429,
                "url": "https://zhuanlan.zhihu.com/ideas",
                "url_token": "ideas"
            },
            "id": 466153,
            "state": "accepted",
            "type": "first_publish"
        }
    ],
    "created": 1478430279,
    "excerpt": "等 Apple 发布 Magic Keyboard with Touch Bar。把 Touch Bar 上的 watchOS 越狱。往上面移植一个 Rime 输入法。一键切换不同的操作系统，自动选用相应的 Unicode 输入法直接输入字符。計画通り。============James Swineson 2016-11-6题图来自：<a href=\"http://appleinsider.com/articles/16/11/03/concept-imagines-oled-touch-bar-on-apples-wireless-magic-keyboard\" data-editable=\"true\" data-title=\"Concept imagines OLED Touch Bar on Apple's wireless Magic Keyboard\">Concept im…</a>",
    "excerpt_title": "",
    "has_publishing_draft": false,
    "id": 23464206,
    "image_height": 372,
    "image_url": "https://pic4.zhimg.com/v2-6a6553cf11120bf570cd03bc7a6c59d2_b.jpg",
    "image_width": 660,
    "is_favorited": false,
    "is_labeled": false,
    "is_normal": true,
    "is_title_image_full_screen": false,
    "reason": "",
    "share_text": "电子设备狂想 2016 - 来自知乎专栏「各种想法」，作者: James Swineson https://zhuanlan.zhihu.com/p/23464206 （想看更多？下载 @知乎 App：http://weibo.com/p/100404711598 ）",
    "state": "published",
    "status": 0,
    "suggest_edit": {
        "reason": "",
        "status": false,
        "tip": "",
        "title": "",
        "url": ""
    },
    "tipjarors_count": 0,
    "title": "电子设备狂想 2016",
    "title_image": "https://pic4.zhimg.com/v2-6a6553cf11120bf570cd03bc7a6c59d2_b.jpg",
    "topics": [
        {
            "id": "19551762",
            "name": "苹果公司 (Apple Inc.)",
            "type": "topic",
            "url": "https://www.zhihu.com/api/v4/topics/19551762"
        },
        {
            "id": "20064660",
            "name": "Touch Bar",
            "type": "topic",
            "url": "https://www.zhihu.com/api/v4/topics/20064660"
        },
        {
            "id": "19552643",
            "name": "输入法",
            "type": "topic",
            "url": "https://www.zhihu.com/api/v4/topics/19552643"
        }
    ],
    "type": "article",
    "updated": 1478430380,
    "upvoted_followees": [],
    "url": "https://zhuanlan.zhihu.com/p/23464206",
    "voteup_count": 15,
    "voting": 0
}