{
    "admin_closed_comment": false,
    "author": {
        "avatar_url": "https://pic3.zhimg.com/4ad478c148b4e9ccbe312cfa53402b0f_l.jpg",
        "avatar_url_template": "https://pic3.zhimg.com/4ad478c148b4e9ccbe312cfa53402b0f_{size}.jpg",
        "badge": [],
        "description": "一万本大学生 | Programmer at large | 特别擅长玩坏 BGP | 个人网站 https://swineson.me | 有事请发邮件至 zhihu@public.swineson.me，知乎现在不怎么上，其他联系方式也可能疏于关照 | 本人已委托维权骑士（http://rightknights.com）为我的文章进行维权行动",
        "gender": 1,
        "headline": "已而！已而！",
        "id": "72036ce918812daac46c75d7cac1e7d2",
        "is_advertiser": false,
        "is_followed": false,
        "is_following": false,
        "is_org": false,
        "name": "James Swineson",
        "type": "people",
        "uid": "27898769571840",
        "url": "/people/72036ce918812daac46c75d7cac1e7d2",
        "url_token": "james-swineson",
        "user_type": "people"
    },
    "can_comment": {
        "reason": "",
        "status": true
    },
    "comment_count": 2,
    "comment_permission": "all",
    "created": 1436019596,
    "excerpt": "这大概是一种商业模式。比如我们找一个某高管啊，随便找个名字举例好了，叫 Alice。调查她的生活习惯，需求和常用 App，打包成一台刚好够用的手机，叫做 XPhone Alice；然后如法炮制找不同行业不同工作的代表人物，选择对方需要的配置和 App 打包成手机产品…",
    "excerpt_title": "",
    "id": 20098535,
    "image_url": "",
    "is_labeled": false,
    "state": "published",
    "title": "[Service] 按特定群体定制的手机",
    "title_image": "",
    "type": "article",
    "updated": 1436023109,
    "url": "https://zhuanlan.zhihu.com/p/20098535",
    "voteup_count": 4,
    "voting": 0
}