{
    "admin_closed_comment": false,
    "annotation_action": [],
    "author": {
        "avatar_url": "https://pic1.zhimg.com/v2-77acb5043344a66c89735d8fc03bcd66_l.jpg",
        "avatar_url_template": "https://pic1.zhimg.com/v2-77acb5043344a66c89735d8fc03bcd66_{size}.jpg",
        "badge": [],
        "description": "SWE &amp; SRE | AS43126 Ops",
        "gender": 1,
        "headline": "Please mind the gap",
        "id": "8e4d0fedc48068f5fb69da994751d27a",
        "is_advertiser": false,
        "is_followed": false,
        "is_following": false,
        "is_org": false,
        "name": "imbushuo",
        "type": "people",
        "uid": "31857294966784",
        "url": "/people/8e4d0fedc48068f5fb69da994751d27a",
        "url_token": "imbushuo",
        "user_type": "people"
    },
    "can_comment": {
        "reason": "",
        "status": true
    },
    "can_tip": true,
    "column": {
        "accept_submission": true,
        "articles_count": 65,
        "author": {
            "avatar_url": "https://pic3.zhimg.com/4ad478c148b4e9ccbe312cfa53402b0f_l.jpg",
            "avatar_url_template": "https://pic3.zhimg.com/4ad478c148b4e9ccbe312cfa53402b0f_{size}.jpg",
            "description": "一万本大学生 | Programmer at large | 特别擅长玩坏 BGP | 个人网站 https://swineson.me | 有事请发邮件至 zhihu@public.swineson.me，知乎现在不怎么上，其他联系方式也可能疏于关照 | 本人已委托维权骑士（http://rightknights.com）为我的文章进行维权行动",
            "gender": 1,
            "headline": "已而！已而！",
            "id": "72036ce918812daac46c75d7cac1e7d2",
            "is_advertiser": false,
            "is_followed": false,
            "is_following": false,
            "is_org": false,
            "name": "James Swineson",
            "type": "people",
            "uid": "27898769571840",
            "url": "/people/72036ce918812daac46c75d7cac1e7d2",
            "url_token": "james-swineson",
            "user_type": "people"
        },
        "can_manage": false,
        "comment_permission": "all",
        "created": 1394632777,
        "description": "",
        "followers": 2135,
        "id": "computers",
        "image_url": "https://pic2.zhimg.com/008a19032e74677b9dcc1946e520b63f_b.jpg",
        "intro": "",
        "is_following": false,
        "title": "About Computers",
        "type": "column",
        "updated": 1438759721,
        "url": "https://zhuanlan.zhihu.com/computers",
        "url_token": "computers"
    },
    "comment_count": 9,
    "comment_permission": "all",
    "commercial_info": {
        "is_commercial": false,
        "plugin": {}
    },
    "content": "<p></p><figure data-size=\"normal\"><noscript><img src=\"https://pic4.zhimg.com/v2-789f4d83a6080a65316e0c329ad3d9d3_b.jpg\" data-caption=\"\" data-size=\"normal\" data-rawwidth=\"4032\" data-rawheight=\"3024\" class=\"origin_image zh-lightbox-thumb\" width=\"4032\" data-original=\"https://pic4.zhimg.com/v2-789f4d83a6080a65316e0c329ad3d9d3_r.jpg\"></noscript><img src=\"data:image/svg+xml;utf8,&lt;svg%20xmlns='http://www.w3.org/2000/svg'%20width='4032'%20height='3024'&gt;&lt;/svg&gt;\" data-caption=\"\" data-size=\"normal\" data-rawwidth=\"4032\" data-rawheight=\"3024\" class=\"origin_image zh-lightbox-thumb lazy\" width=\"4032\" data-original=\"https://pic4.zhimg.com/v2-789f4d83a6080a65316e0c329ad3d9d3_r.jpg\" data-actualsrc=\"https://pic4.zhimg.com/v2-789f4d83a6080a65316e0c329ad3d9d3_b.jpg\"></figure><p>如图。你可以很快丢掉 Trackpad++ 之流需要用户态程序来完成手势之类的第三方驱动了。因为 SPI 版本的 MacBook 精确式触摸板驱动需要 EV 签名（未来的机型还需要 WHQL，因为有 Secure Boot），所以目前尝试的话需要打开 Testsigning 并卸载官方驱动（Windows 以 WHQL 驱动优先）。</p><p><br></p><p><b>项目地址</b></p><p><a href=\"http://link.zhihu.com/?target=https%3A//github.com/imbushuo/mac-precision-touchpad/\" class=\" wrap external\" target=\"_blank\" rel=\"nofollow noreferrer\">imbushuo/mac-precision-touchpad</a></p><p><br></p><p><b>如何判断我的 MacBook 使用的是 SPI 还是 USB 触摸板？</b></p><p>在 Windows 下打开设备管理器，按照连接顺序排列设备。如果触摸板设备出现在 Apple SPI Device 下，则触摸板使用 SPI 连接。否则使用 USB 连接。</p><p>已知 MacBook 12-inch, MacBook Pro 13-inch 从 Mid 2014 开始的机型，和 MacBook Pro 15-inch 从 2016 开始的机型使用 SPI 的触摸板。</p><p>MacBook Air 的触摸板多为双重连接，在 macOS 下使用 SPI，在 Windows 上使用 USB。这个连接通过 ACPI 方法来判断和切换。</p><p><br></p><p><b>目前支持的机型有：</b></p><ul><li>MacBook9,1 (MacBook, 12-inch, Retina, Early 2016): PID 0x0275, VID 0x05ac</li><li>MacBook10,1 (MacBook, 12-inch, Retina, 2017): PID 0x0279, VID 0x05ac</li><li>MacBookPro11,1 (MacBook Pro, Retina, 13-inch, Mid 2014), PID 0x0272, VID 0x05ac</li><li>MacBookPro12,1 (MacBook Pro, Retina, 13-inch, Early 2015), PID 0x0273, VID 0x05ac</li></ul><p><br></p><p><b>如何让我的 MacBook 得到这个项目的支持？</b></p><p>在 macOS 上打开 System Report （系统报告），转到 Hardware &gt; SPI，如下图所示。</p><p>在 <a href=\"http://link.zhihu.com/?target=https%3A//github.com/imbushuo/mac-precision-touchpad\" class=\" wrap external\" target=\"_blank\" rel=\"nofollow noreferrer\">GitHub Issues</a> 或本文章的评论区留言报告 Product ID, Vendor ID 以及你的设备型号标识符 (例如 MacBook 9,1) 和键盘类型（ANSI/ISO/JIS，中文键盘当作 ANSI 报告）。</p><figure data-size=\"normal\"><noscript><img src=\"https://pic1.zhimg.com/v2-3fefb0c8b2a8c461ca25b5b824de3abc_b.jpg\" data-caption=\"\" data-size=\"normal\" data-rawwidth=\"1680\" data-rawheight=\"1668\" class=\"origin_image zh-lightbox-thumb\" width=\"1680\" data-original=\"https://pic1.zhimg.com/v2-3fefb0c8b2a8c461ca25b5b824de3abc_r.jpg\"></noscript><img src=\"data:image/svg+xml;utf8,&lt;svg%20xmlns='http://www.w3.org/2000/svg'%20width='1680'%20height='1668'&gt;&lt;/svg&gt;\" data-caption=\"\" data-size=\"normal\" data-rawwidth=\"1680\" data-rawheight=\"1668\" class=\"origin_image zh-lightbox-thumb lazy\" width=\"1680\" data-original=\"https://pic1.zhimg.com/v2-3fefb0c8b2a8c461ca25b5b824de3abc_r.jpg\" data-actualsrc=\"https://pic1.zhimg.com/v2-3fefb0c8b2a8c461ca25b5b824de3abc_b.jpg\"></figure><p></p><p></p>",
    "contributions": [
        {
            "column": {
                "accept_submission": true,
                "articles_count": 65,
                "author": {
                    "avatar_url": "https://pic3.zhimg.com/4ad478c148b4e9ccbe312cfa53402b0f_l.jpg",
                    "avatar_url_template": "https://pic3.zhimg.com/4ad478c148b4e9ccbe312cfa53402b0f_{size}.jpg",
                    "description": "一万本大学生 | Programmer at large | 特别擅长玩坏 BGP | 个人网站 https://swineson.me | 有事请发邮件至 zhihu@public.swineson.me，知乎现在不怎么上，其他联系方式也可能疏于关照 | 本人已委托维权骑士（http://rightknights.com）为我的文章进行维权行动",
                    "gender": 1,
                    "headline": "已而！已而！",
                    "id": "72036ce918812daac46c75d7cac1e7d2",
                    "is_advertiser": false,
                    "is_followed": false,
                    "is_following": false,
                    "is_org": false,
                    "name": "James Swineson",
                    "type": "people",
                    "uid": "27898769571840",
                    "url": "/people/72036ce918812daac46c75d7cac1e7d2",
                    "url_token": "james-swineson",
                    "user_type": "people"
                },
                "can_manage": false,
                "comment_permission": "all",
                "created": 1394632777,
                "description": "",
                "followers": 2135,
                "id": "computers",
                "image_url": "https://pic2.zhimg.com/008a19032e74677b9dcc1946e520b63f_b.jpg",
                "intro": "",
                "is_following": false,
                "title": "About Computers",
                "type": "column",
                "updated": 1438759721,
                "url": "https://zhuanlan.zhihu.com/computers",
                "url_token": "computers"
            },
            "id": 1692504,
            "state": "accepted",
            "type": "first_publish"
        }
    ],
    "created": 1531592919,
    "excerpt": "<img src=\"https://pic1.zhimg.com/v2-8c55cdb11d03fad06cac4ae88482bfec_200x112.jpg\" data-caption=\"\" data-size=\"normal\" data-rawwidth=\"4032\" data-rawheight=\"3024\" data-watermark=\"watermark\" data-original-src=\"v2-8c55cdb11d03fad06cac4ae88482bfec\" data-watermark-src=\"v2-789f4d83a6080a65316e0c329ad3d9d3\" data-private-watermark-src=\"\" class=\"origin_image inline-img zh-lightbox-thumb\" data-original=\"https://pic1.zhimg.com/v2-8c55cdb11d03fad06cac4ae88482bfec_r.jpg\">如图。你可以很快丢掉 Trackpad++ 之流需要用户态程序来完成手势之类的第三方驱动了。因为 SPI 版本的 MacBook 精确式触摸板驱动需要 EV 签名（未来的机型还需要 WHQL，因为有 Secure Boot），所以目前尝试的话需要打开 Testsigning 并卸载官方驱动（Window…",
    "excerpt_title": "",
    "has_publishing_draft": false,
    "id": 39771646,
    "image_height": 3024,
    "image_url": "https://pic2.zhimg.com/v2-8c55cdb11d03fad06cac4ae88482bfec_b.jpg",
    "image_width": 4032,
    "is_favorited": false,
    "is_labeled": false,
    "is_normal": true,
    "is_title_image_full_screen": false,
    "reason": "",
    "share_text": "MacBook 精确式触摸板项目现已支持 SPI 触摸板 - 来自知乎专栏「About Computers」，作者: imbushuo https://zhuanlan.zhihu.com/p/39771646 （想看更多？下载 @知乎 App：http://weibo.com/p/100404711598 ）",
    "state": "published",
    "status": 0,
    "suggest_edit": {
        "reason": "",
        "status": false,
        "tip": "",
        "title": "",
        "url": ""
    },
    "tipjarors_count": 0,
    "title": "MacBook 精确式触摸板项目现已支持 SPI 触摸板",
    "title_image": "https://pic2.zhimg.com/v2-8c55cdb11d03fad06cac4ae88482bfec_b.jpg",
    "topics": [
        {
            "id": "19550262",
            "name": "MacBook",
            "type": "topic",
            "url": "https://www.zhihu.com/api/v4/topics/19550262"
        },
        {
            "id": "19558537",
            "name": "Boot Camp",
            "type": "topic",
            "url": "https://www.zhihu.com/api/v4/topics/19558537"
        },
        {
            "id": "19599175",
            "name": "触摸板",
            "type": "topic",
            "url": "https://www.zhihu.com/api/v4/topics/19599175"
        }
    ],
    "type": "article",
    "updated": 1531592918,
    "upvoted_followees": [],
    "url": "https://zhuanlan.zhihu.com/p/39771646",
    "voteup_count": 55,
    "voting": 0
}