{
    "admin_closed_comment": false,
    "author": {
        "avatar_url": "https://pic3.zhimg.com/4ad478c148b4e9ccbe312cfa53402b0f_l.jpg",
        "avatar_url_template": "https://pic3.zhimg.com/4ad478c148b4e9ccbe312cfa53402b0f_{size}.jpg",
        "badge": [],
        "description": "一万本大学生 | Programmer at large | 特别擅长玩坏 BGP | 个人网站 https://swineson.me | 有事请发邮件至 zhihu@public.swineson.me，知乎现在不怎么上，其他联系方式也可能疏于关照 | 本人已委托维权骑士（http://rightknights.com）为我的文章进行维权行动",
        "gender": 1,
        "headline": "已而！已而！",
        "id": "72036ce918812daac46c75d7cac1e7d2",
        "is_advertiser": false,
        "is_followed": false,
        "is_following": false,
        "is_org": false,
        "name": "James Swineson",
        "type": "people",
        "uid": "27898769571840",
        "url": "/people/72036ce918812daac46c75d7cac1e7d2",
        "url_token": "james-swineson",
        "user_type": "people"
    },
    "can_comment": {
        "reason": "",
        "status": true
    },
    "comment_count": 58,
    "comment_permission": "all",
    "created": 1455460526,
    "excerpt": "程序猿[1]这个工作听起来不错：市场需求大，工资高，（看起来）工作轻松，前途也广。于是，你兴冲冲地去看了网上几个视频教程，或是关注了几个微信公众号，写了两行代码，弹个对话框，以为自己入门了。这样能入门吗？当然能。不幸的是，要通过这种方法获得…",
    "excerpt_title": "",
    "id": 20572239,
    "image_url": "https://pic3.zhimg.com/d239b2701611685662d92461100fd435_b.jpg",
    "is_labeled": false,
    "state": "published",
    "title": "在你决定成为一只程序猿之前，请先成为一个 Power User",
    "title_image": "https://pic3.zhimg.com/d239b2701611685662d92461100fd435_b.jpg",
    "type": "article",
    "updated": 1455461866,
    "url": "https://zhuanlan.zhihu.com/p/20572239",
    "voteup_count": 737,
    "voting": 0
}