{
    "admin_closed_comment": false,
    "author": {
        "avatar_url": "https://pic3.zhimg.com/4ad478c148b4e9ccbe312cfa53402b0f_l.jpg",
        "avatar_url_template": "https://pic3.zhimg.com/4ad478c148b4e9ccbe312cfa53402b0f_{size}.jpg",
        "badge": [],
        "description": "一万本大学生 | Programmer at large | 特别擅长玩坏 BGP | 个人网站 https://swineson.me | 有事请发邮件至 zhihu@public.swineson.me，知乎现在不怎么上，其他联系方式也可能疏于关照 | 本人已委托维权骑士（http://rightknights.com）为我的文章进行维权行动",
        "gender": 1,
        "headline": "已而！已而！",
        "id": "72036ce918812daac46c75d7cac1e7d2",
        "is_advertiser": false,
        "is_followed": false,
        "is_following": false,
        "is_org": false,
        "name": "James Swineson",
        "type": "people",
        "uid": "27898769571840",
        "url": "/people/72036ce918812daac46c75d7cac1e7d2",
        "url_token": "james-swineson",
        "user_type": "people"
    },
    "can_comment": {
        "reason": "",
        "status": true
    },
    "comment_count": 1,
    "comment_permission": "all",
    "created": 1436360823,
    "excerpt": "因为这就形成了<a href=\"http://www.wikiwand.com/zh/%E7%B4%8D%E4%BB%80%E5%9D%87%E8%A1%A1%E9%BB%9E\" class=\"\" data-editable=\"true\" data-title=\"納什均衡點 - Wikiwand\">纳什平衡</a>啊哈哈哈哈哈哈哈哈哈。参考：<a href=\"http://www.zhihu.com/question/20050968/answer/47086382\" data-editable=\"true\" data-title=\"为什么麦当劳和肯德基总是开在一起？ - 朱聿欣的回答\" class=\"\">为什么麦当劳和肯德基总是开在一起？ - 朱聿欣的回答</a>",
    "excerpt_title": "",
    "id": 20103632,
    "image_url": "",
    "is_labeled": false,
    "state": "published",
    "title": "为什么微信和支付宝最后都做了同一个功能？",
    "title_image": "",
    "type": "article",
    "updated": 1436360823,
    "url": "https://zhuanlan.zhihu.com/p/20103632",
    "voteup_count": 4,
    "voting": 0
}