{
    "admin_closed_comment": false,
    "annotation_action": [],
    "author": {
        "avatar_url": "https://pic3.zhimg.com/4ad478c148b4e9ccbe312cfa53402b0f_l.jpg",
        "avatar_url_template": "https://pic3.zhimg.com/4ad478c148b4e9ccbe312cfa53402b0f_{size}.jpg",
        "badge": [],
        "description": "一万本大学生 | Programmer at large | 特别擅长玩坏 BGP | 个人网站 https://swineson.me | 有事请发邮件至 zhihu@public.swineson.me，知乎现在不怎么上，其他联系方式也可能疏于关照 | 本人已委托维权骑士（http://rightknights.com）为我的文章进行维权行动",
        "gender": 1,
        "headline": "已而！已而！",
        "id": "72036ce918812daac46c75d7cac1e7d2",
        "is_advertiser": false,
        "is_followed": false,
        "is_following": false,
        "is_org": false,
        "name": "James Swineson",
        "type": "people",
        "uid": "27898769571840",
        "url": "/people/72036ce918812daac46c75d7cac1e7d2",
        "url_token": "james-swineson",
        "user_type": "people"
    },
    "can_comment": {
        "reason": "",
        "status": true
    },
    "can_tip": true,
    "column": {
        "accept_submission": true,
        "articles_count": 65,
        "author": {
            "avatar_url": "https://pic3.zhimg.com/4ad478c148b4e9ccbe312cfa53402b0f_l.jpg",
            "avatar_url_template": "https://pic3.zhimg.com/4ad478c148b4e9ccbe312cfa53402b0f_{size}.jpg",
            "description": "一万本大学生 | Programmer at large | 特别擅长玩坏 BGP | 个人网站 https://swineson.me | 有事请发邮件至 zhihu@public.swineson.me，知乎现在不怎么上，其他联系方式也可能疏于关照 | 本人已委托维权骑士（http://rightknights.com）为我的文章进行维权行动",
            "gender": 1,
            "headline": "已而！已而！",
            "id": "72036ce918812daac46c75d7cac1e7d2",
            "is_advertiser": false,
            "is_followed": false,
            "is_following": false,
            "is_org": false,
            "name": "James Swineson",
            "type": "people",
            "uid": "27898769571840",
            "url": "/people/72036ce918812daac46c75d7cac1e7d2",
            "url_token": "james-swineson",
            "user_type": "people"
        },
        "can_manage": false,
        "comment_permission": "all",
        "created": 1394632777,
        "description": "",
        "followers": 2135,
        "id": "computers",
        "image_url": "https://pic2.zhimg.com/008a19032e74677b9dcc1946e520b63f_b.jpg",
        "intro": "",
        "is_following": false,
        "title": "About Computers",
        "type": "column",
        "updated": 1438759721,
        "url": "https://zhuanlan.zhihu.com/computers",
        "url_token": "computers"
    },
    "comment_count": 23,
    "comment_permission": "all",
    "commercial_info": {
        "is_commercial": false,
        "plugin": {}
    },
    "content": "目前看来，自有域名带通配符的电子邮箱越来越有必要。它可以：<h2>在注册网络服务的时候使用不同的电子邮箱</h2><ul><li>使不同平台的用户名变得不可预测，从而增大暴力破解的难度；</li><li>可以简单地通过收件人字段创建过滤器，过滤广告 / 垃圾邮件；</li><li>可以通过收到的广告邮件的收件人字段来判断个人信息泄漏源；</li><li>可以方便地在同一平台注册多个不同账户，而不需要切换邮箱。</li></ul><h2>实现邮件内容和传送路径可控</h2><ul><li>避免第三方邮件系统在用户无感知的情况下对邮件误 bounce；</li><li>避免第三方邮件系统偷偷修改邮件内容，插入广告或统计链接；</li><li>设定更严格的协议加密规则，例如强制启用 TLS，水表有保障。</li></ul><br><h2>让电子邮件地址更美观</h2><ul><li>整个地址都可以自定义，不容易被不符合标准的输入验证误判；</li><li>不会因为某些邮件系统的随机数字邮件地址而被当成垃圾邮件。</li></ul><h2>永远有选择权</h2><ul><li>随时更换所使用的邮件系统，不需要永远被绑定在一个服务上。</li></ul><br><p>所有这些好处所需的物质成本，只是一年一百元的一个域名而已。</p><p>==========</p><p>题图引用自：<a href=\"http://link.zhihu.com/?target=https%3A//www.mailgun.com/analytics\" class=\" external\" target=\"_blank\" rel=\"nofollow noreferrer\"><span class=\"invisible\">https://www.</span><span class=\"visible\">mailgun.com/analytics</span><span class=\"invisible\"></span></a></p>",
    "contributions": [
        {
            "column": {
                "accept_submission": true,
                "articles_count": 65,
                "author": {
                    "avatar_url": "https://pic3.zhimg.com/4ad478c148b4e9ccbe312cfa53402b0f_l.jpg",
                    "avatar_url_template": "https://pic3.zhimg.com/4ad478c148b4e9ccbe312cfa53402b0f_{size}.jpg",
                    "description": "一万本大学生 | Programmer at large | 特别擅长玩坏 BGP | 个人网站 https://swineson.me | 有事请发邮件至 zhihu@public.swineson.me，知乎现在不怎么上，其他联系方式也可能疏于关照 | 本人已委托维权骑士（http://rightknights.com）为我的文章进行维权行动",
                    "gender": 1,
                    "headline": "已而！已而！",
                    "id": "72036ce918812daac46c75d7cac1e7d2",
                    "is_advertiser": false,
                    "is_followed": false,
                    "is_following": false,
                    "is_org": false,
                    "name": "James Swineson",
                    "type": "people",
                    "uid": "27898769571840",
                    "url": "/people/72036ce918812daac46c75d7cac1e7d2",
                    "url_token": "james-swineson",
                    "user_type": "people"
                },
                "can_manage": false,
                "comment_permission": "all",
                "created": 1394632777,
                "description": "",
                "followers": 2135,
                "id": "computers",
                "image_url": "https://pic2.zhimg.com/008a19032e74677b9dcc1946e520b63f_b.jpg",
                "intro": "",
                "is_following": false,
                "title": "About Computers",
                "type": "column",
                "updated": 1438759721,
                "url": "https://zhuanlan.zhihu.com/computers",
                "url_token": "computers"
            },
            "id": 412978,
            "state": "accepted",
            "type": "first_publish"
        }
    ],
    "created": 1471259185,
    "excerpt": "目前看来，自有域名带通配符的电子邮箱越来越有必要。它可以：在注册网络服务的时候使用不同的电子邮箱使不同平台的用户名变得不可预测，从而增大暴力破解的难度；可以简单地通过收件人字段创建过滤器，过滤广告 / 垃圾邮件；可以通过收到的广告邮件的收件…",
    "excerpt_title": "",
    "has_publishing_draft": false,
    "id": 22024974,
    "image_height": 1014,
    "image_url": "https://pic4.zhimg.com/5d49b75fbcfd69f40dcb19c3402c0ad0_r.jpg",
    "image_width": 1896,
    "is_favorited": false,
    "is_labeled": false,
    "is_normal": true,
    "is_title_image_full_screen": true,
    "reason": "",
    "share_text": "为什么你需要一万个电子邮箱地址 - 来自知乎专栏「About Computers」，作者: James Swineson https://zhuanlan.zhihu.com/p/22024974 （想看更多？下载 @知乎 App：http://weibo.com/p/100404711598 ）",
    "state": "published",
    "status": 0,
    "suggest_edit": {
        "reason": "",
        "status": false,
        "tip": "",
        "title": "",
        "url": ""
    },
    "tipjarors_count": 0,
    "title": "为什么你需要一万个电子邮箱地址",
    "title_image": "https://pic4.zhimg.com/5d49b75fbcfd69f40dcb19c3402c0ad0_r.jpg",
    "topics": [
        {
            "id": "19570205",
            "name": "电子邮件",
            "type": "topic",
            "url": "https://www.zhihu.com/api/v4/topics/19570205"
        }
    ],
    "type": "article",
    "updated": 1471259185,
    "upvoted_followees": [],
    "url": "https://zhuanlan.zhihu.com/p/22024974",
    "voteup_count": 47,
    "voting": 0
}