{
    "admin_closed_comment": false,
    "author": {
        "avatar_url": "https://pic3.zhimg.com/4ad478c148b4e9ccbe312cfa53402b0f_l.jpg",
        "avatar_url_template": "https://pic3.zhimg.com/4ad478c148b4e9ccbe312cfa53402b0f_{size}.jpg",
        "badge": [],
        "description": "一万本大学生 | Programmer at large | 特别擅长玩坏 BGP | 个人网站 https://swineson.me | 有事请发邮件至 zhihu@public.swineson.me，知乎现在不怎么上，其他联系方式也可能疏于关照 | 本人已委托维权骑士（http://rightknights.com）为我的文章进行维权行动",
        "gender": 1,
        "headline": "已而！已而！",
        "id": "72036ce918812daac46c75d7cac1e7d2",
        "is_advertiser": false,
        "is_followed": false,
        "is_following": false,
        "is_org": false,
        "name": "James Swineson",
        "type": "people",
        "uid": "27898769571840",
        "url": "/people/72036ce918812daac46c75d7cac1e7d2",
        "url_token": "james-swineson",
        "user_type": "people"
    },
    "can_comment": {
        "reason": "",
        "status": true
    },
    "comment_count": 5,
    "comment_permission": "all",
    "created": 1406973834,
    "excerpt": "专注于女性深夜乘车回家时的安全问题。两个人上车时以手机碰撞配对，车外的人拍照自动记录车牌，车内的人的实时位置会被车外的人在一段时间内可见，位置一段时间不再变化以后认为已下车自动停止位置分享，车内的人也可以手工取消位置分享。同时提供一键求救…",
    "excerpt_title": "",
    "id": 19815351,
    "image_url": "",
    "is_labeled": false,
    "state": "published",
    "title": "七夕特稿 [App]Ensure（一路平安）：送给深夜回家的女性朋友们",
    "title_image": "",
    "type": "article",
    "updated": 1406974912,
    "url": "https://zhuanlan.zhihu.com/p/19815351",
    "voteup_count": 16,
    "voting": 0
}