{
    "admin_closed_comment": false,
    "annotation_action": [],
    "author": {
        "avatar_url": "https://pic3.zhimg.com/4ad478c148b4e9ccbe312cfa53402b0f_l.jpg",
        "avatar_url_template": "https://pic3.zhimg.com/4ad478c148b4e9ccbe312cfa53402b0f_{size}.jpg",
        "badge": [],
        "description": "一万本大学生 | Programmer at large | 特别擅长玩坏 BGP | 个人网站 https://swineson.me | 有事请发邮件至 zhihu@public.swineson.me，知乎现在不怎么上，其他联系方式也可能疏于关照 | 本人已委托维权骑士（http://rightknights.com）为我的文章进行维权行动",
        "gender": 1,
        "headline": "已而！已而！",
        "id": "72036ce918812daac46c75d7cac1e7d2",
        "is_advertiser": false,
        "is_followed": false,
        "is_following": false,
        "is_org": false,
        "name": "James Swineson",
        "type": "people",
        "uid": "27898769571840",
        "url": "/people/72036ce918812daac46c75d7cac1e7d2",
        "url_token": "james-swineson",
        "user_type": "people"
    },
    "can_comment": {
        "reason": "",
        "status": true
    },
    "can_tip": false,
    "column": {
        "accept_submission": true,
        "articles_count": 48,
        "author": {
            "avatar_url": "https://pic3.zhimg.com/4ad478c148b4e9ccbe312cfa53402b0f_l.jpg",
            "avatar_url_template": "https://pic3.zhimg.com/4ad478c148b4e9ccbe312cfa53402b0f_{size}.jpg",
            "description": "一万本大学生 | Programmer at large | 特别擅长玩坏 BGP | 个人网站 https://swineson.me | 有事请发邮件至 zhihu@public.swineson.me，知乎现在不怎么上，其他联系方式也可能疏于关照 | 本人已委托维权骑士（http://rightknights.com）为我的文章进行维权行动",
            "gender": 1,
            "headline": "已而！已而！",
            "id": "72036ce918812daac46c75d7cac1e7d2",
            "is_advertiser": false,
            "is_followed": false,
            "is_following": false,
            "is_org": false,
            "name": "James Swineson",
            "type": "people",
            "uid": "27898769571840",
            "url": "/people/72036ce918812daac46c75d7cac1e7d2",
            "url_token": "james-swineson",
            "user_type": "people"
        },
        "can_manage": false,
        "comment_permission": "all",
        "created": 1376392789,
        "description": "Vaporware 的沉积之处。一个缺乏行动力的人的自白。程序猿锻炼能力做项目的选材宝地。创业者寻找想法的好地方。\n\n新来的同学请先看这篇说明：http://zhuanlan.zhihu.com/ideas/19566363\n\n欢迎访问我的博客：https://blog.swineson.me\n\nLicensed under CC by-nc-sa 4.0 International.",
        "followers": 2000,
        "id": "ideas",
        "image_url": "https://pic4.zhimg.com/cda86ea4b_b.jpg",
        "intro": "Vaporware 的沉积之处。一个缺乏行动力的…",
        "is_following": false,
        "title": "各种想法",
        "type": "column",
        "updated": 1454819429,
        "url": "https://zhuanlan.zhihu.com/ideas",
        "url_token": "ideas"
    },
    "comment_count": 31,
    "comment_permission": "all",
    "commercial_info": {
        "is_commercial": false,
        "plugin": {}
    },
    "content": "这个录音机只需要一个物理按钮。<p>平时它会默默保持待机状态，在按下按钮时保存当前时间之前 30 秒的录音到存储器上。</p><p>2013-11-02</p><p>Update：耗电的问题很好解决啊，区区几毫安，自己作为一个单接口的 USB Dock 运行就好了……</p>",
    "contributions": [
        {
            "column": {
                "accept_submission": true,
                "articles_count": 48,
                "author": {
                    "avatar_url": "https://pic3.zhimg.com/4ad478c148b4e9ccbe312cfa53402b0f_l.jpg",
                    "avatar_url_template": "https://pic3.zhimg.com/4ad478c148b4e9ccbe312cfa53402b0f_{size}.jpg",
                    "description": "一万本大学生 | Programmer at large | 特别擅长玩坏 BGP | 个人网站 https://swineson.me | 有事请发邮件至 zhihu@public.swineson.me，知乎现在不怎么上，其他联系方式也可能疏于关照 | 本人已委托维权骑士（http://rightknights.com）为我的文章进行维权行动",
                    "gender": 1,
                    "headline": "已而！已而！",
                    "id": "72036ce918812daac46c75d7cac1e7d2",
                    "is_advertiser": false,
                    "is_followed": false,
                    "is_following": false,
                    "is_org": false,
                    "name": "James Swineson",
                    "type": "people",
                    "uid": "27898769571840",
                    "url": "/people/72036ce918812daac46c75d7cac1e7d2",
                    "url_token": "james-swineson",
                    "user_type": "people"
                },
                "can_manage": false,
                "comment_permission": "all",
                "created": 1376392789,
                "description": "Vaporware 的沉积之处。一个缺乏行动力的人的自白。程序猿锻炼能力做项目的选材宝地。创业者寻找想法的好地方。\n\n新来的同学请先看这篇说明：http://zhuanlan.zhihu.com/ideas/19566363\n\n欢迎访问我的博客：https://blog.swineson.me\n\nLicensed under CC by-nc-sa 4.0 International.",
                "followers": 2000,
                "id": "ideas",
                "image_url": "https://pic4.zhimg.com/cda86ea4b_b.jpg",
                "intro": "Vaporware 的沉积之处。一个缺乏行动力的…",
                "is_following": false,
                "title": "各种想法",
                "type": "column",
                "updated": 1454819429,
                "url": "https://zhuanlan.zhihu.com/ideas",
                "url_token": "ideas"
            },
            "id": 247596,
            "state": "accepted",
            "type": "first_publish"
        }
    ],
    "created": 1403932775,
    "excerpt": "这个录音机只需要一个物理按钮。平时它会默默保持待机状态，在按下按钮时保存当前时间之前 30 秒的录音到存储器上。2013-11-02Update：耗电的问题很好解决啊，区区几毫安，自己作为一个单接口的 USB Dock 运行就好了……",
    "excerpt_title": "",
    "has_publishing_draft": false,
    "id": 19789022,
    "image_height": 0,
    "image_url": "",
    "image_width": 0,
    "is_favorited": false,
    "is_labeled": false,
    "is_normal": true,
    "is_title_image_full_screen": false,
    "reason": "",
    "share_text": "[Hardware]Reverse：一个录音机的设计 - 来自知乎专栏「各种想法」，作者: James Swineson https://zhuanlan.zhihu.com/p/19789022 （想看更多？下载 @知乎 App：http://weibo.com/p/100404711598 ）",
    "state": "published",
    "status": 0,
    "suggest_edit": {
        "reason": "",
        "status": false,
        "tip": "",
        "title": "",
        "url": ""
    },
    "tipjarors_count": 0,
    "title": "[Hardware]Reverse：一个录音机的设计",
    "title_image": "",
    "topics": [],
    "type": "article",
    "updated": 1403957562,
    "upvoted_followees": [],
    "url": "https://zhuanlan.zhihu.com/p/19789022",
    "voteup_count": 12,
    "voting": 0
}