{
    "admin_closed_comment": false,
    "author": {
        "avatar_url": "https://pic1.zhimg.com/v2-77acb5043344a66c89735d8fc03bcd66_l.jpg",
        "avatar_url_template": "https://pic1.zhimg.com/v2-77acb5043344a66c89735d8fc03bcd66_{size}.jpg",
        "badge": [],
        "description": "SWE &amp; SRE | AS43126 Ops",
        "gender": 1,
        "headline": "Please mind the gap",
        "id": "8e4d0fedc48068f5fb69da994751d27a",
        "is_advertiser": false,
        "is_followed": false,
        "is_following": false,
        "is_org": false,
        "name": "imbushuo",
        "type": "people",
        "uid": "31857294966784",
        "url": "/people/8e4d0fedc48068f5fb69da994751d27a",
        "url_token": "imbushuo",
        "user_type": "people"
    },
    "can_comment": {
        "reason": "",
        "status": true
    },
    "comment_count": 5,
    "comment_permission": "all",
    "created": 1522577832,
    "excerpt": "<img src=\"https://pic4.zhimg.com/v2-eac9ee3e81553d51b10c1859ebad8603_200x112.jpg\" data-caption=\"\" data-size=\"normal\" data-rawwidth=\"3024\" data-rawheight=\"4032\" data-watermark=\"watermark\" data-original-src=\"v2-eac9ee3e81553d51b10c1859ebad8603\" data-watermark-src=\"v2-bb24fd07dfff341dd0a4893209b49377\" data-private-watermark-src=\"\" class=\"origin_image inline-img zh-lightbox-thumb\" data-original=\"https://pic4.zhimg.com/v2-eac9ee3e81553d51b10c1859ebad8603_r.jpg\">我也不知道是不是真的（写了一遍也确实理解了叛大说的 950XL 的渲染 upscale 上去的是咋回事了（。",
    "excerpt_title": "",
    "id": 35185005,
    "image_url": "https://pic2.zhimg.com/v2-d2d19023f80936f2393749c155caff1e_b.jpg",
    "is_labeled": false,
    "state": "published",
    "title": "愚人节快乐",
    "title_image": "https://pic2.zhimg.com/v2-d2d19023f80936f2393749c155caff1e_b.jpg",
    "type": "article",
    "updated": 1522577900,
    "url": "https://zhuanlan.zhihu.com/p/35185005",
    "voteup_count": 11,
    "voting": 0
}