{
    "admin_closed_comment": false,
    "author": {
        "avatar_url": "https://pic3.zhimg.com/4ad478c148b4e9ccbe312cfa53402b0f_l.jpg",
        "avatar_url_template": "https://pic3.zhimg.com/4ad478c148b4e9ccbe312cfa53402b0f_{size}.jpg",
        "badge": [],
        "description": "一万本大学生 | Programmer at large | 特别擅长玩坏 BGP | 个人网站 https://swineson.me | 有事请发邮件至 zhihu@public.swineson.me，知乎现在不怎么上，其他联系方式也可能疏于关照 | 本人已委托维权骑士（http://rightknights.com）为我的文章进行维权行动",
        "gender": 1,
        "headline": "已而！已而！",
        "id": "72036ce918812daac46c75d7cac1e7d2",
        "is_advertiser": false,
        "is_followed": false,
        "is_following": false,
        "is_org": false,
        "name": "James Swineson",
        "type": "people",
        "uid": "27898769571840",
        "url": "/people/72036ce918812daac46c75d7cac1e7d2",
        "url_token": "james-swineson",
        "user_type": "people"
    },
    "can_comment": {
        "reason": "",
        "status": true
    },
    "comment_count": 10,
    "comment_permission": "all",
    "created": 1393128400,
    "excerpt": "我曾经认识一个很美丽的女子。温文尔雅，娴静大方，严谨治学，孜孜不倦。只是旧时相识，现在已无联系。近来机缘巧合，见到她在一个课间收作业，数个同学拖拖拉拉，眼看时间已经不多，她将怀中一叠作业本重重地向课桌上一砸，双眉紧蹙，怒目圆睁，十分不耐烦…",
    "excerpt_title": "",
    "id": 19685847,
    "image_url": "https://pic1.zhimg.com/202b4af7182c8810b4a60f3e4cd77142_b.jpg",
    "is_labeled": false,
    "state": "published",
    "title": "不尊重时间",
    "title_image": "https://pic1.zhimg.com/202b4af7182c8810b4a60f3e4cd77142_b.jpg",
    "type": "article",
    "updated": 1393128400,
    "url": "https://zhuanlan.zhihu.com/p/19685847",
    "voteup_count": 37,
    "voting": 0
}