{
    "admin_closed_comment": false,
    "annotation_action": [],
    "author": {
        "avatar_url": "https://pic3.zhimg.com/4ad478c148b4e9ccbe312cfa53402b0f_l.jpg",
        "avatar_url_template": "https://pic3.zhimg.com/4ad478c148b4e9ccbe312cfa53402b0f_{size}.jpg",
        "badge": [],
        "description": "一万本大学生 | Programmer at large | 特别擅长玩坏 BGP | 个人网站 https://swineson.me | 有事请发邮件至 zhihu@public.swineson.me，知乎现在不怎么上，其他联系方式也可能疏于关照 | 本人已委托维权骑士（http://rightknights.com）为我的文章进行维权行动",
        "gender": 1,
        "headline": "已而！已而！",
        "id": "72036ce918812daac46c75d7cac1e7d2",
        "is_advertiser": false,
        "is_followed": false,
        "is_following": false,
        "is_org": false,
        "name": "James Swineson",
        "type": "people",
        "uid": "27898769571840",
        "url": "/people/72036ce918812daac46c75d7cac1e7d2",
        "url_token": "james-swineson",
        "user_type": "people"
    },
    "can_comment": {
        "reason": "",
        "status": true
    },
    "can_tip": false,
    "column": {
        "accept_submission": true,
        "articles_count": 65,
        "author": {
            "avatar_url": "https://pic3.zhimg.com/4ad478c148b4e9ccbe312cfa53402b0f_l.jpg",
            "avatar_url_template": "https://pic3.zhimg.com/4ad478c148b4e9ccbe312cfa53402b0f_{size}.jpg",
            "description": "一万本大学生 | Programmer at large | 特别擅长玩坏 BGP | 个人网站 https://swineson.me | 有事请发邮件至 zhihu@public.swineson.me，知乎现在不怎么上，其他联系方式也可能疏于关照 | 本人已委托维权骑士（http://rightknights.com）为我的文章进行维权行动",
            "gender": 1,
            "headline": "已而！已而！",
            "id": "72036ce918812daac46c75d7cac1e7d2",
            "is_advertiser": false,
            "is_followed": false,
            "is_following": false,
            "is_org": false,
            "name": "James Swineson",
            "type": "people",
            "uid": "27898769571840",
            "url": "/people/72036ce918812daac46c75d7cac1e7d2",
            "url_token": "james-swineson",
            "user_type": "people"
        },
        "can_manage": false,
        "comment_permission": "all",
        "created": 1394632777,
        "description": "",
        "followers": 2135,
        "id": "computers",
        "image_url": "https://pic2.zhimg.com/008a19032e74677b9dcc1946e520b63f_b.jpg",
        "intro": "",
        "is_following": false,
        "title": "About Computers",
        "type": "column",
        "updated": 1438759721,
        "url": "https://zhuanlan.zhihu.com/computers",
        "url_token": "computers"
    },
    "comment_count": 1,
    "comment_permission": "all",
    "commercial_info": {
        "is_commercial": false,
        "plugin": {}
    },
    "content": "如图所示，注意右下角<figure><noscript><img src=\"https://pic2.zhimg.com/a0e2c188ce60c0eb77c7f8f856dce72d_b.jpg\" data-rawwidth=\"640\" data-rawheight=\"1136\" class=\"origin_image zh-lightbox-thumb\" width=\"640\" data-original=\"https://pic2.zhimg.com/a0e2c188ce60c0eb77c7f8f856dce72d_r.jpg\"></noscript><img src=\"data:image/svg+xml;utf8,&lt;svg%20xmlns='http://www.w3.org/2000/svg'%20width='640'%20height='1136'&gt;&lt;/svg&gt;\" data-rawwidth=\"640\" data-rawheight=\"1136\" class=\"origin_image zh-lightbox-thumb lazy\" width=\"640\" data-original=\"https://pic2.zhimg.com/a0e2c188ce60c0eb77c7f8f856dce72d_r.jpg\" data-actualsrc=\"https://pic2.zhimg.com/a0e2c188ce60c0eb77c7f8f856dce72d_b.jpg\"></figure>",
    "contributions": [
        {
            "column": {
                "accept_submission": true,
                "articles_count": 65,
                "author": {
                    "avatar_url": "https://pic3.zhimg.com/4ad478c148b4e9ccbe312cfa53402b0f_l.jpg",
                    "avatar_url_template": "https://pic3.zhimg.com/4ad478c148b4e9ccbe312cfa53402b0f_{size}.jpg",
                    "description": "一万本大学生 | Programmer at large | 特别擅长玩坏 BGP | 个人网站 https://swineson.me | 有事请发邮件至 zhihu@public.swineson.me，知乎现在不怎么上，其他联系方式也可能疏于关照 | 本人已委托维权骑士（http://rightknights.com）为我的文章进行维权行动",
                    "gender": 1,
                    "headline": "已而！已而！",
                    "id": "72036ce918812daac46c75d7cac1e7d2",
                    "is_advertiser": false,
                    "is_followed": false,
                    "is_following": false,
                    "is_org": false,
                    "name": "James Swineson",
                    "type": "people",
                    "uid": "27898769571840",
                    "url": "/people/72036ce918812daac46c75d7cac1e7d2",
                    "url_token": "james-swineson",
                    "user_type": "people"
                },
                "can_manage": false,
                "comment_permission": "all",
                "created": 1394632777,
                "description": "",
                "followers": 2135,
                "id": "computers",
                "image_url": "https://pic2.zhimg.com/008a19032e74677b9dcc1946e520b63f_b.jpg",
                "intro": "",
                "is_following": false,
                "title": "About Computers",
                "type": "column",
                "updated": 1438759721,
                "url": "https://zhuanlan.zhihu.com/computers",
                "url_token": "computers"
            },
            "id": 261704,
            "state": "accepted",
            "type": "first_publish"
        }
    ],
    "created": 1422712165,
    "excerpt": "<img src=\"https://pic2.zhimg.com/a0e2c188ce60c0eb77c7f8f856dce72d_200x112.jpg\" data-rawwidth=\"640\" data-rawheight=\"1136\" class=\"origin_image inline-img zh-lightbox-thumb\" data-original=\"https://pic2.zhimg.com/a0e2c188ce60c0eb77c7f8f856dce72d_r.jpg\">如图所示，注意右下角",
    "excerpt_title": "",
    "has_publishing_draft": false,
    "id": 19946752,
    "image_height": 0,
    "image_url": "",
    "image_width": 0,
    "is_favorited": false,
    "is_labeled": false,
    "is_normal": true,
    "is_title_image_full_screen": false,
    "reason": "",
    "share_text": "腾讯在 QQ for iOS 上使用了 Material Design（误） - 来自知乎专栏「About Computers」，作者: James Swineson https://zhuanlan.zhihu.com/p/19946752 （想看更多？下载 @知乎 App：http://weibo.com/p/100404711598 ）",
    "state": "published",
    "status": 0,
    "suggest_edit": {
        "reason": "",
        "status": false,
        "tip": "",
        "title": "",
        "url": ""
    },
    "tipjarors_count": 0,
    "title": "腾讯在 QQ for iOS 上使用了 Material Design（误）",
    "title_image": "",
    "topics": [],
    "type": "article",
    "updated": 1433251324,
    "upvoted_followees": [],
    "url": "https://zhuanlan.zhihu.com/p/19946752",
    "voteup_count": 4,
    "voting": 0
}