{
    "admin_closed_comment": false,
    "author": {
        "avatar_url": "https://pic3.zhimg.com/4ad478c148b4e9ccbe312cfa53402b0f_l.jpg",
        "avatar_url_template": "https://pic3.zhimg.com/4ad478c148b4e9ccbe312cfa53402b0f_{size}.jpg",
        "badge": [],
        "description": "一万本大学生 | Programmer at large | 特别擅长玩坏 BGP | 个人网站 https://swineson.me | 有事请发邮件至 zhihu@public.swineson.me，知乎现在不怎么上，其他联系方式也可能疏于关照 | 本人已委托维权骑士（http://rightknights.com）为我的文章进行维权行动",
        "gender": 1,
        "headline": "已而！已而！",
        "id": "72036ce918812daac46c75d7cac1e7d2",
        "is_advertiser": false,
        "is_followed": false,
        "is_following": false,
        "is_org": false,
        "name": "James Swineson",
        "type": "people",
        "uid": "27898769571840",
        "url": "/people/72036ce918812daac46c75d7cac1e7d2",
        "url_token": "james-swineson",
        "user_type": "people"
    },
    "can_comment": {
        "reason": "",
        "status": true
    },
    "comment_count": 6,
    "comment_permission": "all",
    "created": 1444609690,
    "excerpt": "（前几代）iPad 最大的成就，在于它成为了 Tablet Computer（平板电脑）的一个性能和功能上的 Stereotype（思维定势）。于是，人们看到与 iPad 长相和便携性类似的设备，均会对其性能和使用方式做一个类似 iPad 的估计。不管你说多少次 “The tablet that c…",
    "excerpt_title": "",
    "id": 20265157,
    "image_url": "https://pic4.zhimg.com/94cf6ef6fabd9ca0127b3bce0a7e9820_b.jpg",
    "is_labeled": false,
    "state": "published",
    "title": "写在第四代田牌笔记本发布之际",
    "title_image": "https://pic4.zhimg.com/94cf6ef6fabd9ca0127b3bce0a7e9820_b.jpg",
    "type": "article",
    "updated": 1444609850,
    "url": "https://zhuanlan.zhihu.com/p/20265157",
    "voteup_count": 10,
    "voting": 0
}