{
    "admin_closed_comment": false,
    "annotation_action": [],
    "author": {
        "avatar_url": "https://pic3.zhimg.com/4ad478c148b4e9ccbe312cfa53402b0f_l.jpg",
        "avatar_url_template": "https://pic3.zhimg.com/4ad478c148b4e9ccbe312cfa53402b0f_{size}.jpg",
        "badge": [],
        "description": "一万本大学生 | Programmer at large | 特别擅长玩坏 BGP | 个人网站 https://swineson.me | 有事请发邮件至 zhihu@public.swineson.me，知乎现在不怎么上，其他联系方式也可能疏于关照 | 本人已委托维权骑士（http://rightknights.com）为我的文章进行维权行动",
        "gender": 1,
        "headline": "已而！已而！",
        "id": "72036ce918812daac46c75d7cac1e7d2",
        "is_advertiser": false,
        "is_followed": false,
        "is_following": false,
        "is_org": false,
        "name": "James Swineson",
        "type": "people",
        "uid": "27898769571840",
        "url": "/people/72036ce918812daac46c75d7cac1e7d2",
        "url_token": "james-swineson",
        "user_type": "people"
    },
    "can_comment": {
        "reason": "",
        "status": true
    },
    "can_tip": true,
    "column": {
        "accept_submission": true,
        "articles_count": 47,
        "author": {
            "avatar_url": "https://pic3.zhimg.com/4ad478c148b4e9ccbe312cfa53402b0f_l.jpg",
            "avatar_url_template": "https://pic3.zhimg.com/4ad478c148b4e9ccbe312cfa53402b0f_{size}.jpg",
            "description": "一万本大学生 | Programmer at large | 特别擅长玩坏 BGP | 个人网站 https://swineson.me | 有事请发邮件至 zhihu@public.swineson.me，知乎现在不怎么上，其他联系方式也可能疏于关照 | 本人已委托维权骑士（http://rightknights.com）为我的文章进行维权行动",
            "gender": 1,
            "headline": "已而！已而！",
            "id": "72036ce918812daac46c75d7cac1e7d2",
            "is_advertiser": false,
            "is_followed": false,
            "is_following": false,
            "is_org": false,
            "name": "James Swineson",
            "type": "people",
            "uid": "27898769571840",
            "url": "/people/72036ce918812daac46c75d7cac1e7d2",
            "url_token": "james-swineson",
            "user_type": "people"
        },
        "can_manage": false,
        "comment_permission": "all",
        "created": 1391767170,
        "description": "请不要相信我在这里说的任何一句话。包括这句话和上面一句。\n\n有任何问题请发邮件到：jamesswineson+from-mynonsense@gmail.com",
        "followers": 1351,
        "id": "MyNonsense",
        "image_url": "https://pic1.zhimg.com/31aa55d6f_b.jpg",
        "intro": "请不要相信我在这里说的任何一句话。包括这句话和上…",
        "is_following": false,
        "title": "胡说八道",
        "type": "column",
        "updated": 1492411829,
        "url": "https://zhuanlan.zhihu.com/MyNonsense",
        "url_token": "MyNonsense"
    },
    "comment_count": 1,
    "comment_permission": "all",
    "commercial_info": {
        "is_commercial": false,
        "plugin": {}
    },
    "content": "<p>有一块鱼塘，本来是一群人闲暇时间扔根竿子钓鱼聊天的地方。有一天围栏被拆掉了，于是路人来了。有些人背了电池，一捅下去就翻上来一片白肚皮；有些人在草地上吃了火锅，就把鱼骨头和塑料袋扔在地上；有些人开着船撒了大网，连鱼苗都捞走。</p><p>所有人都开心。只有只想扔根竿子聊聊天度过一个下午的人，最不开心。</p><p>最近知乎上多了许多广告，硬的软的都有。<a class=\"member_mention\" href=\"http://www.zhihu.com/people/a9f2227dcbe14b6bd40dd94405a76743\" data-hash=\"a9f2227dcbe14b6bd40dd94405a76743\" data-hovercard=\"p$b$a9f2227dcbe14b6bd40dd94405a76743\">@探探</a> <a class=\"member_mention\" href=\"http://www.zhihu.com/people/67f3713f5c75c031a8021b79788ea303\" data-hash=\"67f3713f5c75c031a8021b79788ea303\" data-hovercard=\"p$b$67f3713f5c75c031a8021b79788ea303\">@脉脉</a> 这种能做出把用户手机通讯录中联系人实名信息上传到服务器，然后给非注册用户批量发送带有虚假信息的广告短信这种下三滥营销手段的公司，成了认证机构号，大言不惭地打着广告。我以前很喜欢的一些用户，渐渐地渐渐地回答起一些他们根本不了解的领域的问题，推荐一些大家耳熟能详的产品。</p><p>知乎。发现更大的世界。</p><p>我从 2012 年来到知乎，直接获得的收入只有这么多：</p><ul><li>知乎付费咨询（值乎）收入 16.72 元</li><li>维权骑士稿费收入 170.70 元</li></ul><p>再没了。比起即使和我回答数量和关注数量相当的各位，可能也算是少的吧。</p><p>我并非不现实地觉得知乎应该成为一个高“逼格”的社区；反而是知乎的管理员长期以来给我一种他们在尽力维护的感觉。</p><blockquote>今天，知乎团队是不是放弃对高质量内容的追求了？不是。我（也许自以为是地）想，这个答案是显而易见的。<br>我们每天在微博上坚持发高质量的内容，而不是一味迎合搞笑、哗众取宠；我们每周精心地准备知乎每周精选的邮件，让没来得及看到好内容的知友持续建立对这里的认知；我们每天认真地挑选优质回答放入发现，这些内容还会进入几十万用户的手机；我们不断地改进算法，让机器可以更好地学会识别每天社区里产生的好答案，并且通过知乎阅读和知乎 iPhone 客户端，让更多用户可以看到；我们不厌其烦地去给每一个值得赞同的回答点下赞同，去评论里鼓励优秀的回答者，去改进问题，让它们变得更好，对更多人有用，我们厚着脸皮，耐心地向每个无法理解知乎规则的新用户去解释，试图让他们理解怎样可以更好地使用知乎，怎样可以更好地从这里获益。并且，我们鼓励社区更多知友一起来做这些事情。<br>如果知乎团队放弃了对高质量内容的追求，那么我们不可能坚持每天做上面所说的这些事情。即使周源继新申申能坚持，团队成员也不可能坚持。我们不可能说服同学们去做一件我们自己都不相信的事情。<br>因此，请相信，在看到垃圾问题、低质答案和恶劣评论时，没有人会比知乎团队更着急。因为，我们看到的数量，远远超过任何一位知友。[2]</blockquote><p>或许是我就不应该有这样的期待吧。</p><hr><p>近日看到一篇回答很有意思：</p><blockquote>我想就好像有一种高端妓女，她们只能暗地里被部分大款高价包养，但在外面的身份是不出价卖的“正经人”。她们之所以能卖高价钱，除了活儿好之外，还必须得有“正经人”这么个包装。<br>所以，知乎大V们被38号指责充值，就是要摔人家饭碗，知乎大V们肯定不干啊。[1]</blockquote><p>我一直觉得，我必须自己做得端正，才有脸去指责别人。或许，为了这个能脸不红心不跳骂人的权力，我付出了太多东西，而至今也却没有骂过几个人。</p><p>实在是有点亏啊！（笑）</p><p>在知乎五年，我觉得最骄傲的事是，从来没有关闭或者筛选过评论，从来没有删除过评论，没有拉黑过任何一个人超过二十四小时。其实总共就拉黑过一个人，一个 miboy，拉黑了一会儿以不再看到他的回复，消消气。</p><p>不关闭评论，是因为我觉得发出声音是人的基本权利。谁不会犯点错？我有时候只是想指出一个笔误，看着答案禁止评论，就觉得无比糟心。</p><p>不拉黑人，是时刻提醒自己，世界上还有许多和我不一样的人存在，而他们或许才是大多数。我不喜欢像鸵鸟一样把头埋到沙子里，沙尘暴每天都在迎面吹来，我不会假装看不见。（也不会偷偷地想念。）</p><p>我一直认真对待我的赞同票，以“我能判断的正确”及“高质量或者在特定语境中有幽默感”为标准。我知道我这一票改变不了茫茫大众对于事业和爱情的热切追求；我只希望关注我的人的时间线不会因为我而变得更加乱糟糟。</p><p>我尽力了。</p><hr><p><a href=\"https://www.zhihu.com/people/fenng\" class=\"internal\">Fenng</a> 老师以前批评我说：“去没人的地方讨论倒是有自由，有影响力吗？”</p><p>我想，虽然影响力本身不是件坏事，但是我追求的不是影响力。我是个怂逼，不想负责任，别把超过我控制能力的权力交给我。</p><p>标题说“deselect”，意思是，知乎可以作为一种选项了。</p><p>说离开是很无意义的。互联网上的痕迹是不会消失的，所以也从来没有人真正离开。</p><p>也没有人真正属于哪里。</p><p>我累了。</p><p>俱往矣，吾将曳尾于涂中。</p><hr><p>题图来自：<a href=\"http://link.zhihu.com/?target=https%3A//www.facebook.com/theoatmeal/photos/a.10150413121115078.628758.220779885077/10159581727300078/\" class=\" external\" target=\"_blank\" rel=\"nofollow noreferrer\"><span class=\"invisible\">https://www.</span><span class=\"visible\">facebook.com/theoatmeal</span><span class=\"invisible\">/photos/a.10150413121115078.628758.220779885077/10159581727300078/</span><span class=\"ellipsis\"></span></a><br>关于题图的讨论参见：<a href=\"http://link.zhihu.com/?target=https%3A//twitter.com/Oatmeal/status/923250055540219904/\" class=\" external\" target=\"_blank\" rel=\"nofollow noreferrer\"><span class=\"invisible\">https://</span><span class=\"visible\">twitter.com/Oatmeal/sta</span><span class=\"invisible\">tus/923250055540219904/</span><span class=\"ellipsis\"></span></a></p><p>[1]：<a href=\"https://www.zhihu.com/question/66742447/answer/246385091\" class=\"internal\">匿名用户：如何看待38对宝沃BX5的评测？</a><br>[2]：<a href=\"https://www.zhihu.com/question/20378647/answer/14952657\" class=\"internal\">黄继新：蘇椰爲什麽宣佈離開知乎？</a></p>",
    "contributions": [
        {
            "column": {
                "accept_submission": true,
                "articles_count": 47,
                "author": {
                    "avatar_url": "https://pic3.zhimg.com/4ad478c148b4e9ccbe312cfa53402b0f_l.jpg",
                    "avatar_url_template": "https://pic3.zhimg.com/4ad478c148b4e9ccbe312cfa53402b0f_{size}.jpg",
                    "description": "一万本大学生 | Programmer at large | 特别擅长玩坏 BGP | 个人网站 https://swineson.me | 有事请发邮件至 zhihu@public.swineson.me，知乎现在不怎么上，其他联系方式也可能疏于关照 | 本人已委托维权骑士（http://rightknights.com）为我的文章进行维权行动",
                    "gender": 1,
                    "headline": "已而！已而！",
                    "id": "72036ce918812daac46c75d7cac1e7d2",
                    "is_advertiser": false,
                    "is_followed": false,
                    "is_following": false,
                    "is_org": false,
                    "name": "James Swineson",
                    "type": "people",
                    "uid": "27898769571840",
                    "url": "/people/72036ce918812daac46c75d7cac1e7d2",
                    "url_token": "james-swineson",
                    "user_type": "people"
                },
                "can_manage": false,
                "comment_permission": "all",
                "created": 1391767170,
                "description": "请不要相信我在这里说的任何一句话。包括这句话和上面一句。\n\n有任何问题请发邮件到：jamesswineson+from-mynonsense@gmail.com",
                "followers": 1351,
                "id": "MyNonsense",
                "image_url": "https://pic1.zhimg.com/31aa55d6f_b.jpg",
                "intro": "请不要相信我在这里说的任何一句话。包括这句话和上…",
                "is_following": false,
                "title": "胡说八道",
                "type": "column",
                "updated": 1492411829,
                "url": "https://zhuanlan.zhihu.com/MyNonsense",
                "url_token": "MyNonsense"
            },
            "id": 974047,
            "state": "accepted",
            "type": "first_publish"
        }
    ],
    "created": 1512809097,
    "excerpt": "有一块鱼塘，本来是一群人闲暇时间扔根竿子钓鱼聊天的地方。有一天围栏被拆掉了，于是路人来了。有些人背了电池，一捅下去就翻上来一片白肚皮；有些人在草地上吃了火锅，就把鱼骨头和塑料袋扔在地上；有些人开着船撒了大网，连鱼苗都捞走。所有人都开心。只…",
    "excerpt_title": "",
    "has_publishing_draft": false,
    "id": 31845509,
    "image_height": 960,
    "image_url": "https://pic4.zhimg.com/v2-4e5192493d51988957a1ea865f0a19c6_b.jpg",
    "image_width": 960,
    "is_favorited": false,
    "is_labeled": false,
    "is_normal": true,
    "is_title_image_full_screen": false,
    "reason": "",
    "share_text": "It's (not too) late to deselect Zhihu. - 来自知乎专栏「胡说八道」，作者: James Swineson https://zhuanlan.zhihu.com/p/31845509 （想看更多？下载 @知乎 App：http://weibo.com/p/100404711598 ）",
    "state": "published",
    "status": 0,
    "suggest_edit": {
        "reason": "",
        "status": false,
        "tip": "",
        "title": "",
        "url": ""
    },
    "tipjarors_count": 0,
    "title": "It's (not too) late to deselect Zhihu.",
    "title_image": "https://pic4.zhimg.com/v2-4e5192493d51988957a1ea865f0a19c6_b.jpg",
    "topics": [
        {
            "id": "19550887",
            "name": "知乎社区",
            "type": "topic",
            "url": "https://www.zhihu.com/api/v4/topics/19550887"
        }
    ],
    "type": "article",
    "updated": 1512809136,
    "upvoted_followees": [],
    "url": "https://zhuanlan.zhihu.com/p/31845509",
    "voteup_count": 17,
    "voting": 0
}