{
    "admin_closed_comment": false,
    "author": {
        "avatar_url": "https://pic3.zhimg.com/4ad478c148b4e9ccbe312cfa53402b0f_l.jpg",
        "avatar_url_template": "https://pic3.zhimg.com/4ad478c148b4e9ccbe312cfa53402b0f_{size}.jpg",
        "badge": [],
        "description": "一万本大学生 | Programmer at large | 特别擅长玩坏 BGP | 个人网站 https://swineson.me | 有事请发邮件至 zhihu@public.swineson.me，知乎现在不怎么上，其他联系方式也可能疏于关照 | 本人已委托维权骑士（http://rightknights.com）为我的文章进行维权行动",
        "gender": 1,
        "headline": "已而！已而！",
        "id": "72036ce918812daac46c75d7cac1e7d2",
        "is_advertiser": false,
        "is_followed": false,
        "is_following": false,
        "is_org": false,
        "name": "James Swineson",
        "type": "people",
        "uid": "27898769571840",
        "url": "/people/72036ce918812daac46c75d7cac1e7d2",
        "url_token": "james-swineson",
        "user_type": "people"
    },
    "can_comment": {
        "reason": "",
        "status": true
    },
    "comment_count": 1,
    "comment_permission": "all",
    "created": 1406032130,
    "excerpt": "线下的向公众开放的实验室。对大众提供两种服务。自助实验 提前申请实验材料，付费后按预约时间前往实验室完成实验，可选专人指导代做实验 由专人完成实验，然后上传视频和实验数据，数据完全公开也可以针对团体提供实验场地、器材和实验指导。2013-09-19",
    "excerpt_title": "",
    "id": 19807001,
    "image_url": "",
    "is_labeled": false,
    "state": "published",
    "title": "[Service]Labs for Everyone：公共实验室",
    "title_image": "",
    "type": "article",
    "updated": 1406032621,
    "url": "https://zhuanlan.zhihu.com/p/19807001",
    "voteup_count": 4,
    "voting": 0
}