{
    "admin_closed_comment": false,
    "annotation_action": [],
    "author": {
        "avatar_url": "https://pic3.zhimg.com/4ad478c148b4e9ccbe312cfa53402b0f_l.jpg",
        "avatar_url_template": "https://pic3.zhimg.com/4ad478c148b4e9ccbe312cfa53402b0f_{size}.jpg",
        "badge": [],
        "description": "一万本大学生 | Programmer at large | 特别擅长玩坏 BGP | 个人网站 https://swineson.me | 有事请发邮件至 zhihu@public.swineson.me，知乎现在不怎么上，其他联系方式也可能疏于关照 | 本人已委托维权骑士（http://rightknights.com）为我的文章进行维权行动",
        "gender": 1,
        "headline": "已而！已而！",
        "id": "72036ce918812daac46c75d7cac1e7d2",
        "is_advertiser": false,
        "is_followed": false,
        "is_following": false,
        "is_org": false,
        "name": "James Swineson",
        "type": "people",
        "uid": "27898769571840",
        "url": "/people/72036ce918812daac46c75d7cac1e7d2",
        "url_token": "james-swineson",
        "user_type": "people"
    },
    "can_comment": {
        "reason": "",
        "status": true
    },
    "can_tip": false,
    "column": {
        "accept_submission": true,
        "articles_count": 48,
        "author": {
            "avatar_url": "https://pic3.zhimg.com/4ad478c148b4e9ccbe312cfa53402b0f_l.jpg",
            "avatar_url_template": "https://pic3.zhimg.com/4ad478c148b4e9ccbe312cfa53402b0f_{size}.jpg",
            "description": "一万本大学生 | Programmer at large | 特别擅长玩坏 BGP | 个人网站 https://swineson.me | 有事请发邮件至 zhihu@public.swineson.me，知乎现在不怎么上，其他联系方式也可能疏于关照 | 本人已委托维权骑士（http://rightknights.com）为我的文章进行维权行动",
            "gender": 1,
            "headline": "已而！已而！",
            "id": "72036ce918812daac46c75d7cac1e7d2",
            "is_advertiser": false,
            "is_followed": false,
            "is_following": false,
            "is_org": false,
            "name": "James Swineson",
            "type": "people",
            "uid": "27898769571840",
            "url": "/people/72036ce918812daac46c75d7cac1e7d2",
            "url_token": "james-swineson",
            "user_type": "people"
        },
        "can_manage": false,
        "comment_permission": "all",
        "created": 1376392789,
        "description": "Vaporware 的沉积之处。一个缺乏行动力的人的自白。程序猿锻炼能力做项目的选材宝地。创业者寻找想法的好地方。\n\n新来的同学请先看这篇说明：http://zhuanlan.zhihu.com/ideas/19566363\n\n欢迎访问我的博客：https://blog.swineson.me\n\nLicensed under CC by-nc-sa 4.0 International.",
        "followers": 2000,
        "id": "ideas",
        "image_url": "https://pic4.zhimg.com/cda86ea4b_b.jpg",
        "intro": "Vaporware 的沉积之处。一个缺乏行动力的…",
        "is_following": false,
        "title": "各种想法",
        "type": "column",
        "updated": 1454819429,
        "url": "https://zhuanlan.zhihu.com/ideas",
        "url_token": "ideas"
    },
    "comment_count": 6,
    "comment_permission": "all",
    "commercial_info": {
        "is_commercial": false,
        "plugin": {}
    },
    "content": "LCS: A version control system for love.<p>谈一次恋爱，就像写一个软件。新建一个 Repository，那是你和她存放爱情的仓库。邀请她成为第二个 Contributer。一段感情就这样开始。</p><p>今天有什么新进展？是一起去吃饭，还是一起去逛街？第一次牵手，拥抱，抑或是接吻？在列表里面选择一项，或者自己创建一项，然后点击 Commit。在 Commit Message 里面写下你的想法，就当是日记或者流水账吧，要能添加图片。</p><p>有个大事件，就可以分出一个 Branch 了哦。比如说一起出去旅游几天，暂时离开日常的繁忙公务，也暂时离开 Master。回到家，赶紧把生活 Merge 回去。</p><p>两个人在一起，总会闹点小别扭。没关系，有 Bug Tracker。给对方发一张 0 级的 Ticket，看你改不改。哼~我等着你 Apply Patch 哦！</p><p>再接下来，要考虑组建家庭了吧。邀请你们的父母，Bug Tracker 为他们开放，有意见及时提出。</p><p>喜欢秀恩爱的话呢，Wiki 是你们的好去处。大胆点，把你们的经历分享给全世界。喜欢静悄悄的呢，两个人一起研究 Revision Graph，一起回忆过去的经历，也是一件很好玩的事情呢。</p><p>嗯，就是这样。</p>",
    "contributions": [
        {
            "column": {
                "accept_submission": true,
                "articles_count": 48,
                "author": {
                    "avatar_url": "https://pic3.zhimg.com/4ad478c148b4e9ccbe312cfa53402b0f_l.jpg",
                    "avatar_url_template": "https://pic3.zhimg.com/4ad478c148b4e9ccbe312cfa53402b0f_{size}.jpg",
                    "description": "一万本大学生 | Programmer at large | 特别擅长玩坏 BGP | 个人网站 https://swineson.me | 有事请发邮件至 zhihu@public.swineson.me，知乎现在不怎么上，其他联系方式也可能疏于关照 | 本人已委托维权骑士（http://rightknights.com）为我的文章进行维权行动",
                    "gender": 1,
                    "headline": "已而！已而！",
                    "id": "72036ce918812daac46c75d7cac1e7d2",
                    "is_advertiser": false,
                    "is_followed": false,
                    "is_following": false,
                    "is_org": false,
                    "name": "James Swineson",
                    "type": "people",
                    "uid": "27898769571840",
                    "url": "/people/72036ce918812daac46c75d7cac1e7d2",
                    "url_token": "james-swineson",
                    "user_type": "people"
                },
                "can_manage": false,
                "comment_permission": "all",
                "created": 1376392789,
                "description": "Vaporware 的沉积之处。一个缺乏行动力的人的自白。程序猿锻炼能力做项目的选材宝地。创业者寻找想法的好地方。\n\n新来的同学请先看这篇说明：http://zhuanlan.zhihu.com/ideas/19566363\n\n欢迎访问我的博客：https://blog.swineson.me\n\nLicensed under CC by-nc-sa 4.0 International.",
                "followers": 2000,
                "id": "ideas",
                "image_url": "https://pic4.zhimg.com/cda86ea4b_b.jpg",
                "intro": "Vaporware 的沉积之处。一个缺乏行动力的…",
                "is_following": false,
                "title": "各种想法",
                "type": "column",
                "updated": 1454819429,
                "url": "https://zhuanlan.zhihu.com/ideas",
                "url_token": "ideas"
            },
            "id": 233238,
            "state": "accepted",
            "type": "first_publish"
        }
    ],
    "created": 1382800825,
    "excerpt": "LCS: A version control system for love.谈一次恋爱，就像写一个软件。新建一个 Repository，那是你和她存放爱情的仓库。邀请她成为第二个 Contributer。一段感情就这样开始。今天有什么新进展？是一起去吃饭，还是一起去逛街？第一次牵手，拥抱，抑或是接…",
    "excerpt_title": "",
    "has_publishing_draft": false,
    "id": 19601876,
    "image_height": 0,
    "image_url": "",
    "image_width": 0,
    "is_favorited": false,
    "is_labeled": false,
    "is_normal": true,
    "is_title_image_full_screen": false,
    "reason": "",
    "share_text": "[App]Love Control System - 来自知乎专栏「各种想法」，作者: James Swineson https://zhuanlan.zhihu.com/p/19601876 （想看更多？下载 @知乎 App：http://weibo.com/p/100404711598 ）",
    "state": "published",
    "status": 0,
    "suggest_edit": {
        "reason": "",
        "status": false,
        "tip": "",
        "title": "",
        "url": ""
    },
    "tipjarors_count": 0,
    "title": "[App]Love Control System",
    "title_image": "",
    "topics": [],
    "type": "article",
    "updated": 1382800825,
    "upvoted_followees": [],
    "url": "https://zhuanlan.zhihu.com/p/19601876",
    "voteup_count": 11,
    "voting": 0
}