{
    "admin_closed_comment": false,
    "author": {
        "avatar_url": "https://pic3.zhimg.com/4ad478c148b4e9ccbe312cfa53402b0f_l.jpg",
        "avatar_url_template": "https://pic3.zhimg.com/4ad478c148b4e9ccbe312cfa53402b0f_{size}.jpg",
        "badge": [],
        "description": "一万本大学生 | Programmer at large | 特别擅长玩坏 BGP | 个人网站 https://swineson.me | 有事请发邮件至 zhihu@public.swineson.me，知乎现在不怎么上，其他联系方式也可能疏于关照 | 本人已委托维权骑士（http://rightknights.com）为我的文章进行维权行动",
        "gender": 1,
        "headline": "已而！已而！",
        "id": "72036ce918812daac46c75d7cac1e7d2",
        "is_advertiser": false,
        "is_followed": false,
        "is_following": false,
        "is_org": false,
        "name": "James Swineson",
        "type": "people",
        "uid": "27898769571840",
        "url": "/people/72036ce918812daac46c75d7cac1e7d2",
        "url_token": "james-swineson",
        "user_type": "people"
    },
    "can_comment": {
        "reason": "",
        "status": true
    },
    "comment_count": 2,
    "comment_permission": "all",
    "created": 1376399892,
    "excerpt": "想用隔音好的耳机听音乐？没问题。想两个人一起听？找个一两块钱的分线器就解决了。但是两个人想在听音乐的时候交流，恐怕就难了。这个 Two 可传声分线器就可以解决这个问题。设计可以很简单，一个小盒子（做成心形的话是不是很有爱呢？），下面一个孔用作 …",
    "excerpt_title": "",
    "id": 19566523,
    "image_url": "",
    "is_labeled": false,
    "state": "published",
    "title": "[硬件]七夕特刊：Two 可以传声的耳机分线器",
    "title_image": "",
    "type": "article",
    "updated": 1376470654,
    "url": "https://zhuanlan.zhihu.com/p/19566523",
    "voteup_count": 4,
    "voting": 0
}