{
    "admin_closed_comment": false,
    "annotation_action": [],
    "author": {
        "avatar_url": "https://pic3.zhimg.com/4ad478c148b4e9ccbe312cfa53402b0f_l.jpg",
        "avatar_url_template": "https://pic3.zhimg.com/4ad478c148b4e9ccbe312cfa53402b0f_{size}.jpg",
        "badge": [],
        "description": "一万本大学生 | Programmer at large | 特别擅长玩坏 BGP | 个人网站 https://swineson.me | 有事请发邮件至 zhihu@public.swineson.me，知乎现在不怎么上，其他联系方式也可能疏于关照 | 本人已委托维权骑士（http://rightknights.com）为我的文章进行维权行动",
        "gender": 1,
        "headline": "已而！已而！",
        "id": "72036ce918812daac46c75d7cac1e7d2",
        "is_advertiser": false,
        "is_followed": false,
        "is_following": false,
        "is_org": false,
        "name": "James Swineson",
        "type": "people",
        "uid": "27898769571840",
        "url": "/people/72036ce918812daac46c75d7cac1e7d2",
        "url_token": "james-swineson",
        "user_type": "people"
    },
    "can_comment": {
        "reason": "",
        "status": true
    },
    "can_tip": false,
    "column": {
        "accept_submission": true,
        "articles_count": 48,
        "author": {
            "avatar_url": "https://pic3.zhimg.com/4ad478c148b4e9ccbe312cfa53402b0f_l.jpg",
            "avatar_url_template": "https://pic3.zhimg.com/4ad478c148b4e9ccbe312cfa53402b0f_{size}.jpg",
            "description": "一万本大学生 | Programmer at large | 特别擅长玩坏 BGP | 个人网站 https://swineson.me | 有事请发邮件至 zhihu@public.swineson.me，知乎现在不怎么上，其他联系方式也可能疏于关照 | 本人已委托维权骑士（http://rightknights.com）为我的文章进行维权行动",
            "gender": 1,
            "headline": "已而！已而！",
            "id": "72036ce918812daac46c75d7cac1e7d2",
            "is_advertiser": false,
            "is_followed": false,
            "is_following": false,
            "is_org": false,
            "name": "James Swineson",
            "type": "people",
            "uid": "27898769571840",
            "url": "/people/72036ce918812daac46c75d7cac1e7d2",
            "url_token": "james-swineson",
            "user_type": "people"
        },
        "can_manage": false,
        "comment_permission": "all",
        "created": 1376392789,
        "description": "Vaporware 的沉积之处。一个缺乏行动力的人的自白。程序猿锻炼能力做项目的选材宝地。创业者寻找想法的好地方。\n\n新来的同学请先看这篇说明：http://zhuanlan.zhihu.com/ideas/19566363\n\n欢迎访问我的博客：https://blog.swineson.me\n\nLicensed under CC by-nc-sa 4.0 International.",
        "followers": 2000,
        "id": "ideas",
        "image_url": "https://pic4.zhimg.com/cda86ea4b_b.jpg",
        "intro": "Vaporware 的沉积之处。一个缺乏行动力的…",
        "is_following": false,
        "title": "各种想法",
        "type": "column",
        "updated": 1454819429,
        "url": "https://zhuanlan.zhihu.com/ideas",
        "url_token": "ideas"
    },
    "comment_count": 2,
    "comment_permission": "all",
    "commercial_info": {
        "is_commercial": false,
        "plugin": {}
    },
    "content": "<p>想用隔音好的耳机听音乐？没问题。想两个人一起听？找个一两块钱的分线器就解决了。但是两个人想在听音乐的时候交流，恐怕就难了。这个 Two 可传声分线器就可以解决这个问题。</p><p>设计可以很简单，一个小盒子（做成心形的话是不是很有爱呢？），下面一个孔用作 3.5mm 音频输入，上面左右两个孔是 3.5mm 同轴四芯耳机接口，再加一个开关，用纽扣电池（CR2016 之类的高端大气上档次的电池）驱动。</p><p>使用的时候打开开关，分线器会接收两个耳机上的麦克风传来的声音，声音超过阈值以后，分线器就会把麦克风传来的声音混合到另一方的输入里面。这种感觉是不是很奇妙呢？</p><p>我一定会买一个的……如果我这辈子还能找到妹子的话。</p>",
    "contributions": [
        {
            "column": {
                "accept_submission": true,
                "articles_count": 48,
                "author": {
                    "avatar_url": "https://pic3.zhimg.com/4ad478c148b4e9ccbe312cfa53402b0f_l.jpg",
                    "avatar_url_template": "https://pic3.zhimg.com/4ad478c148b4e9ccbe312cfa53402b0f_{size}.jpg",
                    "description": "一万本大学生 | Programmer at large | 特别擅长玩坏 BGP | 个人网站 https://swineson.me | 有事请发邮件至 zhihu@public.swineson.me，知乎现在不怎么上，其他联系方式也可能疏于关照 | 本人已委托维权骑士（http://rightknights.com）为我的文章进行维权行动",
                    "gender": 1,
                    "headline": "已而！已而！",
                    "id": "72036ce918812daac46c75d7cac1e7d2",
                    "is_advertiser": false,
                    "is_followed": false,
                    "is_following": false,
                    "is_org": false,
                    "name": "James Swineson",
                    "type": "people",
                    "uid": "27898769571840",
                    "url": "/people/72036ce918812daac46c75d7cac1e7d2",
                    "url_token": "james-swineson",
                    "user_type": "people"
                },
                "can_manage": false,
                "comment_permission": "all",
                "created": 1376392789,
                "description": "Vaporware 的沉积之处。一个缺乏行动力的人的自白。程序猿锻炼能力做项目的选材宝地。创业者寻找想法的好地方。\n\n新来的同学请先看这篇说明：http://zhuanlan.zhihu.com/ideas/19566363\n\n欢迎访问我的博客：https://blog.swineson.me\n\nLicensed under CC by-nc-sa 4.0 International.",
                "followers": 2000,
                "id": "ideas",
                "image_url": "https://pic4.zhimg.com/cda86ea4b_b.jpg",
                "intro": "Vaporware 的沉积之处。一个缺乏行动力的…",
                "is_following": false,
                "title": "各种想法",
                "type": "column",
                "updated": 1454819429,
                "url": "https://zhuanlan.zhihu.com/ideas",
                "url_token": "ideas"
            },
            "id": 230288,
            "state": "accepted",
            "type": "first_publish"
        }
    ],
    "created": 1376399892,
    "excerpt": "想用隔音好的耳机听音乐？没问题。想两个人一起听？找个一两块钱的分线器就解决了。但是两个人想在听音乐的时候交流，恐怕就难了。这个 Two 可传声分线器就可以解决这个问题。设计可以很简单，一个小盒子（做成心形的话是不是很有爱呢？），下面一个孔用作 …",
    "excerpt_title": "",
    "has_publishing_draft": false,
    "id": 19566523,
    "image_height": 0,
    "image_url": "",
    "image_width": 0,
    "is_favorited": false,
    "is_labeled": false,
    "is_normal": true,
    "is_title_image_full_screen": false,
    "reason": "",
    "share_text": "[硬件]七夕特刊：Two 可以传声的耳机分线器 - 来自知乎专栏「各种想法」，作者: James Swineson https://zhuanlan.zhihu.com/p/19566523 （想看更多？下载 @知乎 App：http://weibo.com/p/100404711598 ）",
    "state": "published",
    "status": 0,
    "suggest_edit": {
        "reason": "",
        "status": false,
        "tip": "",
        "title": "",
        "url": ""
    },
    "tipjarors_count": 0,
    "title": "[硬件]七夕特刊：Two 可以传声的耳机分线器",
    "title_image": "",
    "topics": [],
    "type": "article",
    "updated": 1376470654,
    "upvoted_followees": [],
    "url": "https://zhuanlan.zhihu.com/p/19566523",
    "voteup_count": 4,
    "voting": 0
}