{
    "admin_closed_comment": false,
    "author": {
        "avatar_url": "https://pic3.zhimg.com/4ad478c148b4e9ccbe312cfa53402b0f_l.jpg",
        "avatar_url_template": "https://pic3.zhimg.com/4ad478c148b4e9ccbe312cfa53402b0f_{size}.jpg",
        "badge": [],
        "description": "一万本大学生 | Programmer at large | 特别擅长玩坏 BGP | 个人网站 https://swineson.me | 有事请发邮件至 zhihu@public.swineson.me，知乎现在不怎么上，其他联系方式也可能疏于关照 | 本人已委托维权骑士（http://rightknights.com）为我的文章进行维权行动",
        "gender": 1,
        "headline": "已而！已而！",
        "id": "72036ce918812daac46c75d7cac1e7d2",
        "is_advertiser": false,
        "is_followed": false,
        "is_following": false,
        "is_org": false,
        "name": "James Swineson",
        "type": "people",
        "uid": "27898769571840",
        "url": "/people/72036ce918812daac46c75d7cac1e7d2",
        "url_token": "james-swineson",
        "user_type": "people"
    },
    "can_comment": {
        "reason": "",
        "status": true
    },
    "comment_count": 13,
    "comment_permission": "all",
    "created": 1377826485,
    "excerpt": "众所周知，Windows（以及其它部分桌面操作系统）都存在一个巨大的问题：没有统一的软件发布、更新平台。如果要知道哪些软件有更新，要么使用软件自身（如果有也是不那么好用的）自动更新功能，要么使用第三方软件管理器（目前来看最好的还是 360 软件管家，…",
    "excerpt_title": "",
    "id": 19576293,
    "image_url": "",
    "is_labeled": false,
    "state": "published",
    "title": "[标准]OpenDownload：软件下载/更新信息标准化工程",
    "title_image": "",
    "type": "article",
    "updated": 1377826485,
    "url": "https://zhuanlan.zhihu.com/p/19576293",
    "voteup_count": 6,
    "voting": 0
}