{
    "admin_closed_comment": false,
    "annotation_action": [],
    "author": {
        "avatar_url": "https://pic3.zhimg.com/4ad478c148b4e9ccbe312cfa53402b0f_l.jpg",
        "avatar_url_template": "https://pic3.zhimg.com/4ad478c148b4e9ccbe312cfa53402b0f_{size}.jpg",
        "badge": [],
        "description": "一万本大学生 | Programmer at large | 特别擅长玩坏 BGP | 个人网站 https://swineson.me | 有事请发邮件至 zhihu@public.swineson.me，知乎现在不怎么上，其他联系方式也可能疏于关照 | 本人已委托维权骑士（http://rightknights.com）为我的文章进行维权行动",
        "gender": 1,
        "headline": "已而！已而！",
        "id": "72036ce918812daac46c75d7cac1e7d2",
        "is_advertiser": false,
        "is_followed": false,
        "is_following": false,
        "is_org": false,
        "name": "James Swineson",
        "type": "people",
        "uid": "27898769571840",
        "url": "/people/72036ce918812daac46c75d7cac1e7d2",
        "url_token": "james-swineson",
        "user_type": "people"
    },
    "can_comment": {
        "reason": "",
        "status": true
    },
    "can_tip": false,
    "column": {
        "accept_submission": true,
        "articles_count": 65,
        "author": {
            "avatar_url": "https://pic3.zhimg.com/4ad478c148b4e9ccbe312cfa53402b0f_l.jpg",
            "avatar_url_template": "https://pic3.zhimg.com/4ad478c148b4e9ccbe312cfa53402b0f_{size}.jpg",
            "description": "一万本大学生 | Programmer at large | 特别擅长玩坏 BGP | 个人网站 https://swineson.me | 有事请发邮件至 zhihu@public.swineson.me，知乎现在不怎么上，其他联系方式也可能疏于关照 | 本人已委托维权骑士（http://rightknights.com）为我的文章进行维权行动",
            "gender": 1,
            "headline": "已而！已而！",
            "id": "72036ce918812daac46c75d7cac1e7d2",
            "is_advertiser": false,
            "is_followed": false,
            "is_following": false,
            "is_org": false,
            "name": "James Swineson",
            "type": "people",
            "uid": "27898769571840",
            "url": "/people/72036ce918812daac46c75d7cac1e7d2",
            "url_token": "james-swineson",
            "user_type": "people"
        },
        "can_manage": false,
        "comment_permission": "all",
        "created": 1394632777,
        "description": "",
        "followers": 2135,
        "id": "computers",
        "image_url": "https://pic2.zhimg.com/008a19032e74677b9dcc1946e520b63f_b.jpg",
        "intro": "",
        "is_following": false,
        "title": "About Computers",
        "type": "column",
        "updated": 1438759721,
        "url": "https://zhuanlan.zhihu.com/computers",
        "url_token": "computers"
    },
    "comment_count": 19,
    "comment_permission": "all",
    "commercial_info": {
        "is_commercial": false,
        "plugin": {}
    },
    "content": "<p>文中所述是我的推荐设置。某些选项可能不适用于你的实际环境，请按需修改。演示环境：Windows 8.1，500GB 的机械硬盘，另外挂载了 20GB 的 VHD 用于部分项目的演示。</p><h2>硬盘分区：针对单一硬盘</h2><p>我推荐的方法是在安装系统之前删除所有分区（OEM 的系统恢复分区除外），然后用所有未分配的空间创建一个分区。这个过程中系统会自动建立必要的一些小分区，分区情况视系统版本而不同。Windows 8.1（UEFI 引导）默认分区情况如下：</p><figure><noscript><img src=\"https://pic3.zhimg.com/3fedd306260a4e0f429cfcf628988bfa_b.jpg\" data-rawwidth=\"1366\" data-rawheight=\"736\" class=\"origin_image zh-lightbox-thumb\" width=\"1366\" data-original=\"https://pic3.zhimg.com/3fedd306260a4e0f429cfcf628988bfa_r.jpg\"></noscript><img src=\"data:image/svg+xml;utf8,&lt;svg%20xmlns='http://www.w3.org/2000/svg'%20width='1366'%20height='736'&gt;&lt;/svg&gt;\" data-rawwidth=\"1366\" data-rawheight=\"736\" class=\"origin_image zh-lightbox-thumb lazy\" width=\"1366\" data-original=\"https://pic3.zhimg.com/3fedd306260a4e0f429cfcf628988bfa_r.jpg\" data-actualsrc=\"https://pic3.zhimg.com/3fedd306260a4e0f429cfcf628988bfa_b.jpg\"></figure><p>然后“这台电脑”里面就无比干净了。<figure><noscript><img src=\"https://pic1.zhimg.com/d2d5ad1ecbea8f7b173de2b01b1d6aec_b.jpg\" data-rawwidth=\"853\" data-rawheight=\"600\" class=\"origin_image zh-lightbox-thumb\" width=\"853\" data-original=\"https://pic1.zhimg.com/d2d5ad1ecbea8f7b173de2b01b1d6aec_r.jpg\"></noscript><img src=\"data:image/svg+xml;utf8,&lt;svg%20xmlns='http://www.w3.org/2000/svg'%20width='853'%20height='600'&gt;&lt;/svg&gt;\" data-rawwidth=\"853\" data-rawheight=\"600\" class=\"origin_image zh-lightbox-thumb lazy\" width=\"853\" data-original=\"https://pic1.zhimg.com/d2d5ad1ecbea8f7b173de2b01b1d6aec_r.jpg\" data-actualsrc=\"https://pic1.zhimg.com/d2d5ad1ecbea8f7b173de2b01b1d6aec_b.jpg\"></figure></p><h2>最基础的保护措施：打开系统还原</h2><p>装完系统第一件事：进入控制面板，点击“系统和安全”-“系统”-“系统保护”（在左边栏），“保护设置”下点击系统盘，“配置”-“启用系统保护”，确定，回到上一个界面点击“创建”，建立第一个还原点。<figure><noscript><img src=\"https://pic1.zhimg.com/e5f5e07fc1b02f29ae51df9b99719810_b.jpg\" data-rawwidth=\"1113\" data-rawheight=\"671\" class=\"origin_image zh-lightbox-thumb\" width=\"1113\" data-original=\"https://pic1.zhimg.com/e5f5e07fc1b02f29ae51df9b99719810_r.jpg\"></noscript><img src=\"data:image/svg+xml;utf8,&lt;svg%20xmlns='http://www.w3.org/2000/svg'%20width='1113'%20height='671'&gt;&lt;/svg&gt;\" data-rawwidth=\"1113\" data-rawheight=\"671\" class=\"origin_image zh-lightbox-thumb lazy\" width=\"1113\" data-original=\"https://pic1.zhimg.com/e5f5e07fc1b02f29ae51df9b99719810_r.jpg\" data-actualsrc=\"https://pic1.zhimg.com/e5f5e07fc1b02f29ae51df9b99719810_b.jpg\"></figure></p><p>然后安装好所有硬件驱动，重启，确认没有问题以后，再创建第二个还原点。以后每次安装大型软件或者修改系统关键设置之前，记得创建一次还原点。</p><p>一旦系统出现问题，在选择操作系统界面进入系统还原，基本上都能救回来。如果已经没法引导，用 Windows 光盘启动，然后选择”修复计算机“。</p><h2>个人文件备份设置：适用于多硬盘（没有多硬盘至少要有两个分区）和有网络驱动器的情况</h2><p>方法 1（适用于外置硬盘）：插入新外置硬盘的时候，点击弹出的通知，然后选择”配置此驱动器进行备份“。<figure><noscript><img src=\"https://pic2.zhimg.com/00377f197fc01ea3cdde72e4c78413bd_b.jpg\" data-rawwidth=\"388\" data-rawheight=\"92\" class=\"content_image\" width=\"388\"></noscript><img src=\"data:image/svg+xml;utf8,&lt;svg%20xmlns='http://www.w3.org/2000/svg'%20width='388'%20height='92'&gt;&lt;/svg&gt;\" data-rawwidth=\"388\" data-rawheight=\"92\" class=\"content_image lazy\" width=\"388\" data-actualsrc=\"https://pic2.zhimg.com/00377f197fc01ea3cdde72e4c78413bd_b.jpg\"></figure><figure><noscript><img src=\"https://pic1.zhimg.com/a2e2187c712191b263325b8f4ad71998_b.jpg\" data-rawwidth=\"390\" data-rawheight=\"361\" class=\"content_image\" width=\"390\"></noscript><img src=\"data:image/svg+xml;utf8,&lt;svg%20xmlns='http://www.w3.org/2000/svg'%20width='390'%20height='361'&gt;&lt;/svg&gt;\" data-rawwidth=\"390\" data-rawheight=\"361\" class=\"content_image lazy\" width=\"390\" data-actualsrc=\"https://pic1.zhimg.com/a2e2187c712191b263325b8f4ad71998_b.jpg\"></figure></p><p>方法 2（适用于此电脑上的任何硬盘）：进入控制面板-”系统和安全“-”文件历史记录“，然后选择保存位置，点击”启用“即可。</p><figure><noscript><img src=\"https://pic1.zhimg.com/173b64508b462897f32daaf28823e4d0_b.jpg\" data-rawwidth=\"853\" data-rawheight=\"600\" class=\"origin_image zh-lightbox-thumb\" width=\"853\" data-original=\"https://pic1.zhimg.com/173b64508b462897f32daaf28823e4d0_r.jpg\"></noscript><img src=\"data:image/svg+xml;utf8,&lt;svg%20xmlns='http://www.w3.org/2000/svg'%20width='853'%20height='600'&gt;&lt;/svg&gt;\" data-rawwidth=\"853\" data-rawheight=\"600\" class=\"origin_image zh-lightbox-thumb lazy\" width=\"853\" data-original=\"https://pic1.zhimg.com/173b64508b462897f32daaf28823e4d0_r.jpg\" data-actualsrc=\"https://pic1.zhimg.com/173b64508b462897f32daaf28823e4d0_b.jpg\"></figure><p>方法 3（适用于网络驱动器，如 NAS、网络上的共享驱动器和通过路由器 USB 端口共享的驱动器等）：进入控制面板-”系统和安全“-”文件历史记录“，点击左侧边栏中的”选择驱动器“，再点击”显示所有网络位置“。如果”显示所有网络位置“不可用，点击”添加网络位置“，选择你想保存备份文件到的位置。下图显示了有一个网络驱动器的情况。</p><figure><noscript><img src=\"https://pic4.zhimg.com/46e4d7cd10d5b8c00a9745f1bfd2c3b3_b.jpg\" data-rawwidth=\"853\" data-rawheight=\"600\" class=\"origin_image zh-lightbox-thumb\" width=\"853\" data-original=\"https://pic4.zhimg.com/46e4d7cd10d5b8c00a9745f1bfd2c3b3_r.jpg\"></noscript><img src=\"data:image/svg+xml;utf8,&lt;svg%20xmlns='http://www.w3.org/2000/svg'%20width='853'%20height='600'&gt;&lt;/svg&gt;\" data-rawwidth=\"853\" data-rawheight=\"600\" class=\"origin_image zh-lightbox-thumb lazy\" width=\"853\" data-original=\"https://pic4.zhimg.com/46e4d7cd10d5b8c00a9745f1bfd2c3b3_r.jpg\" data-actualsrc=\"https://pic4.zhimg.com/46e4d7cd10d5b8c00a9745f1bfd2c3b3_b.jpg\"></figure><p><b>如何还原文件</b></p><p>方法 1：进入控制面板-”系统和安全“-”文件历史记录“，点击左侧边栏的”还原个人文件“，这里可以看见所有文件备份记录。</p><p>方法 2：选择特定文件，在资源管理器的 Ribbon 工具栏中找到”主页“选项卡-”打开“-”历史记录“。（对于较早版本的 Windows，请在该文件上单击右键-“属性”，打开“文件历史记录”选项卡。）</p><figure><noscript><img src=\"https://pic1.zhimg.com/e2f5fdf6d2db7825f517e4dd04b9e94c_b.jpg\" data-rawwidth=\"837\" data-rawheight=\"166\" class=\"origin_image zh-lightbox-thumb\" width=\"837\" data-original=\"https://pic1.zhimg.com/e2f5fdf6d2db7825f517e4dd04b9e94c_r.jpg\"></noscript><img src=\"data:image/svg+xml;utf8,&lt;svg%20xmlns='http://www.w3.org/2000/svg'%20width='837'%20height='166'&gt;&lt;/svg&gt;\" data-rawwidth=\"837\" data-rawheight=\"166\" class=\"origin_image zh-lightbox-thumb lazy\" width=\"837\" data-original=\"https://pic1.zhimg.com/e2f5fdf6d2db7825f517e4dd04b9e94c_r.jpg\" data-actualsrc=\"https://pic1.zhimg.com/e2f5fdf6d2db7825f517e4dd04b9e94c_b.jpg\"></figure><h2>完整地备份系统或者整个硬盘</h2><p>这个功能会完整地备份所有数据，包括系统盘和可选的其它分区。</p><p>在控制面板-”系统和安全“-”文件历史记录“界面，点击左边侧栏下方的”系统映像备份“，然后按照向导操作。<figure><noscript><img src=\"https://pic4.zhimg.com/45849e928f732b60984500e80621565b_b.jpg\" data-rawwidth=\"642\" data-rawheight=\"651\" class=\"origin_image zh-lightbox-thumb\" width=\"642\" data-original=\"https://pic4.zhimg.com/45849e928f732b60984500e80621565b_r.jpg\"></noscript><img src=\"data:image/svg+xml;utf8,&lt;svg%20xmlns='http://www.w3.org/2000/svg'%20width='642'%20height='651'&gt;&lt;/svg&gt;\" data-rawwidth=\"642\" data-rawheight=\"651\" class=\"origin_image zh-lightbox-thumb lazy\" width=\"642\" data-original=\"https://pic4.zhimg.com/45849e928f732b60984500e80621565b_r.jpg\" data-actualsrc=\"https://pic4.zhimg.com/45849e928f732b60984500e80621565b_b.jpg\"></figure></p><figure><noscript><img src=\"https://pic3.zhimg.com/b51d7fefd6f5b78940ddd5a8248add66_b.jpg\" data-rawwidth=\"642\" data-rawheight=\"651\" class=\"origin_image zh-lightbox-thumb\" width=\"642\" data-original=\"https://pic3.zhimg.com/b51d7fefd6f5b78940ddd5a8248add66_r.jpg\"></noscript><img src=\"data:image/svg+xml;utf8,&lt;svg%20xmlns='http://www.w3.org/2000/svg'%20width='642'%20height='651'&gt;&lt;/svg&gt;\" data-rawwidth=\"642\" data-rawheight=\"651\" class=\"origin_image zh-lightbox-thumb lazy\" width=\"642\" data-original=\"https://pic3.zhimg.com/b51d7fefd6f5b78940ddd5a8248add66_r.jpg\" data-actualsrc=\"https://pic3.zhimg.com/b51d7fefd6f5b78940ddd5a8248add66_b.jpg\"></figure>",
    "contributions": [
        {
            "column": {
                "accept_submission": true,
                "articles_count": 65,
                "author": {
                    "avatar_url": "https://pic3.zhimg.com/4ad478c148b4e9ccbe312cfa53402b0f_l.jpg",
                    "avatar_url_template": "https://pic3.zhimg.com/4ad478c148b4e9ccbe312cfa53402b0f_{size}.jpg",
                    "description": "一万本大学生 | Programmer at large | 特别擅长玩坏 BGP | 个人网站 https://swineson.me | 有事请发邮件至 zhihu@public.swineson.me，知乎现在不怎么上，其他联系方式也可能疏于关照 | 本人已委托维权骑士（http://rightknights.com）为我的文章进行维权行动",
                    "gender": 1,
                    "headline": "已而！已而！",
                    "id": "72036ce918812daac46c75d7cac1e7d2",
                    "is_advertiser": false,
                    "is_followed": false,
                    "is_following": false,
                    "is_org": false,
                    "name": "James Swineson",
                    "type": "people",
                    "uid": "27898769571840",
                    "url": "/people/72036ce918812daac46c75d7cac1e7d2",
                    "url_token": "james-swineson",
                    "user_type": "people"
                },
                "can_manage": false,
                "comment_permission": "all",
                "created": 1394632777,
                "description": "",
                "followers": 2135,
                "id": "computers",
                "image_url": "https://pic2.zhimg.com/008a19032e74677b9dcc1946e520b63f_b.jpg",
                "intro": "",
                "is_following": false,
                "title": "About Computers",
                "type": "column",
                "updated": 1438759721,
                "url": "https://zhuanlan.zhihu.com/computers",
                "url_token": "computers"
            },
            "id": 240235,
            "state": "accepted",
            "type": "first_publish"
        }
    ],
    "created": 1394632788,
    "excerpt": "<img src=\"https://pic3.zhimg.com/3fedd306260a4e0f429cfcf628988bfa_200x112.jpg\" data-rawwidth=\"1366\" data-rawheight=\"736\" class=\"origin_image inline-img zh-lightbox-thumb\" data-original=\"https://pic3.zhimg.com/3fedd306260a4e0f429cfcf628988bfa_r.jpg\">文中所述是我的推荐设置。某些选项可能不适用于你的实际环境，请按需修改。演示环境：Windows 8.1，500GB 的机械硬盘，另外挂载了 20GB 的 VHD 用于部分项目的演示。硬盘分区：针对单一硬盘我推荐的方法是在安装系统之前删除所有分区（OEM 的系统恢复分区除…",
    "excerpt_title": "",
    "has_publishing_draft": false,
    "id": 19700261,
    "image_height": 0,
    "image_url": "",
    "image_width": 0,
    "is_favorited": false,
    "is_labeled": false,
    "is_normal": true,
    "is_title_image_full_screen": false,
    "reason": "",
    "share_text": "关于 Windows 的硬盘分区和备份设置 - 来自知乎专栏「About Computers」，作者: James Swineson https://zhuanlan.zhihu.com/p/19700261 （想看更多？下载 @知乎 App：http://weibo.com/p/100404711598 ）",
    "state": "published",
    "status": 0,
    "suggest_edit": {
        "reason": "",
        "status": false,
        "tip": "",
        "title": "",
        "url": ""
    },
    "tipjarors_count": 0,
    "title": "关于 Windows 的硬盘分区和备份设置",
    "title_image": "",
    "topics": [],
    "type": "article",
    "updated": 1394632789,
    "upvoted_followees": [],
    "url": "https://zhuanlan.zhihu.com/p/19700261",
    "voteup_count": 45,
    "voting": 0
}