{
    "admin_closed_comment": false,
    "annotation_action": [],
    "author": {
        "avatar_url": "https://pic3.zhimg.com/4ad478c148b4e9ccbe312cfa53402b0f_l.jpg",
        "avatar_url_template": "https://pic3.zhimg.com/4ad478c148b4e9ccbe312cfa53402b0f_{size}.jpg",
        "badge": [],
        "description": "一万本大学生 | Programmer at large | 特别擅长玩坏 BGP | 个人网站 https://swineson.me | 有事请发邮件至 zhihu@public.swineson.me，知乎现在不怎么上，其他联系方式也可能疏于关照 | 本人已委托维权骑士（http://rightknights.com）为我的文章进行维权行动",
        "gender": 1,
        "headline": "已而！已而！",
        "id": "72036ce918812daac46c75d7cac1e7d2",
        "is_advertiser": false,
        "is_followed": false,
        "is_following": false,
        "is_org": false,
        "name": "James Swineson",
        "type": "people",
        "uid": "27898769571840",
        "url": "/people/72036ce918812daac46c75d7cac1e7d2",
        "url_token": "james-swineson",
        "user_type": "people"
    },
    "can_comment": {
        "reason": "",
        "status": true
    },
    "can_tip": false,
    "column": {
        "accept_submission": true,
        "articles_count": 48,
        "author": {
            "avatar_url": "https://pic3.zhimg.com/4ad478c148b4e9ccbe312cfa53402b0f_l.jpg",
            "avatar_url_template": "https://pic3.zhimg.com/4ad478c148b4e9ccbe312cfa53402b0f_{size}.jpg",
            "description": "一万本大学生 | Programmer at large | 特别擅长玩坏 BGP | 个人网站 https://swineson.me | 有事请发邮件至 zhihu@public.swineson.me，知乎现在不怎么上，其他联系方式也可能疏于关照 | 本人已委托维权骑士（http://rightknights.com）为我的文章进行维权行动",
            "gender": 1,
            "headline": "已而！已而！",
            "id": "72036ce918812daac46c75d7cac1e7d2",
            "is_advertiser": false,
            "is_followed": false,
            "is_following": false,
            "is_org": false,
            "name": "James Swineson",
            "type": "people",
            "uid": "27898769571840",
            "url": "/people/72036ce918812daac46c75d7cac1e7d2",
            "url_token": "james-swineson",
            "user_type": "people"
        },
        "can_manage": false,
        "comment_permission": "all",
        "created": 1376392789,
        "description": "Vaporware 的沉积之处。一个缺乏行动力的人的自白。程序猿锻炼能力做项目的选材宝地。创业者寻找想法的好地方。\n\n新来的同学请先看这篇说明：http://zhuanlan.zhihu.com/ideas/19566363\n\n欢迎访问我的博客：https://blog.swineson.me\n\nLicensed under CC by-nc-sa 4.0 International.",
        "followers": 2000,
        "id": "ideas",
        "image_url": "https://pic4.zhimg.com/cda86ea4b_b.jpg",
        "intro": "Vaporware 的沉积之处。一个缺乏行动力的…",
        "is_following": false,
        "title": "各种想法",
        "type": "column",
        "updated": 1454819429,
        "url": "https://zhuanlan.zhihu.com/ideas",
        "url_token": "ideas"
    },
    "comment_count": 11,
    "comment_permission": "all",
    "commercial_info": {
        "is_commercial": false,
        "plugin": {}
    },
    "content": "家里那台固定电话真的让我很难受，装在客厅里，没有空调，接个电话就满头大汗，而且有时候女同学打电话来的话爹娘在家又不方便说话（别说你懂的）。后来又有个女同学（女同学就是麻烦！）有个需求是来电自动接听并且无任何输出音频信号（模拟 ADSL 猫电源断开的情况）。所以我想了好久以后就想出这么个方案。<p>Mobile 电话主机要做得很小很小，做到和 U 盘一样长差不多，完全由电话线路供电。手机打开 NFC 功能或者蓝牙，安装特定 App 以后可以和电话主机配对，控制各种功能。有电话来的时候，如果手机在室内，App 弹出来电提示，选择接听的话通过蓝牙或者 Wi-Fi 传输语音数据。如果没有找到配对的手机，就保持响铃直到提示无人接听。</p><p>这样一来，固定电话既保留了固定（只能在一定区域内使用）的优点，又不失其便携性（打电话的时候可以走来走去），而且这个 App 可以改变一般固定电话设置难、用户体验不好的问题。（试想一下，多少人会使用电话机上面的 IP 设置之类的东西？）在上面添加个来电拦截、答录机等等功能，应该也不难吧。</p>",
    "contributions": [
        {
            "column": {
                "accept_submission": true,
                "articles_count": 48,
                "author": {
                    "avatar_url": "https://pic3.zhimg.com/4ad478c148b4e9ccbe312cfa53402b0f_l.jpg",
                    "avatar_url_template": "https://pic3.zhimg.com/4ad478c148b4e9ccbe312cfa53402b0f_{size}.jpg",
                    "description": "一万本大学生 | Programmer at large | 特别擅长玩坏 BGP | 个人网站 https://swineson.me | 有事请发邮件至 zhihu@public.swineson.me，知乎现在不怎么上，其他联系方式也可能疏于关照 | 本人已委托维权骑士（http://rightknights.com）为我的文章进行维权行动",
                    "gender": 1,
                    "headline": "已而！已而！",
                    "id": "72036ce918812daac46c75d7cac1e7d2",
                    "is_advertiser": false,
                    "is_followed": false,
                    "is_following": false,
                    "is_org": false,
                    "name": "James Swineson",
                    "type": "people",
                    "uid": "27898769571840",
                    "url": "/people/72036ce918812daac46c75d7cac1e7d2",
                    "url_token": "james-swineson",
                    "user_type": "people"
                },
                "can_manage": false,
                "comment_permission": "all",
                "created": 1376392789,
                "description": "Vaporware 的沉积之处。一个缺乏行动力的人的自白。程序猿锻炼能力做项目的选材宝地。创业者寻找想法的好地方。\n\n新来的同学请先看这篇说明：http://zhuanlan.zhihu.com/ideas/19566363\n\n欢迎访问我的博客：https://blog.swineson.me\n\nLicensed under CC by-nc-sa 4.0 International.",
                "followers": 2000,
                "id": "ideas",
                "image_url": "https://pic4.zhimg.com/cda86ea4b_b.jpg",
                "intro": "Vaporware 的沉积之处。一个缺乏行动力的…",
                "is_following": false,
                "title": "各种想法",
                "type": "column",
                "updated": 1454819429,
                "url": "https://zhuanlan.zhihu.com/ideas",
                "url_token": "ideas"
            },
            "id": 230810,
            "state": "accepted",
            "type": "first_publish"
        }
    ],
    "created": 1377176511,
    "excerpt": "家里那台固定电话真的让我很难受，装在客厅里，没有空调，接个电话就满头大汗，而且有时候女同学打电话来的话爹娘在家又不方便说话（别说你懂的）。后来又有个女同学（女同学就是麻烦！）有个需求是来电自动接听并且无任何输出音频信号（模拟 ADSL 猫电源断…",
    "excerpt_title": "",
    "has_publishing_draft": false,
    "id": 19572757,
    "image_height": 0,
    "image_url": "",
    "image_width": 0,
    "is_favorited": false,
    "is_labeled": false,
    "is_normal": true,
    "is_title_image_full_screen": false,
    "reason": "",
    "share_text": "[硬件][App]Mobile：让固定电话移动起来 - 来自知乎专栏「各种想法」，作者: James Swineson https://zhuanlan.zhihu.com/p/19572757 （想看更多？下载 @知乎 App：http://weibo.com/p/100404711598 ）",
    "state": "published",
    "status": 0,
    "suggest_edit": {
        "reason": "",
        "status": false,
        "tip": "",
        "title": "",
        "url": ""
    },
    "tipjarors_count": 0,
    "title": "[硬件][App]Mobile：让固定电话移动起来",
    "title_image": "",
    "topics": [],
    "type": "article",
    "updated": 1377176511,
    "upvoted_followees": [],
    "url": "https://zhuanlan.zhihu.com/p/19572757",
    "voteup_count": 3,
    "voting": 0
}