{
    "admin_closed_comment": false,
    "annotation_action": [],
    "author": {
        "avatar_url": "https://pic1.zhimg.com/v2-77acb5043344a66c89735d8fc03bcd66_l.jpg",
        "avatar_url_template": "https://pic1.zhimg.com/v2-77acb5043344a66c89735d8fc03bcd66_{size}.jpg",
        "badge": [],
        "description": "SWE &amp; SRE | AS43126 Ops",
        "gender": 1,
        "headline": "Please mind the gap",
        "id": "8e4d0fedc48068f5fb69da994751d27a",
        "is_advertiser": false,
        "is_followed": false,
        "is_following": false,
        "is_org": false,
        "name": "imbushuo",
        "type": "people",
        "uid": "31857294966784",
        "url": "/people/8e4d0fedc48068f5fb69da994751d27a",
        "url_token": "imbushuo",
        "user_type": "people"
    },
    "can_comment": {
        "reason": "",
        "status": true
    },
    "can_tip": true,
    "column": {
        "accept_submission": true,
        "articles_count": 65,
        "author": {
            "avatar_url": "https://pic3.zhimg.com/4ad478c148b4e9ccbe312cfa53402b0f_l.jpg",
            "avatar_url_template": "https://pic3.zhimg.com/4ad478c148b4e9ccbe312cfa53402b0f_{size}.jpg",
            "description": "一万本大学生 | Programmer at large | 特别擅长玩坏 BGP | 个人网站 https://swineson.me | 有事请发邮件至 zhihu@public.swineson.me，知乎现在不怎么上，其他联系方式也可能疏于关照 | 本人已委托维权骑士（http://rightknights.com）为我的文章进行维权行动",
            "gender": 1,
            "headline": "已而！已而！",
            "id": "72036ce918812daac46c75d7cac1e7d2",
            "is_advertiser": false,
            "is_followed": false,
            "is_following": false,
            "is_org": false,
            "name": "James Swineson",
            "type": "people",
            "uid": "27898769571840",
            "url": "/people/72036ce918812daac46c75d7cac1e7d2",
            "url_token": "james-swineson",
            "user_type": "people"
        },
        "can_manage": false,
        "comment_permission": "all",
        "created": 1394632777,
        "description": "",
        "followers": 2135,
        "id": "computers",
        "image_url": "https://pic2.zhimg.com/008a19032e74677b9dcc1946e520b63f_b.jpg",
        "intro": "",
        "is_following": false,
        "title": "About Computers",
        "type": "column",
        "updated": 1438759721,
        "url": "https://zhuanlan.zhihu.com/computers",
        "url_token": "computers"
    },
    "comment_count": 15,
    "comment_permission": "all",
    "commercial_info": {
        "is_commercial": false,
        "plugin": {}
    },
    "content": "<p>给 Apple Magic Trackpad 2 写的 PTP 驱动基本上成型了。</p><p><br></p><a class=\"video-box\" href=\"http://link.zhihu.com/?target=https%3A//www.zhihu.com/video/888766510372364288\" target=\"_blank\" data-video-id=\"\" data-video-playable=\"true\" data-name=\"\" data-poster=\"https://pic4.zhimg.com/v2-9958d4b03d6ec32c2419d09450ff2687.jpg\" data-lens-id=\"888766510372364288\">              <img class=\"thumbnail\" src=\"https://pic4.zhimg.com/v2-9958d4b03d6ec32c2419d09450ff2687.jpg\">              <span class=\"content\">                <span class=\"title\"><span class=\"z-ico-extern-gray\"></span><span class=\"z-ico-extern-blue\"></span></span>                <span class=\"url\"><span class=\"z-ico-video\"></span>https://www.zhihu.com/video/888766510372364288</span>              </span>            </a>            <p><br></p><p>这篇文章是 <a href=\"https://zhuanlan.zhihu.com/p/28865245\" class=\"internal\">一些试图改进 MacBook 在 Windows 上的触摸板体验的尝试（更新：MT2 的做好了）</a>的续集。相关代码可在 <a href=\"http://link.zhihu.com/?target=https%3A//github.com/imbushuo/mac-precision-touchpad\" class=\" wrap external\" target=\"_blank\" rel=\"nofollow noreferrer\">imbushuo/mac-precision-touchpad</a> 找到。代码写的很乱，还需要好好整整。</p><p><br></p><p><b>Windows DDK 的坑</b></p><p>不知道为什么，32bit Debuggee 上 Visual Studio 调试器集成起不来。只好在不得已的情况下用 Windbg 来调 UMDF 了（去设置没有 User-mode Debugger 时进入 KD 的 Flag）。另外能用 trace 就用 trace，而不是依赖调试。</p><p><br></p><p><b>Windows Precision Touchpad Collection</b></p><p>其实微软的文档已经比较明确：<a href=\"http://link.zhihu.com/?target=https%3A//docs.microsoft.com/en-us/windows-hardware/design/component-guidelines/touchpad-protocol-implementation\" class=\" wrap external\" target=\"_blank\" rel=\"nofollow noreferrer\">Protocol Implementation</a>，里面定义了各种需要实现的内容。从 Windows 10 开始，鼠标的 HID Collection 是不需要的，为了偷懒，我就没有实现。但是我依旧实现了 Input Configuration Collection （后文会提到为什么）。</p><p><b>PTP Collection 里的 PTPHQA Report 认证散列可以是任意内容，</b><a href=\"http://link.zhihu.com/?target=https%3A//docs.microsoft.com/en-us/windows-hardware/design/component-guidelines/touchpad-windows-precision-touchpad-collection%23device-certification-status-feature-report\" class=\" wrap external\" target=\"_blank\" rel=\"nofollow noreferrer\">可以是官方提供的那个 256 Bytes 的 Blob</a><b>，全部填 0 也没什么问题。</b><a href=\"http://link.zhihu.com/?target=https%3A//blogs.msdn.microsoft.com/windows_hardware_certification/2015/08/19/touch-precision-touchpad-and-pen-hqa-blob-process-change-for-windows-10/\" class=\" wrap external\" target=\"_blank\" rel=\"nofollow noreferrer\">事实上，官方已经忙不过来了。</a>Windows 10 不会读这个内容，Windows 8.1 在安装了 <a href=\"http://link.zhihu.com/?target=https%3A//support.microsoft.com/en-us/help/3095649/win32k-sys-update-in-windows-october-2015\" class=\" wrap external\" target=\"_blank\" rel=\"nofollow noreferrer\">Win32k.sys update in Windows: October 2015</a> 后也不会检查里面的内容。但是 Windows 8.1 要求实现鼠标的 HID Collection，如果你做设备或者驱动时需要注意这一点。</p><p>官方文档规定支持的两种设备总线是 USB 和 I2C，使用 HID 协议通讯。但是实际上只要你实现了额外的 HID minidriver 驱动，就可以支持其他总线连接的触摸板。在这个例子中，因为 Apple 使用自己的 HID 报告结构，并不是 Windows PTP Collection，所以我就需要使用自己写的 HID minidriver 驱动来转换报告。</p><p>PTP 使用 X 和 Y Usage 的 Physical Maximum 来报告设备的实际尺寸（记得带上单位和 Exponent，妈耶不会中文了），使用 Logical Maximum 来报告设备可以取到的坐标最大值。Minimum 可以不写。</p><p>另外记得写 HID Report Descriptor 要 Byte 对齐（</p><p><br></p><p><b>KMDF or UMDF</b></p><p>这个无所谓。KMDF 的签名麻烦一点（UMDF 不需要 EV，任意代码签名就可以，甚至是自签，让用户信任一下）。注意如果需要使用 UMDF 做 HID miniport 驱动并与 USB 设备通讯的话，你不能使用 WinUSB，否则设备不能工作。正确的姿势是升级到 UMDF 2.15，使用 NativeUSB（由 WUDF 反射弧自己处理）。相关的 INF 片段如下：</p><div class=\"highlight\"><pre><code class=\"language-text\"><span></span>; 删掉关于 WinUSB 的引用内容\n[MagicTrackpad2PtpDevice_Install.NT]\nCopyFiles=UMDriverCopy\n\n...\n\n; WUDFRd 作为 Filter DO 使用\n[MagicTrackpad2PtpDevice_Install.NT.Services]\nAddService=mshidumdf, 0x000001fa, MSHIDUMDF_ServiceInstall ; flag 0x2 sets this as the service for the device\nAddService=WUDFRd,0x000001f8,WUDFRD_ServiceInstall         ; this service is installed because its a filter.\n\n....\n\n; 使用 NativeUSB\n[MagicTrackpad2PtpDevice_Install.NT.Wdf]\nUmdfDispatcher=NativeUSB\n\n...\n\n; 记得加注册表加载 WUDFRd 作为 Filter DO\n[MagicTrackpad2PtpDevice_AddReg]\n; By default, USBDevice class uses iProduct descriptor to name the device in\n; Device Manager on Windows 8 and higher.\n; Uncomment for this device to use %DeviceName% on Windows 8 and higher:\nHKR,,FriendlyName,,%DeviceName%\nHKR,,\"LowerFilters\",0x00010008,\"WUDFRd\" ; FLG_ADDREG_TYPE_MULTI_SZ | FLG_ADDREG_APPEND\n</code></pre></div><p><a href=\"http://link.zhihu.com/?target=https%3A//docs.microsoft.com/en-us/windows-hardware/drivers/wdf/creating-umdf-hid-minidrivers\" class=\" wrap external\" target=\"_blank\" rel=\"nofollow noreferrer\">然后把自己的驱动注册成 Filter DO，然后正常做各种 Routine，处理 IOCTL</a>。相关的 IOCTL 可以在这里查到：<a href=\"http://link.zhihu.com/?target=https%3A//msdn.microsoft.com/library/windows/hardware/hh463977\" class=\" wrap external\" target=\"_blank\" rel=\"nofollow noreferrer\">WDF HID Minidriver IOCTLs</a>。<b>UMDF HID Minidriver 需要使用一些特定的 IOCTL，比如用 IOCTL_UMDF_HID_GET_FEATURE 代替 IOCTL_HID_GET_FEATURE。</b>然后弄个生产者-消费者模型的 Queue ，在设备来中断时取报告，Fulfill，完成，就可以开始使用了。</p><p><br></p><p><b>Apple \"Wellspring\" Touchpad</b></p><p>当前在 AppleMac 系列产品上使用的 Touchpad，在开源社区有一个代号叫\"Wellspring\"（虽然我不知道官方是不是这样）。相关的驱动可以在 Linux 代码树的 <a href=\"http://link.zhihu.com/?target=https%3A//github.com/torvalds/linux/blob/master/drivers/input/mouse/bcm5974.c\" class=\" external\" target=\"_blank\" rel=\"nofollow noreferrer\"><span class=\"invisible\">https://</span><span class=\"visible\">github.com/torvalds/lin</span><span class=\"invisible\">ux/blob/master/drivers/input/mouse/bcm5974.c</span><span class=\"ellipsis\"></span></a> 找到。这种触摸板会暴露至少三个 HID Collection，一个标准鼠标，一个触摸板（水果自己的协议），以及一个水果自己定义的专用 Collection。</p><p>如果在连接入设备后不写任何 Feature Report，则工作在鼠标模式下；如果写入了 Feature Report 并带入特定的 Bit，则进入触摸板模式。相关代码可以在我的驱动和上面的 bcm5974.c 里找到。<a href=\"http://link.zhihu.com/?target=https%3A//docs.microsoft.com/en-us/windows-hardware/design/component-guidelines/touchpad-configuration-collection%23input-mode-feature-report\" class=\" wrap external\" target=\"_blank\" rel=\"nofollow noreferrer\">Windows Precision Touchpad 里也有类似的东西</a>，所以我的驱动在收到要求进入 PTP 模式的 Feature Report 后，给设备写 Bit 来进入这个模式（我用的裸写 WDF USB 实现）。</p><p><br></p><p><b>坐标系</b></p><p>Windows Precision Touchpad 以左上角为原点，而水果的触摸板以中央为原点。在报告内容时，需要注意进行坐标转换。</p><p><br></p><p><b>怎么在 Apple 的触摸板上判断 Tip Switch 位（手指放下/手指离开）? Force Touch 的压力数据有没有用处？</b></p><p>多个接触点的情况下，<b>压力数据很不可靠</b>，因此 Force Touch 数据在一根手指时意义更大。多根手指时，压力数据只能判断手指是接上来了还是没有，除非你很用力去按。对于 Confidence 位，建议判断接触点面积。另外数据一定要做 Defuzz，不然会死得很难看……</p><p><br></p><p><b>未完待续的问题</b></p><p>这个列表里的问题还在处理中。未来可能会有更新</p><ul><li>Report Time 怎么处理？</li></ul><p></p>",
    "contributions": [
        {
            "column": {
                "accept_submission": true,
                "articles_count": 65,
                "author": {
                    "avatar_url": "https://pic3.zhimg.com/4ad478c148b4e9ccbe312cfa53402b0f_l.jpg",
                    "avatar_url_template": "https://pic3.zhimg.com/4ad478c148b4e9ccbe312cfa53402b0f_{size}.jpg",
                    "description": "一万本大学生 | Programmer at large | 特别擅长玩坏 BGP | 个人网站 https://swineson.me | 有事请发邮件至 zhihu@public.swineson.me，知乎现在不怎么上，其他联系方式也可能疏于关照 | 本人已委托维权骑士（http://rightknights.com）为我的文章进行维权行动",
                    "gender": 1,
                    "headline": "已而！已而！",
                    "id": "72036ce918812daac46c75d7cac1e7d2",
                    "is_advertiser": false,
                    "is_followed": false,
                    "is_following": false,
                    "is_org": false,
                    "name": "James Swineson",
                    "type": "people",
                    "uid": "27898769571840",
                    "url": "/people/72036ce918812daac46c75d7cac1e7d2",
                    "url_token": "james-swineson",
                    "user_type": "people"
                },
                "can_manage": false,
                "comment_permission": "all",
                "created": 1394632777,
                "description": "",
                "followers": 2135,
                "id": "computers",
                "image_url": "https://pic2.zhimg.com/008a19032e74677b9dcc1946e520b63f_b.jpg",
                "intro": "",
                "is_following": false,
                "title": "About Computers",
                "type": "column",
                "updated": 1438759721,
                "url": "https://zhuanlan.zhihu.com/computers",
                "url_token": "computers"
            },
            "id": 800937,
            "state": "accepted",
            "type": "first_publish"
        }
    ],
    "created": 1504558196,
    "excerpt": "给 Apple Magic Trackpad 2 写的 PTP 驱动基本上成型了。 这篇文章是 <a href=\"https://zhuanlan.zhihu.com/p/28865245\">一些试图改进 MacBook 在 Windows 上的触摸板体验的尝试（更新：MT2 的做好了）</a>的续集。相关代码可在 <a href=\"https://github.com/imbushuo/mac-precision-touchpad\">imbushuo/mac-precision-touchpad</a> 找到。代码写的很乱，还需要好好整整。 <b>Windows D…</b>",
    "excerpt_title": "",
    "has_publishing_draft": false,
    "id": 29060502,
    "image_height": 1716,
    "image_url": "https://pic4.zhimg.com/v2-34e8876a6aa8303c1e6d5229ee0fc323_r.jpg",
    "image_width": 2193,
    "is_favorited": false,
    "is_labeled": false,
    "is_normal": true,
    "is_title_image_full_screen": true,
    "reason": "",
    "share_text": "一些试图改进 MacBook 在 Windows 上的触摸板体验的尝试（续） - 来自知乎专栏「About Computers」，作者: imbushuo https://zhuanlan.zhihu.com/p/29060502 （想看更多？下载 @知乎 App：http://weibo.com/p/100404711598 ）",
    "state": "published",
    "status": 0,
    "suggest_edit": {
        "reason": "",
        "status": false,
        "tip": "",
        "title": "",
        "url": ""
    },
    "tipjarors_count": 0,
    "title": "一些试图改进 MacBook 在 Windows 上的触摸板体验的尝试（续）",
    "title_image": "https://pic4.zhimg.com/v2-34e8876a6aa8303c1e6d5229ee0fc323_r.jpg",
    "topics": [
        {
            "id": "19599175",
            "name": "触摸板",
            "type": "topic",
            "url": "https://www.zhihu.com/api/v4/topics/19599175"
        },
        {
            "id": "20007813",
            "name": "Windows 10",
            "type": "topic",
            "url": "https://www.zhihu.com/api/v4/topics/20007813"
        },
        {
            "id": "19656221",
            "name": "驱动程序开发",
            "type": "topic",
            "url": "https://www.zhihu.com/api/v4/topics/19656221"
        }
    ],
    "type": "article",
    "updated": 1504678589,
    "upvoted_followees": [],
    "url": "https://zhuanlan.zhihu.com/p/29060502",
    "voteup_count": 82,
    "voting": 0
}