{
    "admin_closed_comment": false,
    "author": {
        "avatar_url": "https://pic3.zhimg.com/4ad478c148b4e9ccbe312cfa53402b0f_l.jpg",
        "avatar_url_template": "https://pic3.zhimg.com/4ad478c148b4e9ccbe312cfa53402b0f_{size}.jpg",
        "badge": [],
        "description": "一万本大学生 | Programmer at large | 特别擅长玩坏 BGP | 个人网站 https://swineson.me | 有事请发邮件至 zhihu@public.swineson.me，知乎现在不怎么上，其他联系方式也可能疏于关照 | 本人已委托维权骑士（http://rightknights.com）为我的文章进行维权行动",
        "gender": 1,
        "headline": "已而！已而！",
        "id": "72036ce918812daac46c75d7cac1e7d2",
        "is_advertiser": false,
        "is_followed": false,
        "is_following": false,
        "is_org": false,
        "name": "James Swineson",
        "type": "people",
        "uid": "27898769571840",
        "url": "/people/72036ce918812daac46c75d7cac1e7d2",
        "url_token": "james-swineson",
        "user_type": "people"
    },
    "can_comment": {
        "reason": "",
        "status": true
    },
    "comment_count": 3,
    "comment_permission": "all",
    "created": 1380672620,
    "excerpt": "这算一个交友软件。摇一摇啊，附近的人啊之类的我觉得大家也该玩腻了，总该换换口味。Together 的定位在于依靠行为模式的相似程度推荐好友。其实这种玩法有很多。比如说分析手机的使用模式：使用时长和时间段，使用的 App 类型，每天接电话发短信的数量，等…",
    "excerpt_title": "",
    "id": 19587621,
    "image_url": "",
    "is_labeled": false,
    "state": "published",
    "title": "[App]Together：人以类聚",
    "title_image": "",
    "type": "article",
    "updated": 1380672620,
    "url": "https://zhuanlan.zhihu.com/p/19587621",
    "voteup_count": 2,
    "voting": 0
}