{
    "admin_closed_comment": false,
    "author": {
        "avatar_url": "https://pic3.zhimg.com/4ad478c148b4e9ccbe312cfa53402b0f_l.jpg",
        "avatar_url_template": "https://pic3.zhimg.com/4ad478c148b4e9ccbe312cfa53402b0f_{size}.jpg",
        "badge": [],
        "description": "一万本大学生 | Programmer at large | 特别擅长玩坏 BGP | 个人网站 https://swineson.me | 有事请发邮件至 zhihu@public.swineson.me，知乎现在不怎么上，其他联系方式也可能疏于关照 | 本人已委托维权骑士（http://rightknights.com）为我的文章进行维权行动",
        "gender": 1,
        "headline": "已而！已而！",
        "id": "72036ce918812daac46c75d7cac1e7d2",
        "is_advertiser": false,
        "is_followed": false,
        "is_following": false,
        "is_org": false,
        "name": "James Swineson",
        "type": "people",
        "uid": "27898769571840",
        "url": "/people/72036ce918812daac46c75d7cac1e7d2",
        "url_token": "james-swineson",
        "user_type": "people"
    },
    "can_comment": {
        "reason": "",
        "status": true
    },
    "comment_count": 11,
    "comment_permission": "all",
    "created": 1406034446,
    "excerpt": "保护套盖子和本体中间装有电磁锁，保护套上盖上面装有提供最基础的接打电话、查看短信和显示时间功能的小显示器和按钮。手机上安装 App，设定时间后盖上保护套，在设定的时间内就无法再次打开了。盈利模式允许家长远程查看状态和设定时间 在设定时间内付费…",
    "excerpt_title": "",
    "id": 19807062,
    "image_url": "",
    "is_labeled": false,
    "state": "published",
    "title": "[Hardware]Cover: 学霸的手机保护套",
    "title_image": "",
    "type": "article",
    "updated": 1406037214,
    "url": "https://zhuanlan.zhihu.com/p/19807062",
    "voteup_count": 17,
    "voting": 0
}