{
    "admin_closed_comment": false,
    "author": {
        "avatar_url": "https://pic3.zhimg.com/4ad478c148b4e9ccbe312cfa53402b0f_l.jpg",
        "avatar_url_template": "https://pic3.zhimg.com/4ad478c148b4e9ccbe312cfa53402b0f_{size}.jpg",
        "badge": [],
        "description": "一万本大学生 | Programmer at large | 特别擅长玩坏 BGP | 个人网站 https://swineson.me | 有事请发邮件至 zhihu@public.swineson.me，知乎现在不怎么上，其他联系方式也可能疏于关照 | 本人已委托维权骑士（http://rightknights.com）为我的文章进行维权行动",
        "gender": 1,
        "headline": "已而！已而！",
        "id": "72036ce918812daac46c75d7cac1e7d2",
        "is_advertiser": false,
        "is_followed": false,
        "is_following": false,
        "is_org": false,
        "name": "James Swineson",
        "type": "people",
        "uid": "27898769571840",
        "url": "/people/72036ce918812daac46c75d7cac1e7d2",
        "url_token": "james-swineson",
        "user_type": "people"
    },
    "can_comment": {
        "reason": "",
        "status": true
    },
    "comment_count": 6,
    "comment_permission": "all",
    "created": 1391778649,
    "excerpt": "似乎很多人都受某种决定论的影响而持有这样一种观点：某人做了某件事情，该件事情的行为和结果都只有一个原因就是做事者本身。这种情况发生在争执之时，我们把它叫做：人身攻击。这绝对是一个转移话题的绝妙方法。我与你争辩，你只要说一切的一切都是因为我…",
    "excerpt_title": "",
    "id": 19671800,
    "image_url": "",
    "is_labeled": false,
    "state": "published",
    "title": "人身攻击和转移话题",
    "title_image": "",
    "type": "article",
    "updated": 1391778649,
    "url": "https://zhuanlan.zhihu.com/p/19671800",
    "voteup_count": 45,
    "voting": 0
}