{
    "admin_closed_comment": false,
    "author": {
        "avatar_url": "https://pic3.zhimg.com/4ad478c148b4e9ccbe312cfa53402b0f_l.jpg",
        "avatar_url_template": "https://pic3.zhimg.com/4ad478c148b4e9ccbe312cfa53402b0f_{size}.jpg",
        "badge": [],
        "description": "一万本大学生 | Programmer at large | 特别擅长玩坏 BGP | 个人网站 https://swineson.me | 有事请发邮件至 zhihu@public.swineson.me，知乎现在不怎么上，其他联系方式也可能疏于关照 | 本人已委托维权骑士（http://rightknights.com）为我的文章进行维权行动",
        "gender": 1,
        "headline": "已而！已而！",
        "id": "72036ce918812daac46c75d7cac1e7d2",
        "is_advertiser": false,
        "is_followed": false,
        "is_following": false,
        "is_org": false,
        "name": "James Swineson",
        "type": "people",
        "uid": "27898769571840",
        "url": "/people/72036ce918812daac46c75d7cac1e7d2",
        "url_token": "james-swineson",
        "user_type": "people"
    },
    "can_comment": {
        "reason": "",
        "status": true
    },
    "comment_count": 1,
    "comment_permission": "all",
    "created": 1376399214,
    "excerpt": "我相信大多数中学生都目睹过这样一幕：老师在课堂上开着 PPT 讲课，一不小心就戳到一个超链接了（一般都是百度搜索直接复制的缩略图）。然后在假死十秒钟以后熟悉的 Internet Explorer 6 婀娜多姿的身影出现在屏幕上……顿时台上手忙脚乱台下一片哗然。那么…",
    "excerpt_title": "",
    "id": 19566504,
    "image_url": "",
    "is_labeled": false,
    "state": "published",
    "title": "[软件] Powerpoint 文档演示前检查工具",
    "title_image": "",
    "type": "article",
    "updated": 1376465468,
    "url": "https://zhuanlan.zhihu.com/p/19566504",
    "voteup_count": 2,
    "voting": 0
}